{
  "codeSystems" : [
    {
      "url" : "http://hl7.org/fhir/event-timing",
      "version" : "4.3.0",
      "status" : "active",
      "name" : "EventTiming",
      "title" : "EventTiming",
      "description" : "Real world event relating to the schedule.",
      "oids" : ["2.16.840.1.113883.4.642.1.76"],
      "uses" : {
      },
      "ValueSet-ehdsi-timing-event.html" : "eHDSI-Timing-Event"
    },
    {
      "url" : "http://hl7.org/fhir/uv/ips/CodeSystem/absent-unknown-uv-ips",
      "version" : "1.1.0",
      "status" : "active",
      "name" : "AbsentAndUnknownDataUvIps",
      "title" : "Absent and Unknown Data - IPS",
      "description" : "International Patient Summary (IPS) codes for \"known absent\" and \"not known\" data.",
      "uses" : {
      },
      "ValueSet-elga-absentorunknowndevices.html" : "ELGA_AbsentOrUnknownDevices",
      "ValueSet-elga-absentorunknownallergies.html" : "ELGA_AbsentOrUnknownAllergies",
      "ValueSet-elga-absentorunknownmedication.html" : "ELGA_AbsentOrUnknownMedication",
      "ValueSet-elga-absentorunknownprocedures.html" : "ELGA_AbsentOrUnknownProcedures",
      "ValueSet-elga-absentorunknownproblems.html" : "ELGA_AbsentOrUnknownProblems"
    },
    {
      "url" : "http://loinc.org",
      "version" : "3.1.0",
      "status" : "active",
      "name" : "LOINC",
      "title" : "Logical Observation Identifiers, Names and Codes (LOINC)",
      "description" : "LOINC provides a set of universal names and ID codes for identifying laboratory and clinical test results.1,2 LOINC facilitates the exchange and pooling of results, such as blood hemoglobin, serum potassium, or vital signs, for clinical care, outcomes management, and research. LOINC's universal identifiers (names and codes) can be used in the context of order and observation exchanges between information systems that use syntax standards such as HL73, CEN TC251, ISO TC215, ASTM4, and DICOM. Specifically, the identifier can be used as the coded value for an observation in any other standard that uses the observation/observation value paradigm, whether messages, documents, application programming interface (API), etc. For example, LOINC codes are used widely in the OBX segment Observation Identifier field (OBX-3) of an ORU HL7 (HL7 version 2.x or ASTM 1238-9410) message that may be sent between a Clinical Laboratory Information Management Systems (LIMS) and Electronic Health Record Systems (EHR).5, 6 In this way, LOINC codes provide universal identifiers that allow the exchange of clinical data between heterogeneous computing environments.",
      "oids" : ["2.16.840.1.113883.6.1"],
      "uses" : {
      },
      "ValueSet-elga-pregnanciessummary.html" : "ELGA_PregnanciesSummary",
      "ValueSet-elga-sectionspflegesitber.html" : "ELGA_SectionsPflegeSitber",
      "ValueSet-elga-sectionsradiologie.html" : "ELGA_SectionsRadiologie",
      "ValueSet-elga-sectionsentlassungaerztl.html" : "ELGA_SectionsEntlassungAerztl",
      "ValueSet-elga-sectionsentlassungpflege.html" : "ELGA_SectionsEntlassungPflege",
      "ValueSet-elga-expecteddeliverydatemethod.html" : "ELGA_ExpectedDeliveryDateMethod",
      "ValueSet-elga-kulturerregernachweis.html" : "ELGA_KulturErregernachweis",
      "ValueSet-elga-dokumentenklassen.html" : "ELGA_Dokumentenklassen",
      "ValueSet-hl7-at-xds-dokumentenklassen.html" : "HL7-at_XDS-Dokumentenklassen",
      "ValueSet-elga-pregnancystatus.html" : "ELGA_PregnancyStatus",
      "ValueSet-dgc-typeoftest.html" : "DGC_TypeofTest",
      "ValueSet-elga-antibiogramm.html" : "ELGA_Antibiogramm"
    },
    {
      "url" : "http://snomed.info/sct",
      "version" : null,
      "status" : "active",
      "name" : "SNOMED_CT",
      "title" : "SNOMED CT (all versions)",
      "description" : "SNOMED CT is the most comprehensive and precise clinical health terminology product in the world, owned and distributed around the world by The International Health Terminology Standards Development Organisation (IHTSDO).",
      "oids" : ["2.16.840.1.113883.6.96"],
      "uses" : {
      },
      "ValueSet-elga-medicaldevices.html" : "ELGA_MedicalDevices",
      "ValueSet-elga-topographicalmodifierqualifier.html" : "ELGA_TopographicalModifierQualifier",
      "ConceptMap-snomed-orphanet-mapping.html" : "SNOMED Orphanet Mapping",
      "ValueSet-elga-procedureapproachsite.html" : "ELGA_ProcedureApproachSite",
      "ValueSet-elga-targetsite.html" : "ELGA_TargetSite",
      "ValueSet-eimpf-medikationartanwendung.html" : "eImpf_MedikationArtAnwendung",
      "ValueSet-elga-radiopharmaceuticals.html" : "ELGA_Radiopharmaceuticals",
      "ValueSet-rads-breastimaging.html" : "RADS_BreastImaging"
    },
    {
      "url" : "http://terminology.hl7.org/CodeSystem/ACR",
      "version" : "2.0.1",
      "status" : "retired",
      "name" : "ACR",
      "title" : "American College of Radiology finding codes",
      "description" : "American College of Radiology finding codes",
      "oids" : ["2.16.840.1.113883.6.76"],
      "uses" : {
      },
      "ValueSet-rads-diagnosticimagingscales.html" : "RADS_DiagnosticImagingScales",
      "ValueSet-rads-prostateimaging.html" : "RADS_ProstateImaging",
      "ValueSet-rads-coronaryarterydisease.html" : "RADS_CoronaryArteryDisease",
      "ValueSet-rads-thyroidimaging.html" : "RADS_ThyroidImaging",
      "ValueSet-rads-liverimaging.html" : "RADS_LiverImaging"
    },
    {
      "url" : "http://terminology.hl7.org/CodeSystem/v2-0001",
      "version" : "2.1.0",
      "status" : "active",
      "name" : "AdministrativeSex",
      "title" : "administrativeSex",
      "description" : "Code system of concepts specifying a patient's sex for administrative purposes.  Used in HL7 Version 2.x messages in the PID segment.",
      "oids" : ["2.16.840.1.113883.18.2"],
      "uses" : {
      },
      "ValueSet-hl7-at-administrativegender-v2.html" : "HL7-at_AdministrativeGender-v2"
    },
    {
      "url" : "http://terminology.hl7.org/CodeSystem/v2-0203",
      "version" : "4.0.0",
      "status" : "active",
      "name" : "IdentifierType",
      "title" : "identifierType",
      "description" : "HL7-defined code system of concepts specifying type of identifier. Used in HL7 Version 2.x messaging data types CX, PLN, PPN, XCN and XON.",
      "oids" : ["2.16.840.1.113883.18.108"],
      "uses" : {
      },
      "ValueSet-hl7-at-patientidentifier.html" : "HL7-at_PatientIdentifier"
    },
    {
      "url" : "http://terminology.hl7.org/CodeSystem/v3-ActCode",
      "version" : "9.0.0",
      "status" : "active",
      "name" : "ActCode",
      "title" : "ActCode",
      "description" : "A code specifying the particular kind of Act that the Act-instance represents within its class.\r\n\r\n*Constraints:* The kind of Act (e.g. physical examination, serum potassium, inpatient encounter, charge financial transaction, etc.) is specified with a code from one of several, typically external, coding systems. The coding system will depend on the class of Act, such as LOINC for observations, etc.\r\n\r\nConceptually, the Act.code must be a specialization of the Act.classCode. This is why the structure of ActClass domain should be reflected in the superstructure of the ActCode domain and then individual codes or externally referenced vocabularies subordinated under these domains that reflect the ActClass structure.\r\n\r\nAct.classCode and Act.code are not modifiers of each other but the Act.code concept should really imply the Act.classCode concept. For a negative example, it is not appropriate to use an Act.code \"potassium\" together with and Act.classCode for \"laboratory observation\" to somehow mean \"potassium laboratory observation\" and then use the same Act.code for \"potassium\" together with Act.classCode for \"medication\" to mean \"substitution of potassium\". This mutually modifying use of Act.code and Act.classCode is not permitted.",
      "oids" : ["2.16.840.1.113883.5.4"],
      "uses" : {
      },
      "ValueSet-elga-medikationabgabeart.html" : "ELGA_MedikationAbgabeArt",
      "ValueSet-ehdsi-actsubstanceadministrationcode.html" : "eHDSI_ActSubstanceAdministrationCode",
      "ValueSet-hl7-at-actconsenttype.html" : "HL7-at_ActConsentType",
      "ValueSet-elga-actencountercode.html" : "ELGA_ActEncounterCode"
    },
    {
      "url" : "http://terminology.hl7.org/CodeSystem/v3-ActSite",
      "version" : "3.0.0",
      "status" : "active",
      "name" : "ActSite",
      "title" : "ActSite",
      "description" : "An anatomical location on an organism which can be the focus of an act.",
      "oids" : ["2.16.840.1.113883.5.1052"],
      "uses" : {
      },
      "ValueSet-elga-humanactsite.html" : "ELGA_HumanActSite"
    },
    {
      "url" : "http://terminology.hl7.org/CodeSystem/v3-ActStatus",
      "version" : "3.0.0",
      "status" : "active",
      "name" : "ActStatus",
      "title" : "ActStatus",
      "description" : "Codes representing the defined possible states of an Act, as defined by the Act class state machine.",
      "oids" : ["2.16.840.1.113883.5.14"],
      "uses" : {
      },
      "ValueSet-elga-problemstatuscode.html" : "ELGA_ProblemStatusCode"
    },
    {
      "url" : "http://terminology.hl7.org/CodeSystem/v3-AddressUse",
      "version" : "3.0.1",
      "status" : "active",
      "name" : "AddressUse",
      "title" : "AddressUse",
      "description" : "Codes that provide guidance around the circumstances in which a given address should be used.",
      "oids" : ["2.16.840.1.113883.5.1119"],
      "uses" : {
      },
      "ValueSet-ehdsi-telecom-address.html" : "eHDSI-Telecom-Address",
      "ValueSet-elga-addressuse.html" : "ELGA_AddressUse",
      "ValueSet-elga-telecomaddressuse.html" : "ELGA_TelecomAddressUse"
    },
    {
      "url" : "http://terminology.hl7.org/CodeSystem/v3-AdministrativeGender",
      "version" : "3.0.0",
      "status" : "active",
      "name" : "AdministrativeGender",
      "title" : "AdministrativeGender",
      "description" : "The gender of a person used for adminstrative purposes (as opposed to clinical gender)",
      "oids" : ["2.16.840.1.113883.5.1"],
      "uses" : {
      },
      "ValueSet-ehdsi-administrative-gender.html" : "eHDSI-Administrative-Gender",
      "ValueSet-elga-administrativegender.html" : "ELGA_AdministrativeGender"
    },
    {
      "url" : "http://terminology.hl7.org/CodeSystem/v3-Confidentiality",
      "version" : "3.0.0",
      "status" : "active",
      "name" : "Confidentiality",
      "title" : "Confidentiality",
      "description" : "A set of codes specifying the security classification of acts and roles in accordance with the definition for concept domain \"Confidentiality\".",
      "oids" : ["2.16.840.1.113883.5.25"],
      "uses" : {
      },
      "ValueSet-ehdsi-confidentiality.html" : "EHDSI_Confidentiality",
      "ValueSet-elga-confidentiality.html" : "ELGA_Confidentiality"
    },
    {
      "url" : "http://terminology.hl7.org/CodeSystem/v3-EntityNamePartQualifier",
      "version" : "3.0.0",
      "status" : "active",
      "name" : "EntityNamePartQualifier",
      "title" : "EntityNamePartQualifier",
      "description" : "*OpenIssue:* Needs description",
      "oids" : ["2.16.840.1.113883.5.43"],
      "uses" : {
      },
      "ValueSet-elga-entitynamepartqualifier.html" : "ELGA_EntityNamePartQualifier"
    },
    {
      "url" : "http://terminology.hl7.org/CodeSystem/v3-EntityNameUse",
      "version" : "3.0.0",
      "status" : "active",
      "name" : "EntityNameUse",
      "title" : "EntityNameUse",
      "description" : "**** MISSING DESCRIPTION ****",
      "oids" : ["2.16.840.1.113883.5.45"],
      "uses" : {
      },
      "ValueSet-elga-entitynameuse.html" : "ELGA_EntityNameUse"
    },
    {
      "url" : "http://terminology.hl7.org/CodeSystem/v3-LanguageAbilityMode",
      "version" : "3.0.0",
      "status" : "active",
      "name" : "LanguageAbilityMode",
      "title" : "LanguageAbilityMode",
      "description" : "A value representing the method of expression of the language.\r\n\r\n*Example:*Expressed spoken, expressed written, expressed signed, received spoken, received written, received signed.\r\n\r\n*OpenIssue:* Description copied from Concept Domain of same name. Must be verified.",
      "oids" : ["2.16.840.1.113883.5.60"],
      "uses" : {
      },
      "ValueSet-elga-languageabilitymode.html" : "ELGA_LanguageAbilityMode"
    },
    {
      "url" : "http://terminology.hl7.org/CodeSystem/v3-LanguageAbilityProficiency",
      "version" : "3.0.0",
      "status" : "active",
      "name" : "LanguageAbilityProficiency",
      "title" : "LanguageAbilityProficiency",
      "description" : "A value representing the level of proficiency in a language.\r\n\r\n*Example:*Excellent, good, fair, poor.\r\n\r\n*OpenIssue:* Description copied from Concept Domain of same name. Must be verified.",
      "oids" : ["2.16.840.1.113883.5.61"],
      "uses" : {
      },
      "ValueSet-elga-proficiencylevelcode.html" : "ELGA_ProficiencyLevelCode"
    },
    {
      "url" : "http://terminology.hl7.org/CodeSystem/v3-MaritalStatus",
      "version" : "3.0.0",
      "status" : "active",
      "name" : "MaritalStatus",
      "title" : "MaritalStatus",
      "description" : "\\* \\* \\* No description supplied \\* \\* \\*\r\n\r\n*Open Issue:* The specific meanings of these codes can vary somewhat by jurisdiction and implementation so caution should be used when determining equivalency.\r\n\r\n*Open Issue:* fixing and completion of the hierarchy and proper good definitions of all the concepts is badly needed.",
      "oids" : ["2.16.840.1.113883.5.2"],
      "uses" : {
      },
      "ValueSet-elga-maritalstatus.html" : "ELGA_MaritalStatus"
    },
    {
      "url" : "http://terminology.hl7.org/CodeSystem/v3-NullFlavor",
      "version" : "3.0.0",
      "status" : "active",
      "name" : "NullFlavor",
      "title" : "NullFlavor",
      "description" : "A collection of codes specifying why a valid value is not present.",
      "oids" : ["2.16.840.1.113883.5.1008"],
      "uses" : {
      },
      "ValueSet-elga-nullflavor.html" : "ELGA_NullFlavor"
    },
    {
      "url" : "http://terminology.hl7.org/CodeSystem/v3-ObservationInterpretation",
      "version" : "3.0.0",
      "status" : "active",
      "name" : "ObservationInterpretation",
      "title" : "ObservationInterpretation",
      "description" : "One or more codes providing a rough qualitative interpretation of the observation, such as \"normal\" / \"abnormal\", \"low\" / \"high\", \"better\" / \"worse\", \"resistant\" / \"susceptible\", \"expected\" / \"not expected\". The value set is intended to be for ANY use where coded representation of an interpretation is needed.",
      "oids" : ["2.16.840.1.113883.5.83"],
      "uses" : {
      },
      "ValueSet-elga-observationinterpretation.html" : "ELGA_ObservationInterpretation"
    },
    {
      "url" : "http://terminology.hl7.org/CodeSystem/v3-ParticipationFunction",
      "version" : "3.0.0",
      "status" : "active",
      "name" : "ParticipationFunction",
      "title" : "ParticipationFunction",
      "description" : "This code is used to specify the exact function an actor had in a service in all necessary detail. This domain may include local extensions (CWE).",
      "oids" : ["2.16.840.1.113883.5.88"],
      "uses" : {
      },
      "ValueSet-elga-participationfunctioncode.html" : "ELGA_ParticipationFunctionCode"
    },
    {
      "url" : "http://terminology.hl7.org/CodeSystem/v3-ParticipationType",
      "version" : "5.0.0",
      "status" : "active",
      "name" : "ParticipationType",
      "title" : "ParticipationType",
      "description" : "A code specifying the meaning and purpose of every Participation instance. Each of its values implies specific constraints on the Roles undertaking the participation.",
      "oids" : ["2.16.840.1.113883.5.90"],
      "uses" : {
      },
      "ValueSet-v3-ParticipationType.html" : "ParticipationType",
      "ValueSet-elga-informationrecipienttype.html" : "ELGA_InformationRecipientType",
      "ValueSet-elga-serviceeventperformer.html" : "ELGA_ServiceEventPerformer"
    },
    {
      "url" : "http://terminology.hl7.org/CodeSystem/v3-RoleClass",
      "version" : "4.0.0",
      "status" : "active",
      "name" : "RoleClass",
      "title" : "RoleClass",
      "description" : "Codes for the Role class hierarchy. The values in this hierarchy, represent a Role which is an association or relationship between two entities - the entity that plays the role and the entity that scopes the role. Roles names are derived from the name of the playing entity in that role.\r\n\r\nThe role hierarchy stems from three core concepts, or abstract domains:\r\n\r\n *  **RoleClassOntological** is an abstract domain that collects roles in which the playing entity is defined or specified by the scoping entity.\r\n *  **RoleClassPartitive** collects roles in which the playing entity is in some sense a \"part\" of the scoping entity.\r\n *  **RoleClassAssociative** collects all of the remaining forms of association between the playing entity and the scoping entity. This set of roles is further partitioned between:\r\n    \r\n     *  **RoleClassPassive** which are roles in which the playing entity is used, known, treated, handled, built, or destroyed, etc. under the auspices of the scoping entity. The playing entity is passive in these roles in that the role exists without an agreement from the playing entity.\r\n     *  **RoleClassMutualRelationship** which are relationships based on mutual behavior of the two entities. The basis of these relationship may be formal agreements or they may be *de facto* behavior. Thus, this sub-domain is further divided into:\r\n        \r\n         *  **RoleClassRelationshipFormal** in which the relationship is formally defined, frequently by a contract or agreement.\r\n         *  **Personal relationship** which inks two people in a personal relationship.\r\n\r\nThe hierarchy discussed above is represented In the current vocabulary tables as a set of abstract domains, with the exception of the \"Personal relationship\" which is a leaf concept.\r\n\r\n*OpenIssue:* Description copied from Concept Domain of same name. Must be verified.",
      "oids" : ["2.16.840.1.113883.5.110"],
      "uses" : {
      },
      "ValueSet-elga-roleclass.html" : "ELGA_RoleClass"
    },
    {
      "url" : "http://terminology.hl7.org/CodeSystem/v3-RoleCode",
      "version" : "3.0.0",
      "status" : "active",
      "name" : "RoleCode",
      "title" : "RoleCode",
      "description" : "A set of codes further specifying the kind of Role; specific classification codes for further qualifying RoleClass codes.",
      "oids" : ["2.16.840.1.113883.5.111"],
      "uses" : {
      },
      "ValueSet-elga-insuredassocentity.html" : "ELGA_InsuredAssocEntity",
      "ValueSet-elga-personalrelationship.html" : "ELGA_PersonalRelationship"
    },
    {
      "url" : "http://terminology.hl7.org/CodeSystem/v3-RouteOfAdministration",
      "version" : "3.0.0",
      "status" : "active",
      "name" : "RouteOfAdministration",
      "title" : "RouteOfAdministration",
      "description" : "The path the administered medication takes to get into the body or into contact with the body.",
      "oids" : ["2.16.840.1.113883.5.112"],
      "uses" : {
      },
      "ValueSet-v3-RouteOfAdministration.html" : "RouteOfAdministration"
    },
    {
      "url" : "http://terminology.hl7.org/CodeSystem/v3-TargetAwareness",
      "version" : "3.0.0",
      "status" : "active",
      "name" : "TargetAwareness",
      "title" : "TargetAwareness",
      "description" : "A code specifying the extent to which the Entity playing the participating Role (usually as a target Participation) is aware of the associated Act.\r\n\r\n*Examples:* For diagnostic observations, is the patient, family member or other participant aware of his terminal illness?\r\n\r\n*Discussion:* If the awareness, denial, unconsciousness, etc. is the subject of medical considerations (e.g., part of the problem list), one should use explicit observations in these matters as well, and should not solely rely on this simple attribute in the Participation.",
      "oids" : ["2.16.840.1.113883.5.137"],
      "uses" : {
      },
      "ValueSet-v3-TargetAwareness.html" : "TargetAwareness"
    },
    {
      "url" : "http://terminology.hl7.org/CodeSystem/v3-TimingEvent",
      "version" : "3.0.0",
      "status" : "active",
      "name" : "TimingEvent",
      "title" : "TimingEvent",
      "description" : "**** MISSING DESCRIPTION ****",
      "oids" : ["2.16.840.1.113883.5.139"],
      "uses" : {
      },
      "ValueSet-ehdsi-timing-event.html" : "eHDSI-Timing-Event",
      "ValueSet-elga-einnahmezeitpunkte.html" : "ELGA_Einnahmezeitpunkte"
    },
    {
      "url" : "http://terminology.hl7.org/CodeSystem/v3-URLScheme",
      "version" : "3.0.0",
      "status" : "active",
      "name" : "URLScheme",
      "title" : "Universal Resource Locator Scheme",
      "description" : "A Universal Resource Locator (URL) is a type of telecommunications address specified as Internet standard RFC 1738 \\[http://www.isi.edu/in-notes/rfc1738.txt\\]. The URL specifies the protocol and the contact point defined by that protocol for the resource.",
      "oids" : ["2.16.840.1.113883.5.143"],
      "uses" : {
      },
      "ValueSet-elga-urlscheme.html" : "ELGA_URLScheme"
    },
    {
      "url" : "http://unitsofmeasure.org",
      "version" : "3.0.1",
      "status" : "active",
      "name" : "UCUM",
      "title" : "Unified Code for Units of Measure (UCUM)",
      "description" : "The Unified Code for Units of Measure (UCUM) is a code system intended to include all units of measures being contemporarily used in international science, engineering, and business. The purpose is to facilitate unambiguous electronic communication of quantities together with their units. The focus is on electronic communication, as opposed to communication between humans. A typical application of The Unified Code for Units of Measure are electronic data interchange (EDI) protocols, but there is nothing that prevents it from being used in other types of machine communication.",
      "oids" : ["2.16.840.1.113883.6.8"],
      "uses" : {
      },
      "ValueSet-ehdsi-unit.html" : "eHDSI-Unit",
      "ValueSet-elga-medikationmengenart.html" : "ELGA_MedikationMengenart",
      "ValueSet-zeiteinheiten.html" : "Zeiteinheiten",
      "ValueSet-eimpf-mengenart.html" : "eImpf_Mengenart",
      "ValueSet-elga-medikationfrequenz.html" : "ELGA_MedikationFrequenz"
    },
    {
      "url" : "https://termgit.elga.gv.at/CodeSystem/appc-anatomie",
      "version" : "1.1.0+20240820",
      "status" : "active",
      "name" : "appc-anatomie",
      "title" : "APPC_Anatomie",
      "description" : "**Description:** Code List for all APPC-Codes for 4th Axis: Anatomy  **Beschreibung:** Code Liste aller Codes der 4. APPC-Achse: Anatomie  **Versions-Beschreibung:** Korrekturversion zu 1.0.10",
      "oids" : ["1.2.40.0.34.5.38.4"],
      "uses" : {
      },
      "ValueSet-appc-anatomie.html" : "APPC_Anatomie"
    },
    {
      "url" : "https://termgit.elga.gv.at/CodeSystem/appc-lateralitaet",
      "version" : "1.1.0+20240820",
      "status" : "active",
      "name" : "appc-lateralitaet",
      "title" : "APPC_Lateralitaet",
      "description" : "**Description:** Code List for all APPC-Codes for 2nd Axis: Laterality  **Beschreibung:** Code Liste aller Codes der 2. APPC-Achse: Lateralität",
      "oids" : ["1.2.40.0.34.5.38.2"],
      "uses" : {
      },
      "ValueSet-appc-lateralitaet.html" : "APPC_Lateralitaet"
    },
    {
      "url" : "https://termgit.elga.gv.at/CodeSystem/appc-modalitaet",
      "version" : "1.1.0+20240820",
      "status" : "active",
      "name" : "appc-modalitaet",
      "title" : "APPC_Modalitaet",
      "description" : "**Description:** Code List for all APPC-Codes for 1st Axis: Modality  **Beschreibung:** Code Liste aller Codes der 1. APPC-Achse: Modalität",
      "oids" : ["1.2.40.0.34.5.38.1"],
      "uses" : {
      },
      "ValueSet-appc-modalitaet.html" : "APPC_Modalitaet"
    },
    {
      "url" : "https://termgit.elga.gv.at/CodeSystem/appc-prozeduren",
      "version" : "1.1.0+20240820",
      "status" : "active",
      "name" : "appc-prozeduren",
      "title" : "APPC_Prozeduren",
      "description" : "**Description:** Code List for all APPC-Codes for 3rd Axis: Procedures  **Beschreibung:** Code Liste aller Codes der 3. APPC-Achse: Prozeduren",
      "oids" : ["1.2.40.0.34.5.38.3"],
      "uses" : {
      },
      "ValueSet-appc-prozeduren.html" : "APPC_Prozeduren"
    },
    {
      "url" : "https://termgit.elga.gv.at/CodeSystem/atc-deutsch-wido",
      "version" : "2.0.0+20230501",
      "status" : "active",
      "name" : "atc-deutsch-wido",
      "title" : "ATC deutsch (WIdO)",
      "description" : "ATC Codes des WIdO. Datenquelle des ATC-Index mit DDD-Angaben: GKV-Arzneimittelindex im wissenschaftlichen Institut der AOK (WIdO), AOK Bundesverband GbR, Deutschland, Stand 05 2020",
      "oids" : ["1.2.276.0.76.5.547"],
      "uses" : {
      },
      "ValueSet-ehdsi-activeingredient.html" : "eHDSI_ActiveIngredient"
    },
    {
      "url" : "https://termgit.elga.gv.at/CodeSystem/austrian-designation-use",
      "version" : "2.1.0+20240402",
      "status" : "active",
      "name" : "austrian-designation-use",
      "title" : "Austrian Designation Use",
      "description" : "Mögliche Designations für den österreichischen eHealth-Bereich",
      "oids" : ["1.2.40.0.34.5.217"],
      "uses" : {
      },
      "ValueSet-austrian-designation-use.html" : "Austrian Designation Use"
    },
    {
      "url" : "https://termgit.elga.gv.at/CodeSystem/dcm",
      "version" : "1.1.0+20240820",
      "status" : "active",
      "name" : "dcm",
      "title" : "DCM",
      "description" : null,
      "oids" : ["1.2.840.10008.2.16.4"],
      "uses" : {
      },
      "ValueSet-elga-dosisparameter.html" : "ELGA_Dosisparameter",
      "ValueSet-elga-sectionsradiologie.html" : "ELGA_SectionsRadiologie",
      "ValueSet-elga-auditeventtype.html" : "ELGA_AuditEventType",
      "ValueSet-elga-auditroleid.html" : "ELGA_AuditRoleID"
    },
    {
      "url" : "https://termgit.elga.gv.at/CodeSystem/dgc-qr",
      "version" : "2.5.0+20230523",
      "status" : "retired",
      "name" : "dgc-qr",
      "title" : "DGC_QR",
      "description" : null,
      "oids" : ["1.2.40.0.34.5.202"],
      "uses" : {
      },
      "ValueSet-dgc-country.html" : "DGC_Country"
    },
    {
      "url" : "https://termgit.elga.gv.at/CodeSystem/dgc-ratnamemanufacturer",
      "version" : "2.4.0+20230523",
      "status" : "retired",
      "name" : "dgc-ratnamemanufacturer",
      "title" : "DGC_RATNameManufacturer",
      "description" : "In der Liste sind ausschließlich RAT enthalten.",
      "oids" : ["1.2.40.0.34.5.205"],
      "uses" : {
      },
      "ValueSet-dgc-ratnamemanufacturer.html" : "DGC_RATNameManufacturer"
    },
    {
      "url" : "https://termgit.elga.gv.at/CodeSystem/dicom-sopclasses",
      "version" : "1.1.0+20240820",
      "status" : "active",
      "name" : "dicom-sopclasses",
      "title" : "DICOM_SOPClasses",
      "description" : "**Description:** DICOM Standard SOP Classes\n\n**Beschreibung:** DICOM Standard SOP Classes, siehe DICOM Part 4: Service Class Specification",
      "oids" : ["1.2.840.10008.2.6.1"],
      "uses" : {
      },
      "ValueSet-dicom-sopclasses.html" : "DICOM_SOPClasses"
    },
    {
      "url" : "https://termgit.elga.gv.at/CodeSystem/ehdsi-edqm-auszug",
      "version" : "1.3.0+20241023",
      "status" : "active",
      "name" : "ehdsi-edqm-auszug",
      "title" : "eHDSI_EDQM_Auszug",
      "description" : null,
      "oids" : ["0.4.0.127.0.16.1.1.2.1"],
      "uses" : {
      },
      "ValueSet-ehdsi-doseform.html" : "eHDSI-DoseForm",
      "ValueSet-ehdsi-package.html" : "eHDSI-Package",
      "ValueSet-ehdsi-quantity-unit.html" : "eHDSI-Quantity-Unit",
      "ValueSet-ehdsi-route-of-administration.html" : "eHDSI-Route-of-Administration"
    },
    {
      "url" : "https://termgit.elga.gv.at/CodeSystem/ehdsi-language",
      "version" : "1.0.0+20230505",
      "status" : "active",
      "name" : "ehdsi-language",
      "title" : "EHDSI_Language",
      "description" : null,
      "oids" : ["1dd183a6-6d2b-4a9d-8f5d-be09d6bb5a6e"],
      "uses" : {
      },
      "ValueSet-ehdsi-language.html" : "EHDSI_Language"
    },
    {
      "url" : "https://termgit.elga.gv.at/CodeSystem/eimpf-historischeimpfstoffe",
      "version" : "2.3.0+20240820",
      "status" : "active",
      "name" : "eimpf-historischeimpfstoffe",
      "title" : "eImpf_HistorischeImpfstoffe",
      "description" : "**Description:** eImpf_HistorischeImpfstoffe\n\n**Beschreibung:** Liste der historischen Impfstoffe\n\n**Versions-Beschreibung:** Liste der historischen Impfstoffe",
      "oids" : ["1.2.40.0.34.5.186"],
      "uses" : {
      },
      "ValueSet-eimpf-historischeimpfstoffe.html" : "eImpf_HistorischeImpfstoffe"
    },
    {
      "url" : "https://termgit.elga.gv.at/CodeSystem/elga-actcode",
      "version" : "1.0.0+20230131",
      "status" : "active",
      "name" : "elga-actcode",
      "title" : "ELGA_ActCode",
      "description" : "ELGA_Codeliste für Act Codes zur Verwendung in der e-Medikation",
      "oids" : ["1.2.40.0.34.5.103"],
      "uses" : {
      },
      "ValueSet-elga-actcode-patinfo.html" : "ELGA_ActCode_PatInfo",
      "ValueSet-elga-actcode-abginfo.html" : "ELGA_ActCode_AbgInfo"
    },
    {
      "url" : "https://termgit.elga.gv.at/CodeSystem/elga-allergietyp",
      "version" : "1.1.0+20240820",
      "status" : "active",
      "name" : "elga-allergietyp",
      "title" : "ELGA_AllergieTyp",
      "description" : "**Description:** Type of observed intolerance or allergy\n\n**Beschreibung:** Art der beobachteten Intoleranz oder Allergie",
      "oids" : ["1.2.40.0.34.5.180"],
      "uses" : {
      },
      "ValueSet-elga-allergietyp.html" : "ELGA_AllergieTyp"
    },
    {
      "url" : "https://termgit.elga.gv.at/CodeSystem/elga-auditeventid",
      "version" : "1.1.0+20240820",
      "status" : "active",
      "name" : "elga-auditeventid",
      "title" : "ELGA_AuditEventID",
      "description" : "Codeliste der ELGA spezifischen Audit Event IDs. Verwendung in IHE konformen und ELGA BeS definierten Audit Events.",
      "oids" : ["1.2.40.0.34.5.150"],
      "uses" : {
      },
      "ValueSet-elga-auditeventid.html" : "ELGA_AuditEventID"
    },
    {
      "url" : "https://termgit.elga.gv.at/CodeSystem/elga-auditeventtype",
      "version" : "1.4.0+20241216",
      "status" : "active",
      "name" : "elga-auditeventtype",
      "title" : "ELGA_AuditEventType",
      "description" : "Codeliste der ELGA spezifischen Audit Event Type Codes (Transaktionen). Verwendung in IHE konformen und ELGA BeS definierten Audit Events.",
      "oids" : ["1.2.40.0.34.5.151"],
      "uses" : {
      },
      "ValueSet-elga-auditeventtype.html" : "ELGA_AuditEventType"
    },
    {
      "url" : "https://termgit.elga.gv.at/CodeSystem/elga-auditparticipantobjectidtype",
      "version" : "1.1.0+20240820",
      "status" : "active",
      "name" : "elga-auditparticipantobjectidtype",
      "title" : "ELGA_AuditParticipantObjectIdType",
      "description" : "Liste der ELGA spezifischen Audit Participant Object ID Type Codes. Der Object ID Type Code beschreibt die Art eines Objekts, welches referenziert wird.",
      "oids" : ["1.2.40.0.34.5.155"],
      "uses" : {
      },
      "ValueSet-elga-auditparticipantobjectidtype.html" : "ELGA_AuditParticipantObjectIdType"
    },
    {
      "url" : "https://termgit.elga.gv.at/CodeSystem/elga-auditparticipantobjecttype",
      "version" : "1.1.0+20240820",
      "status" : "active",
      "name" : "elga-auditparticipantobjecttype",
      "title" : "ELGA_AuditParticipantObjectType",
      "description" : "Codeliste der ELGA spezifischen Audit Participant Object Type Codes. Der Audit Participant Object Type beschreibt die Art eines Objekts, welches im Audit Event referenziert ist.",
      "oids" : ["1.2.40.0.34.5.153"],
      "uses" : {
      },
      "ValueSet-elga-auditparticipantobjecttype.html" : "ELGA_AuditParticipantObjectType"
    },
    {
      "url" : "https://termgit.elga.gv.at/CodeSystem/elga-auditparticipantobjecttyperole",
      "version" : "1.1.0+20240820",
      "status" : "active",
      "name" : "elga-auditparticipantobjecttyperole",
      "title" : "ELGA_AuditParticipantObjectTypeRole",
      "description" : "Liste der ELGA spezifischen Audit Participant Object Type Code Roles. Die Audit Participant Object Type Role definiert die Verwendung eines Objekts, welches im Audit Event referenziert ist.",
      "oids" : ["1.2.40.0.34.5.154"],
      "uses" : {
      },
      "ValueSet-elga-auditparticipantobjecttyperole.html" : "ELGA_AuditParticipantObjectTypeRole"
    },
    {
      "url" : "https://termgit.elga.gv.at/CodeSystem/elga-auditsourcetype",
      "version" : "1.2.0+20250113",
      "status" : "active",
      "name" : "elga-auditsourcetype",
      "title" : "ELGA_AuditSourceType",
      "description" : "ELGA Codeliste für autonome ELGA-Anwendungen und Services (relevant für das Berechtigungssystem)",
      "oids" : ["1.2.40.0.34.5.152"],
      "uses" : {
      },
      "ValueSet-elga-auditsourcetype.html" : "ELGA_AuditSourceType"
    },
    {
      "url" : "https://termgit.elga.gv.at/CodeSystem/elga-entlassungsmanagementart",
      "version" : "1.1.0+20240820",
      "status" : "active",
      "name" : "elga-entlassungsmanagementart",
      "title" : "ELGA_EntlassungsmanagementArt",
      "description" : "**Description:** Describes the variety in a discharge management disposition (describes the kind of discharge date)\n\n**Beschreibung:** Beschreibt die Möglichkeiten in einer Entlassungsmanagement-Disposition (Beschreibt die Art des Entlassungsdatums)",
      "oids" : ["1.2.40.0.34.5.28"],
      "uses" : {
      },
      "ValueSet-elga-entlassungsmanagementa.html" : "ELGA_EntlassungsmanagementA"
    },
    {
      "url" : "https://termgit.elga.gv.at/CodeSystem/elga-ergaenzungsliste",
      "version" : "1.0.0+20230131",
      "status" : "active",
      "name" : "elga-ergaenzungsliste",
      "title" : "ELGA_Ergaenzungsliste",
      "description" : "**Description:** Supplemental code list for codes needed in ELGA value sets\n\n**Beschreibung:** Sammel-Codeliste von Konzepten, die als Ergänzung in ELGA-Value-Sets benötigt werden",
      "oids" : ["1.2.40.0.34.5.179"],
      "uses" : {
      },
      "ValueSet-elga-observationinterpretation.html" : "ELGA_ObservationInterpretation"
    },
    {
      "url" : "https://termgit.elga.gv.at/CodeSystem/elga-fachaerzte",
      "version" : "1.2.0+20240820",
      "status" : "active",
      "name" : "elga-fachaerzte",
      "title" : "ELGA_Fachaerzte",
      "description" : "Berufsbezeichnungen für Fachärzte lt. Ärztinnen-/Ärzte-Ausbildungsordnung",
      "oids" : ["1.2.40.0.34.5.160"],
      "uses" : {
      },
      "ValueSet-elga-authorspeciality.html" : "ELGA_AuthorSpeciality",
      "ValueSet-hl7-at-practitionerrole.html" : "HL7-at_PractitionerRole"
    },
    {
      "url" : "https://termgit.elga.gv.at/CodeSystem/elga-formatcodezusatz",
      "version" : "1.1.0+20240820",
      "status" : "active",
      "name" : "elga-formatcodezusatz",
      "title" : "ELGA_FormatCodeZusatz",
      "description" : "**Description:** Defintion of valid additions for the FormatCode by declaration in Context of XDS document metadata\n\n**Beschreibung:** Definition der gültigen Zusätze für den FormatCode bei Angabe im Rahmen der XDS Dokument Metadaten",
      "oids" : ["1.2.40.0.34.5.41"],
      "uses" : {
      },
      "ValueSet-elga-formatcodezusatz.html" : "ELGA_FormatCodeZusatz"
    },
    {
      "url" : "https://termgit.elga.gv.at/CodeSystem/elga-funktionsrollen",
      "version" : "1.1.0+20240820",
      "status" : "active",
      "name" : "elga-funktionsrollen",
      "title" : "ELGA_Funktionsrollen",
      "description" : "ELGA Codeliste für Funktionsrollen",
      "oids" : ["1.2.40.0.34.5.158"],
      "uses" : {
      },
      "ValueSet-elga-rollen.html" : "ELGA_Rollen",
      "ValueSet-elga-auditroleid.html" : "ELGA_AuditRoleID"
    },
    {
      "url" : "https://termgit.elga.gv.at/CodeSystem/elga-gda-aggregatrollen",
      "version" : "2.3.0+20250226",
      "status" : "active",
      "name" : "elga-gda-aggregatrollen",
      "title" : "ELGA_GDA_Aggregatrollen",
      "description" : "ELGA Codeliste für GDA Aggregatrollen (höchste Hierarchieebene)",
      "oids" : ["1.2.40.0.34.5.3"],
      "uses" : {
      },
      "ValueSet-elga-rollen.html" : "ELGA_Rollen",
      "ValueSet-elga-auditroleid.html" : "ELGA_AuditRoleID"
    },
    {
      "url" : "https://termgit.elga.gv.at/CodeSystem/elga-gtelvogdarollen",
      "version" : "1.0.0+20230131",
      "status" : "active",
      "name" : "elga-gtelvogdarollen",
      "title" : "ELGA_GTelVoGDARollen",
      "description" : "**Description:** In this code system, the roles from the Health Telematics Regulation 2013 (GTelV 2013) and supplementary roles that are not included in the regulation ,are represented.\n\n**Beschreibung:** In diesem Codesystemen werden die Rollen aus der Gesundheitstelematikverordnung 2013 (GTelV 2013) und ergänzende Rollen, die nicht in der Verordnung enthalten sind, abgebildet.",
      "oids" : ["1.2.40.0.34.5.2"],
      "uses" : {
      },
      "ValueSet-hl7-at-organizationtype.html" : "HL7-at_OrganizationType",
      "ValueSet-eimpf-impfrollen.html" : "eImpf_Impfrollen",
      "ValueSet-elga-authorspeciality.html" : "ELGA_AuthorSpeciality",
      "ValueSet-elga-healthcarefacilitytypecode.html" : "ELGA_HealthcareFacilityTypeCode",
      "ValueSet-hl7-at-practitionerrole.html" : "HL7-at_PractitionerRole"
    },
    {
      "url" : "https://termgit.elga.gv.at/CodeSystem/elga-lebensmittelallergene",
      "version" : "2.0.0+20230131",
      "status" : "active",
      "name" : "elga-lebensmittelallergene",
      "title" : "ELGA-Lebensmittelallergene",
      "description" : "Liste von Stoffen oder Erzeugnissen, die Allergien oder Unverträglichkeiten auslösen (Quelle: https://eur-lex.europa.eu/legal-content/DE/TXT/HTML/?uri=CELEX:02011R1169-20180101&from=DE#E0017)",
      "oids" : ["1.2.40.0.34.5.215"],
      "uses" : {
      },
      "ValueSet-elga-lebensmittelallergene.html" : "ELGA Lebensmittelallergene",
      "ConceptMap-elga-lebensmittelallergene-mapping.html" : "ELGA Lebensmittelallergene Mapping"
    },
    {
      "url" : "https://termgit.elga.gv.at/CodeSystem/elga-mammogramassessment",
      "version" : "1.1.0+20240820",
      "status" : "active",
      "name" : "elga-mammogramassessment",
      "title" : "ELGA_MammogramAssessment",
      "description" : "**Description:** Definition of the values for a mammogram according DICOM Coding Scheme 'BI' from 'Digital Imaging and Communications in Medicine (DICOM) Part 16: Content Mapping Resource'\n\n**Beschreibung:** Definition der Werte für ein Mammogramm entsprechend DICOM Coding Scheme 'BI' aus 'Digital Imaging and Communications in Medicine (DICOM) Part 16: Content Mapping Resource'",
      "oids" : ["1.2.40.0.34.5.49"],
      "uses" : {
      },
      "ValueSet-elga-mammogramassessment.html" : "ELGA_MammogramAssessment"
    },
    {
      "url" : "https://termgit.elga.gv.at/CodeSystem/elga-medikationmengenartalternativ",
      "version" : "1.1.0+20230616",
      "status" : "retired",
      "name" : "elga-medikationmengenartalternativ",
      "title" : "ELGA_MedikationMengenartAlternativ",
      "description" : "**Description:** Codelist of alternative units of measure (for countable units).\n\n**Beschreibung:** Codeliste für alternative Mengenarten (zählbare Einheiten).",
      "oids" : ["1.2.40.0.10.1.4.3.4.3.2"],
      "uses" : {
      },
      "ValueSet-elga-medikationmengenartalternativ.html" : "ELGA_MedikationMengenartAlternativ"
    },
    {
      "url" : "https://termgit.elga.gv.at/CodeSystem/elga-practicesetting",
      "version" : "1.1.0+20240820",
      "status" : "active",
      "name" : "elga-practicesetting",
      "title" : "ELGA_PracticeSetting",
      "description" : "**Description:** Describes the assignment of a document to a medical area. These codes are used within XDS Metadata attribute ''practiceSettingCode''.      Terminologies are inherited from ''Österreichische Strukturplan Gesundheit'' as far as possilbe. Opposite to this piece of work, some concepts are newly introduced. Where differentiation was reasonable, concepts were conducted in more detail. More concepts will be added if necessary, especially for physiotherapy, ergotherapy a.s.f.. A CDA implementation guide may specify the use of this codes.\n\n**Beschreibung:** Beschreibt die fachlliche Zuordnung eines Dokumentes in ELGA. Verwendung in XDS Metadaten im Attribut ''practiceSettingCode''.      Die Benennungen sind soweit möglich aus der Nomenklatur des Österreichischen Strukturplan Gesundheit (ÖSG) übernommen. Gegenüber diesem Codewerk sind einige Konzepte neu hinzugefügt worden. Wo Unterscheidungen sinnvoll waren, wurden Konzepte auch genauer ausgeführt. Weitere Konzepte werden hinzugefügt, wenn Bedarf durch weitere CDA-Dokumentenklassen gegeben sein wird, zB für nicht-ärztliche Gesundheitsberufe wie Physiotherapie, Ergotherapie etc.     Ein CDA-Implementierungsleitfaden kann die Verwendung der möglichen PracticeSettingCodes vorschreiben.     Ein Mapping zu den LKF Funktionscodes ist angegeben, wenn möglich.",
      "oids" : ["1.2.40.0.34.5.12"],
      "uses" : {
      },
      "ValueSet-elga-practicesetting.html" : "ELGA_PracticeSetting"
    },
    {
      "url" : "https://termgit.elga.gv.at/CodeSystem/elga-sections",
      "version" : "1.1.0+20240820",
      "status" : "active",
      "name" : "elga-sections",
      "title" : "ELGA_Sections",
      "description" : "**Description:** Set of codes defining the sections and their labeling (displayed as the title of the section) permitted by ELGA\n\n**Beschreibung:** Auflistung der Codes für erlaubte Sektionen in ELGA und ihre Bezeichnungen (Titelzeile).",
      "oids" : ["1.2.40.0.34.5.40"],
      "uses" : {
      },
      "ValueSet-elga-sectionspflegesitber.html" : "ELGA_SectionsPflegeSitber",
      "ValueSet-elga-sectionsradiologie.html" : "ELGA_SectionsRadiologie",
      "ValueSet-elga-sectionsentlassungaerztl.html" : "ELGA_SectionsEntlassungAerztl",
      "ValueSet-elga-sectionsentlassungpflege.html" : "ELGA_SectionsEntlassungPflege"
    },
    {
      "url" : "https://termgit.elga.gv.at/CodeSystem/elga-serviceeventsentlassbrief",
      "version" : "1.1.0+20240820",
      "status" : "active",
      "name" : "elga-serviceeventsentlassbrief",
      "title" : "ELGA_ServiceEventsEntlassbrief",
      "description" : "**Description:** Codes to distinguish discharge service events\n\n**Beschreibung:** Codeliste zur Unterscheidung der Service Events im Bereich Entlassung",
      "oids" : ["1.2.40.0.34.5.21"],
      "uses" : {
      },
      "ValueSet-elga-serviceeventsentlassbr.html" : "ELGA_ServiceEventsEntlassbr"
    },
    {
      "url" : "https://termgit.elga.gv.at/CodeSystem/elga-significantpathogens",
      "version" : "1.1.0+20240820",
      "status" : "active",
      "name" : "elga-significantpathogens",
      "title" : "ELGA_SignificantPathogens",
      "description" : "**Description:** Set of significant pathogens listed in ''Epidemiologisches Meldesystem Benutzerhandbuch Fachlicher Teil'', 1. edition, October 2008, BMGFJ\n\n**Beschreibung:** Erreger meldepflichtiger Infektionskrankheiten laut ''Epidemiologisches Meldesystem Benutzerhandbuch Fachlicher Teil'', 1. Auflage Oktober 2008, des BMGFJ",
      "oids" : ["1.2.40.0.34.5.45"],
      "uses" : {
      },
      "ValueSet-elga-significantpathogens.html" : "ELGA_SignificantPathogens"
    },
    {
      "url" : "https://termgit.elga.gv.at/CodeSystem/elga-urlschemeergaenzung",
      "version" : "1.1.0+20240820",
      "status" : "active",
      "name" : "elga-urlschemeergaenzung",
      "title" : "ELGA_URLSchemeErgaenzung",
      "description" : "**Description:** Set of codes describing the Universal Resource Locator which are not included in the corresponding HL7 codelist\n\n**Beschreibung:** Enthält Codes zur Beschreibung von Universal Resource Locators (System zur Beschreibung der Lage der Ressourcen), die nicht in der korrespondierenden HL7 Codeliste enthalten waren",
      "oids" : ["1.2.40.0.34.5.55"],
      "uses" : {
      },
      "ValueSet-elga-urlscheme.html" : "ELGA_URLScheme"
    },
    {
      "url" : "https://termgit.elga.gv.at/CodeSystem/ems-ergaenzungmeldepflichtigekrankheiten",
      "version" : "1.0.0+20230131",
      "status" : "active",
      "name" : "ems-ergaenzungmeldepflichtigekrankheiten",
      "title" : "EMS_ErgaenzungMeldepflichtigeKrankheiten",
      "description" : "Ergänzungsliste der meldepflichtigen Krankheiten für das österreichische EMS",
      "oids" : ["1.2.40.0.34.5.187"],
      "uses" : {
      },
      "ValueSet-ems-meldepflichtige-krankheiten.html" : "EMS_Meldepflichtige_Krankheiten"
    },
    {
      "url" : "https://termgit.elga.gv.at/CodeSystem/ems-krankheitsmerkmale",
      "version" : "1.0.0+20230131",
      "status" : "active",
      "name" : "ems-krankheitsmerkmale",
      "title" : "EMS_Krankheitsmerkmale",
      "description" : "Angaben weiterer Krankheitsmerkmale bei der Meldunge in das Epidemiologische Meldesystem vom BMG",
      "oids" : ["1.2.40.0.34.5.105"],
      "uses" : {
      },
      "ValueSet-ems-krankheitsmerkmale.html" : "EMS_Krankheitsmerkmale"
    },
    {
      "url" : "https://termgit.elga.gv.at/CodeSystem/ems-materialmethode",
      "version" : "1.0.0+20230131",
      "status" : "active",
      "name" : "ems-materialmethode",
      "title" : "EMS_MaterialMethode",
      "description" : "Diese Codeliste definiert Inhalte für procedure/methodCode",
      "oids" : ["1.2.40.0.34.5.99"],
      "uses" : {
      },
      "ValueSet-ems-materialmethode.html" : "EMS_MaterialMethode"
    },
    {
      "url" : "https://termgit.elga.gv.at/CodeSystem/ems-posneg",
      "version" : "1.0.0+20230131",
      "status" : "active",
      "name" : "ems-posneg",
      "title" : "EMS_PosNeg",
      "description" : "EMS Positiv, Negativ",
      "oids" : ["1.2.40.0.34.5.88"],
      "uses" : {
      },
      "ValueSet-ems-anti-hcv-immunoblot-assay.html" : "EMS_Anti-HCV-Immunoblot_Assay",
      "ValueSet-ems-hcv-core-ag-assay.html" : "EMS_HCV_core_Ag_Assay",
      "ValueSet-ems-anti-hcv-immunoassay.html" : "EMS_Anti-HCV-Immunoassay",
      "ValueSet-ems-hbv-status.html" : "EMS_HBV_Status"
    },
    {
      "url" : "https://termgit.elga.gv.at/CodeSystem/ems-reiseland",
      "version" : "1.0.0+20230131",
      "status" : "active",
      "name" : "ems-reiseland",
      "title" : "EMS_Reiseland",
      "description" : "Reiseland",
      "oids" : ["1.2.40.0.34.5.96"],
      "uses" : {
      },
      "ValueSet-ems-reiseland.html" : "EMS_Reiseland"
    },
    {
      "url" : "https://termgit.elga.gv.at/CodeSystem/hl7-at-administrativegender-ergaenzung",
      "version" : "1.1.0+20240820",
      "status" : "active",
      "name" : "hl7-at-administrativegender-ergaenzung",
      "title" : "HL7-at_AdministrativeGender-Ergaenzung",
      "description" : "Österreich-spezifische Codes, die für die weitere Untergliederung des dritten Geschlechts dokumentiert werden können.",
      "oids" : ["1.2.40.0.34.5.224"],
      "uses" : {
      },
      "ValueSet-elga-administrativegender.html" : "ELGA_AdministrativeGender",
      "ValueSet-hl7-at-administrativegender-fhir-extension.html" : "HL7-at_AdministrativeGender-FHIR-Extension",
      "ValueSet-hl7-at-administrativegender-v2.html" : "HL7-at_AdministrativeGender-v2"
    },
    {
      "url" : "https://termgit.elga.gv.at/CodeSystem/hl7-at-maritalstatus-ergaenzung",
      "version" : "1.1.0+20240820",
      "status" : "active",
      "name" : "hl7-at-maritalstatus-ergaenzung",
      "title" : "HL7-at_MaritalStatus-Ergaenzung",
      "description" : "Österreich-spezifische Codes für den Personenstand, in Ergänzung der internationalen HL7-Codes für MaritalStatus",
      "oids" : ["1.2.40.0.34.5.227 "],
      "uses" : {
      },
      "ValueSet-elga-maritalstatus.html" : "ELGA_MaritalStatus"
    },
    {
      "url" : "https://termgit.elga.gv.at/CodeSystem/hl7-at-religionaustria",
      "version" : "1.0.0+20230131",
      "status" : "active",
      "name" : "hl7-at-religionaustria",
      "title" : "HL7 AT ReligionAustria",
      "description" : null,
      "oids" : ["2.16.840.1.113883.2.16.1.4.1"],
      "uses" : {
      },
      "ValueSet-elga-religiousaffiliation.html" : "ELGA_ReligiousAffiliation"
    },
    {
      "url" : "https://termgit.elga.gv.at/CodeSystem/hl7-language-identification",
      "version" : "1.0.0+20230131",
      "status" : "active",
      "name" : "hl7-language-identification",
      "title" : "HL7 Language Identification",
      "description" : null,
      "oids" : ["2.16.840.1.113883.6.121"],
      "uses" : {
      },
      "ValueSet-elga-humanlanguage.html" : "ELGA_HumanLanguage",
      "ValueSet-elga-languagecode.html" : "ELGA_LanguageCode"
    },
    {
      "url" : "https://termgit.elga.gv.at/CodeSystem/iana-mime-type",
      "version" : "2.0.0+20230131",
      "status" : "active",
      "name" : "iana-mime-type",
      "title" : "IANA Mime Type",
      "description" : null,
      "oids" : ["1.2.840.10003.5.109"],
      "uses" : {
      },
      "ValueSet-elga-medientyp.html" : "ELGA_Medientyp"
    },
    {
      "url" : "https://termgit.elga.gv.at/CodeSystem/icd-10-bmg-2017",
      "version" : "1.0.0+20230131",
      "status" : "retired",
      "name" : "icd-10-bmg-2017",
      "title" : "ICD-10 BMG 2017",
      "description" : null,
      "oids" : ["1.2.40.0.34.5.171"],
      "uses" : {
      },
      "ValueSet-ems-meldepflichtige-krankheiten.html" : "EMS_Meldepflichtige_Krankheiten"
    },
    {
      "url" : "https://termgit.elga.gv.at/CodeSystem/icd-10-bmg-2020",
      "version" : "1.0.0+20230131",
      "status" : "retired",
      "name" : "icd-10-bmg-2020",
      "title" : "ICD-10 BMG 2020",
      "description" : null,
      "oids" : ["1.2.40.0.34.5.184"],
      "uses" : {
      },
      "ValueSet-ems-meldepflichtige-krankheiten.html" : "EMS_Meldepflichtige_Krankheiten"
    },
    {
      "url" : "https://termgit.elga.gv.at/CodeSystem/ihe-pharmaceutical-advice-status-list",
      "version" : "1.0.0+20230131",
      "status" : "active",
      "name" : "ihe-pharmaceutical-advice-status-list",
      "title" : "IHE Pharmaceutical Advice Status List",
      "description" : "**Description:** IHE Codelist for Pharmaceutical Advice status\n\n**Beschreibung:** IHE Codeliste für Pharmazeutische Empfehlung Status",
      "oids" : ["1.3.6.1.4.1.19376.1.9.2.1"],
      "uses" : {
      },
      "ValueSet-elga-medikationpharmazeutischeempfehlungstatus.html" : "ELGA_MedikationPharmazeutischeEmpfehlungStatus"
    },
    {
      "url" : "https://termgit.elga.gv.at/CodeSystem/ips-conditionclinicalstatuscodes",
      "version" : "1.1.0+20240820",
      "status" : "active",
      "name" : "ips-conditionclinicalstatuscodes",
      "title" : "IPS_ConditionClinicalStatusCodes",
      "description" : "**Description:** Condition or Problem Status Code\n\n**Beschreibung:** Codeliste für den Status Code eines Problems",
      "oids" : ["2.16.840.1.113883.4.642.3.155"],
      "uses" : {
      },
      "ValueSet-elga-conditionstatuscode.html" : "ELGA_ConditionStatusCode"
    },
    {
      "url" : "https://termgit.elga.gv.at/CodeSystem/ips-conditionverificationstatus",
      "version" : "1.1.0+20240820",
      "status" : "active",
      "name" : "ips-conditionverificationstatus",
      "title" : "IPS_ConditionVerificationStatus",
      "description" : null,
      "oids" : ["2.16.840.1.113883.4.642.3.115"],
      "uses" : {
      },
      "ValueSet-elga-conditionverificationstatus.html" : "ELGA_ConditionVerificationStatus"
    },
    {
      "url" : "https://termgit.elga.gv.at/CodeSystem/isco",
      "version" : "1.0.0+20230505",
      "status" : "active",
      "name" : "isco",
      "title" : "ISCO",
      "description" : null,
      "oids" : ["2.16.840.1.113883.2.9.6.2.7"],
      "uses" : {
      },
      "ValueSet-ehdsi-healthcare-professional-role.html" : "eHDSI-HealthcareProfessionalRole"
    },
    {
      "url" : "https://termgit.elga.gv.at/CodeSystem/iso-3166-1-alpha-3",
      "version" : "1.0.0+20230131",
      "status" : "active",
      "name" : "iso-3166-1-alpha-3",
      "title" : "ISO 3166-1 alpha 3",
      "description" : "Ländercodes mit 3 Buchstaben",
      "oids" : ["1.0.3166.1.2.3"],
      "uses" : {
      },
      "ValueSet-elga-laendercodes.html" : "ELGA_Laendercodes"
    },
    {
      "url" : "https://termgit.elga.gv.at/CodeSystem/iso-3166-alpha-2-code",
      "version" : "1.0.0+20230131",
      "status" : "active",
      "name" : "iso-3166-alpha-2-code",
      "title" : "ISO 3166 Alpha-2-Code",
      "description" : null,
      "oids" : ["1.0.3166.1.2.2"],
      "uses" : {
      },
      "ValueSet-elga-realmcode.html" : "ELGA_RealmCode",
      "ValueSet-ehdsi-country.html" : "eHDSI-Country"
    },
    {
      "url" : "https://termgit.elga.gv.at/CodeSystem/iso-639-2",
      "version" : "1.1.0+20240820",
      "status" : "active",
      "name" : "iso-639-2",
      "title" : "ISO 639-2",
      "description" : "ISO 639-2 is the alpha-3 code in Codes for the representation of names of languages-- Part 2. There are 21 languages that have alternative codes for bibliographic or terminology purposes. In those cases, each is listed separately and they are designated as 'DEPRECATED' (bibliographic) or 'PREFERRED' (terminology). In all other cases there is only one ISO 639-2 code. Multiple codes assigned to the same language are to be considered synonyms. ISO 639-1 is the alpha-2 code",
      "oids" : ["1.0.639.2"],
      "uses" : {
      },
      "ValueSet-langid-at.html" : "langid-at"
    },
    {
      "url" : "https://termgit.elga.gv.at/CodeSystem/lkf-diagnose-art",
      "version" : "1.0.0+20230131",
      "status" : "active",
      "name" : "lkf-diagnose-art",
      "title" : "LKF_Diagnose-Art",
      "description" : null,
      "oids" : ["1.2.40.0.34.5.207"],
      "uses" : {
      },
      "ValueSet-lkf-diagnose-art.html" : "LKF_Diagnose-Art"
    },
    {
      "url" : "https://termgit.elga.gv.at/CodeSystem/lkf-diagnose-statauf",
      "version" : "1.0.0+20230131",
      "status" : "active",
      "name" : "lkf-diagnose-statauf",
      "title" : "LKF_Diagnose-statAuf",
      "description" : null,
      "oids" : ["1.2.40.0.34.5.208"],
      "uses" : {
      },
      "ValueSet-lkf-diagnose-statauf.html" : "LKF_Diagnose-statAuf"
    },
    {
      "url" : "https://termgit.elga.gv.at/CodeSystem/lkf-diagnose-typ",
      "version" : "1.0.0+20230131",
      "status" : "active",
      "name" : "lkf-diagnose-typ",
      "title" : "LKF_Diagnose-Typ",
      "description" : null,
      "oids" : ["1.2.40.0.34.5.206"],
      "uses" : {
      },
      "ValueSet-lkf-diagnose-typ.html" : "LKF_Diagnose-Typ"
    },
    {
      "url" : "https://termgit.elga.gv.at/CodeSystem/medikationartanwendung",
      "version" : "1.1.0+20230724",
      "status" : "active",
      "name" : "medikationartanwendung",
      "title" : "Medikation_Art_Anwendung",
      "description" : "**Description:** Medikation Art der Anwendung. Liability and terms of use you can find on this website https://www.basg.gv.at/fuer-unternehmen/online-service/nutzungshinweise#termgit\n\n**Beschreibung:** Medikation Art der Anwendung. Haftung und Nutzungsbestimmungen finden Sie unter folgender Webseite https://www.basg.gv.at/fuer-unternehmen/online-service/nutzungshinweise#termgit",
      "oids" : ["1.2.40.0.10.1.4.3.4.3.4"],
      "uses" : {
      },
      "ValueSet-eimpf-medikationartanwendung.html" : "eImpf_MedikationArtAnwendung",
      "ValueSet-elga-medikationartanwendung.html" : "ELGA_MedikationArtAnwendung"
    },
    {
      "url" : "https://termgit.elga.gv.at/CodeSystem/medikationrezeptart",
      "version" : "1.0.0+20230131",
      "status" : "active",
      "name" : "medikationrezeptart",
      "title" : "MedikationRezeptart",
      "description" : "**Description:** ELGA Codelist for Prescription type\n\n**Beschreibung:** ELGA Codeliste für RezeptArt",
      "oids" : ["1.2.40.0.10.1.4.3.4.3.3"],
      "uses" : {
      },
      "ValueSet-elga-medikationrezeptart.html" : "ELGA_MedikationRezeptart"
    },
    {
      "url" : "https://termgit.elga.gv.at/CodeSystem/medikationrezeptpflichtstatus",
      "version" : "1.1.0+20230724",
      "status" : "active",
      "name" : "medikationrezeptpflichtstatus",
      "title" : "Medikation_Rezeptpflichtstatus",
      "description" : "**Description:** Medikation Rezeptpflichtstatus. Liability and terms of use you can find on this website https://www.basg.gv.at/fuer-unternehmen/online-service/nutzungshinweise#termgit\n\n**Beschreibung:** Medikation Rezeptpflichtstatus. Haftung und Nutzungsbestimmungen finden Sie unter folgender Webseite https://www.basg.gv.at/fuer-unternehmen/online-service/nutzungshinweise#termgit",
      "oids" : ["1.2.40.0.10.1.4.3.4.3.7"],
      "uses" : {
      },
      "ValueSet-elga-medikationrezeptpflichtstatus.html" : "ELGA_MedikationRezeptpflichtstatus"
    },
    {
      "url" : "https://termgit.elga.gv.at/CodeSystem/medikationtherapieart",
      "version" : "1.0.0+20230131",
      "status" : "active",
      "name" : "medikationtherapieart",
      "title" : "MedikationTherapieart",
      "description" : "**Description:** ELGA Codelist for type of therapy\n\n**Beschreibung:** ELGA Codeliste für Therapieart",
      "oids" : ["1.2.40.0.10.1.4.3.4.3.6"],
      "uses" : {
      },
      "ValueSet-elga-medikationtherapieart.html" : "ELGA_MedikationTherapieArt"
    },
    {
      "url" : "https://termgit.elga.gv.at/CodeSystem/rast-klassen",
      "version" : "1.0.0+20230131",
      "status" : "active",
      "name" : "rast-klassen",
      "title" : "RAST-Klassen",
      "description" : "**Description:** Allergo-Sorbent-Test Score (RAST-Score)\n\n**Beschreibung:** Radio-Allergo-Sorbent-Test Klassen (RAST-Klassen)",
      "oids" : ["1.2.40.0.34.5.104"],
      "uses" : {
      },
      "ValueSet-elga-observationinterpretation.html" : "ELGA_ObservationInterpretation"
    },
    {
      "url" : "https://termgit.elga.gv.at/CodeSystem/sciphox-diagnosenzusatz",
      "version" : "1.1.0+20240820",
      "status" : "active",
      "name" : "sciphox-diagnosenzusatz",
      "title" : "Sciphox Diagnosenzusatz",
      "description" : "Vocabulary Domain für Sicherheit/Verlässlichkeit",
      "oids" : ["2.16.840.1.113883.3.7.1.8"],
      "uses" : {
      },
      "ValueSet-elga-diagnosesicherheit.html" : "ELGA_Diagnosesicherheit"
    },
    {
      "url" : "https://termgit.elga.gv.at/CodeSystem/sciphox-seitenlokalisation",
      "version" : "1.0.0+20230131",
      "status" : "active",
      "name" : "sciphox-seitenlokalisation",
      "title" : "Sciphox_Seitenlokalisation",
      "description" : "Vocabulary Domain für Seitenlokalisation",
      "oids" : ["2.16.840.1.113883.3.7.1.7"],
      "uses" : {
      },
      "ValueSet-elga-seitenlokalisation.html" : "ELGA_Seitenlokalisation"
    }
  ]
}
