<?xml version="1.0" encoding="UTF-8"?>
  <urlset xmlns="http://www.sitemaps.org/schemas/sitemap/0.9"
          xmlns:xsi="http://www.w3.org/2001/XMLSchema-instance"
          xsi:schemaLocation="http://www.sitemaps.org/schemas/sitemap/0.9 http://www.sitemaps.org/schemas/sitemap/0.9/sitemap.xsd">
      
      <url>
          <loc>https://termgit.elga.gv.at/ValueSet-langid-at.html</loc>
          <lastmod>2025-03-06</lastmod>
          <changefreq>weekly</changefreq>
          <priority>1.0</priority>
      </url>
      
      <url>
          <loc>https://termgit.elga.gv.at/CodeSystem-oeaek-zertifikate.html</loc>
          <lastmod>2025-03-06</lastmod>
          <changefreq>weekly</changefreq>
          <priority>1.0</priority>
      </url>
      
      <url>
          <loc>https://termgit.elga.gv.at/ValueSet-eimpf-medikationartanwendung.html</loc>
          <lastmod>2025-03-06</lastmod>
          <changefreq>weekly</changefreq>
          <priority>1.0</priority>
      </url>
      
      <url>
          <loc>https://termgit.elga.gv.at/ValueSet-appc-anatomie.html</loc>
          <lastmod>2025-03-06</lastmod>
          <changefreq>weekly</changefreq>
          <priority>1.0</priority>
      </url>
      
      <url>
          <loc>https://termgit.elga.gv.at/CodeSystem-ips-absentorunknowndata.html</loc>
          <lastmod>2025-03-06</lastmod>
          <changefreq>weekly</changefreq>
          <priority>1.0</priority>
      </url>
      
      <url>
          <loc>https://termgit.elga.gv.at/CodeSystem-ems-nachweis.html</loc>
          <lastmod>2025-03-06</lastmod>
          <changefreq>weekly</changefreq>
          <priority>1.0</priority>
      </url>
      
      <url>
          <loc>https://termgit.elga.gv.at/ValueSet-elga-sectionsradiologie.html</loc>
          <lastmod>2025-03-06</lastmod>
          <changefreq>weekly</changefreq>
          <priority>1.0</priority>
      </url>
      
      <url>
          <loc>https://termgit.elga.gv.at/CodeSystem-elga-sections.html</loc>
          <lastmod>2025-03-06</lastmod>
          <changefreq>weekly</changefreq>
          <priority>1.0</priority>
      </url>
      
      <url>
          <loc>https://termgit.elga.gv.at/ValueSet-v3-EntityCode.html</loc>
          <lastmod>2025-03-06</lastmod>
          <changefreq>weekly</changefreq>
          <priority>1.0</priority>
      </url>
      
      <url>
          <loc>https://termgit.elga.gv.at/ValueSet-elga-nullflavor.html</loc>
          <lastmod>2025-03-06</lastmod>
          <changefreq>weekly</changefreq>
          <priority>1.0</priority>
      </url>
      
      <url>
          <loc>https://termgit.elga.gv.at/ValueSet-elga-conditionstatuscode.html</loc>
          <lastmod>2025-03-06</lastmod>
          <changefreq>weekly</changefreq>
          <priority>1.0</priority>
      </url>
      
      <url>
          <loc>https://termgit.elga.gv.at/ValueSet-rads-breastimaging.html</loc>
          <lastmod>2025-03-06</lastmod>
          <changefreq>weekly</changefreq>
          <priority>1.0</priority>
      </url>
      
      <url>
          <loc>https://termgit.elga.gv.at/CodeSystem-hl7-act-site.html</loc>
          <lastmod>2025-03-06</lastmod>
          <changefreq>weekly</changefreq>
          <priority>1.0</priority>
      </url>
      
      <url>
          <loc>https://termgit.elga.gv.at/CodeSystem-dgc-qr.html</loc>
          <lastmod>2025-03-06</lastmod>
          <changefreq>weekly</changefreq>
          <priority>1.0</priority>
      </url>
      
      <url>
          <loc>https://termgit.elga.gv.at/CodeSystem-hl7-proficiencylevelcode.html</loc>
          <lastmod>2025-03-06</lastmod>
          <changefreq>weekly</changefreq>
          <priority>1.0</priority>
      </url>
      
      <url>
          <loc>https://termgit.elga.gv.at/CodeSystem-icd-10-bmg-2014.html</loc>
          <lastmod>2025-03-06</lastmod>
          <changefreq>weekly</changefreq>
          <priority>1.0</priority>
      </url>
      
      <url>
          <loc>https://termgit.elga.gv.at/StructureDefinition-at-core-valueset.profile.xml.html</loc>
          <lastmod>2025-03-06</lastmod>
          <changefreq>weekly</changefreq>
          <priority>1.0</priority>
      </url>
      
      <url>
          <loc>https://termgit.elga.gv.at/ValueSet-ehdsi-doseform.html</loc>
          <lastmod>2025-03-06</lastmod>
          <changefreq>weekly</changefreq>
          <priority>1.0</priority>
      </url>
      
      <url>
          <loc>https://termgit.elga.gv.at/ui_features_de.html</loc>
          <lastmod>2025-03-06</lastmod>
          <changefreq>weekly</changefreq>
          <priority>1.0</priority>
      </url>
      
      <url>
          <loc>https://termgit.elga.gv.at/CodeSystem-ems-material.html</loc>
          <lastmod>2025-03-06</lastmod>
          <changefreq>weekly</changefreq>
          <priority>1.0</priority>
      </url>
      
      <url>
          <loc>https://termgit.elga.gv.at/ValueSet-rads-thyroidimaging.html</loc>
          <lastmod>2025-03-06</lastmod>
          <changefreq>weekly</changefreq>
          <priority>1.0</priority>
      </url>
      
      <url>
          <loc>https://termgit.elga.gv.at/CodeSystem-lkf-diagnose-statauf.html</loc>
          <lastmod>2025-03-06</lastmod>
          <changefreq>weekly</changefreq>
          <priority>1.0</priority>
      </url>
      
      <url>
          <loc>https://termgit.elga.gv.at/ValueSet-dgc-typeoftest.html</loc>
          <lastmod>2025-03-06</lastmod>
          <changefreq>weekly</changefreq>
          <priority>1.0</priority>
      </url>
      
      <url>
          <loc>https://termgit.elga.gv.at/ValueSet-elga-urlscheme.html</loc>
          <lastmod>2025-03-06</lastmod>
          <changefreq>weekly</changefreq>
          <priority>1.0</priority>
      </url>
      
      <url>
          <loc>https://termgit.elga.gv.at/CodeSystem-medikationtherapieart.html</loc>
          <lastmod>2025-03-06</lastmod>
          <changefreq>weekly</changefreq>
          <priority>1.0</priority>
      </url>
      
      <url>
          <loc>https://termgit.elga.gv.at/CodeSystem-exnds-sections.html</loc>
          <lastmod>2025-03-06</lastmod>
          <changefreq>weekly</changefreq>
          <priority>1.0</priority>
      </url>
      
      <url>
          <loc>https://termgit.elga.gv.at/ValueSet-lkf-diagnose-typ.html</loc>
          <lastmod>2025-03-06</lastmod>
          <changefreq>weekly</changefreq>
          <priority>1.0</priority>
      </url>
      
      <url>
          <loc>https://termgit.elga.gv.at/CodeSystem-ehdsi-language.html</loc>
          <lastmod>2025-03-06</lastmod>
          <changefreq>weekly</changefreq>
          <priority>1.0</priority>
      </url>
      
      <url>
          <loc>https://termgit.elga.gv.at/quickstart_de.html</loc>
          <lastmod>2025-03-06</lastmod>
          <changefreq>weekly</changefreq>
          <priority>1.0</priority>
      </url>
      
      <url>
          <loc>https://termgit.elga.gv.at/ValueSet-ehdsi-activeingredient.html</loc>
          <lastmod>2025-03-06</lastmod>
          <changefreq>weekly</changefreq>
          <priority>1.0</priority>
      </url>
      
      <url>
          <loc>https://termgit.elga.gv.at/ValueSet-elga-auditeventid.html</loc>
          <lastmod>2025-03-06</lastmod>
          <changefreq>weekly</changefreq>
          <priority>1.0</priority>
      </url>
      
      <url>
          <loc>https://termgit.elga.gv.at/ValueSet-elga-administrativegender.html</loc>
          <lastmod>2025-03-06</lastmod>
          <changefreq>weekly</changefreq>
          <priority>1.0</priority>
      </url>
      
      <url>
          <loc>https://termgit.elga.gv.at/artifacts.html</loc>
          <lastmod>2025-03-06</lastmod>
          <changefreq>weekly</changefreq>
          <priority>1.0</priority>
      </url>
      
      <url>
          <loc>https://termgit.elga.gv.at/CodeSystem-elga-practicesetting.html</loc>
          <lastmod>2025-03-06</lastmod>
          <changefreq>weekly</changefreq>
          <priority>1.0</priority>
      </url>
      
      <url>
          <loc>https://termgit.elga.gv.at/CodeSystem-elga-auditparticipantobjectidtype.html</loc>
          <lastmod>2025-03-06</lastmod>
          <changefreq>weekly</changefreq>
          <priority>1.0</priority>
      </url>
      
      <url>
          <loc>https://termgit.elga.gv.at/ValueSet-elga-telecomaddressuse.html</loc>
          <lastmod>2025-03-06</lastmod>
          <changefreq>weekly</changefreq>
          <priority>1.0</priority>
      </url>
      
      <url>
          <loc>https://termgit.elga.gv.at/CodeSystem-icd-o-3.html</loc>
          <lastmod>2025-03-06</lastmod>
          <changefreq>weekly</changefreq>
          <priority>1.0</priority>
      </url>
      
      <url>
          <loc>https://termgit.elga.gv.at/CodeSystem-zuppl-elga-laborparameterergaenzun-4-elga-laborparameter.html</loc>
          <lastmod>2025-03-06</lastmod>
          <changefreq>weekly</changefreq>
          <priority>1.0</priority>
      </url>
      
      <url>
          <loc>https://termgit.elga.gv.at/ValueSet-elga-auditparticipantobjectidtype.html</loc>
          <lastmod>2025-03-06</lastmod>
          <changefreq>weekly</changefreq>
          <priority>1.0</priority>
      </url>
      
      <url>
          <loc>https://termgit.elga.gv.at/CodeSystem-medikationrezeptpflichtstatus.html</loc>
          <lastmod>2025-03-06</lastmod>
          <changefreq>weekly</changefreq>
          <priority>1.0</priority>
      </url>
      
      <url>
          <loc>https://termgit.elga.gv.at/ValueSet-elga-auditeventtype.html</loc>
          <lastmod>2025-03-06</lastmod>
          <changefreq>weekly</changefreq>
          <priority>1.0</priority>
      </url>
      
      <url>
          <loc>https://termgit.elga.gv.at/CodeSystem-ehdsi-edqm-auszug.html</loc>
          <lastmod>2025-03-06</lastmod>
          <changefreq>weekly</changefreq>
          <priority>1.0</priority>
      </url>
      
      <url>
          <loc>https://termgit.elga.gv.at/ValueSet-hl7-at-administrativegender-v2.html</loc>
          <lastmod>2025-03-06</lastmod>
          <changefreq>weekly</changefreq>
          <priority>1.0</priority>
      </url>
      
      <url>
          <loc>https://termgit.elga.gv.at/CodeSystem-ips-conditionclinicalstatuscodes.html</loc>
          <lastmod>2025-03-06</lastmod>
          <changefreq>weekly</changefreq>
          <priority>1.0</priority>
      </url>
      
      <url>
          <loc>https://termgit.elga.gv.at/CodeSystem-zuppl-eimpf-ergaenzung-4-eimpf-specialcasevaccinatio.html</loc>
          <lastmod>2025-03-06</lastmod>
          <changefreq>weekly</changefreq>
          <priority>1.0</priority>
      </url>
      
      <url>
          <loc>https://termgit.elga.gv.at/ValueSet-elga-humanactsite.html</loc>
          <lastmod>2025-03-06</lastmod>
          <changefreq>weekly</changefreq>
          <priority>1.0</priority>
      </url>
      
      <url>
          <loc>https://termgit.elga.gv.at/ValueSet-appc-modalitaet.html</loc>
          <lastmod>2025-03-06</lastmod>
          <changefreq>weekly</changefreq>
          <priority>1.0</priority>
      </url>
      
      <url>
          <loc>https://termgit.elga.gv.at/ValueSet-elga-pregnancystatus.html</loc>
          <lastmod>2025-03-06</lastmod>
          <changefreq>weekly</changefreq>
          <priority>1.0</priority>
      </url>
      
      <url>
          <loc>https://termgit.elga.gv.at/CodeSystem-elga-funktionsrollen.html</loc>
          <lastmod>2025-03-06</lastmod>
          <changefreq>weekly</changefreq>
          <priority>1.0</priority>
      </url>
      
      <url>
          <loc>https://termgit.elga.gv.at/ValueSet-elga-absentorunknownprocedures.html</loc>
          <lastmod>2025-03-06</lastmod>
          <changefreq>weekly</changefreq>
          <priority>1.0</priority>
      </url>
      
      <url>
          <loc>https://termgit.elga.gv.at/ValueSet-rads-liverimaging.html</loc>
          <lastmod>2025-03-06</lastmod>
          <changefreq>weekly</changefreq>
          <priority>1.0</priority>
      </url>
      
      <url>
          <loc>https://termgit.elga.gv.at/ValueSet-elga-participationfunctioncode.html</loc>
          <lastmod>2025-03-06</lastmod>
          <changefreq>weekly</changefreq>
          <priority>1.0</priority>
      </url>
      
      <url>
          <loc>https://termgit.elga.gv.at/ValueSet-elga-confidentiality.html</loc>
          <lastmod>2025-03-06</lastmod>
          <changefreq>weekly</changefreq>
          <priority>1.0</priority>
      </url>
      
      <url>
          <loc>https://termgit.elga.gv.at/CodeSystem-icf.html</loc>
          <lastmod>2025-03-06</lastmod>
          <changefreq>weekly</changefreq>
          <priority>1.0</priority>
      </url>
      
      <url>
          <loc>https://termgit.elga.gv.at/CodeSystem-hl7-urlscheme.html</loc>
          <lastmod>2025-03-06</lastmod>
          <changefreq>weekly</changefreq>
          <priority>1.0</priority>
      </url>
      
      <url>
          <loc>https://termgit.elga.gv.at/CodeSystem-ems-nachweisbar.html</loc>
          <lastmod>2025-03-06</lastmod>
          <changefreq>weekly</changefreq>
          <priority>1.0</priority>
      </url>
      
      <url>
          <loc>https://termgit.elga.gv.at/ValueSet-hl7-at-xds-dokumentenklassen.html</loc>
          <lastmod>2025-03-06</lastmod>
          <changefreq>weekly</changefreq>
          <priority>1.0</priority>
      </url>
      
      <url>
          <loc>https://termgit.elga.gv.at/CodeSystem-zuppl-medikation-ages-wirkstoffe-4-elga-wirkstoffe-ages.html</loc>
          <lastmod>2025-03-06</lastmod>
          <changefreq>weekly</changefreq>
          <priority>1.0</priority>
      </url>
      
      <url>
          <loc>https://termgit.elga.gv.at/ValueSet-eimpf-historischeimpfstoffe.html</loc>
          <lastmod>2025-03-06</lastmod>
          <changefreq>weekly</changefreq>
          <priority>1.0</priority>
      </url>
      
      <url>
          <loc>https://termgit.elga.gv.at/CodeSystem-ems-hcv-rna.html</loc>
          <lastmod>2025-03-06</lastmod>
          <changefreq>weekly</changefreq>
          <priority>1.0</priority>
      </url>
      
      <url>
          <loc>https://termgit.elga.gv.at/ValueSet-ehdsi-confidentiality.html</loc>
          <lastmod>2025-03-06</lastmod>
          <changefreq>weekly</changefreq>
          <priority>1.0</priority>
      </url>
      
      <url>
          <loc>https://termgit.elga.gv.at/ui_features_en.html</loc>
          <lastmod>2025-03-06</lastmod>
          <changefreq>weekly</changefreq>
          <priority>1.0</priority>
      </url>
      
      <url>
          <loc>https://termgit.elga.gv.at/CodeSystem-zuppl-loinc-4-elga-laborparameter.html</loc>
          <lastmod>2025-03-06</lastmod>
          <changefreq>weekly</changefreq>
          <priority>1.0</priority>
      </url>
      
      <url>
          <loc>https://termgit.elga.gv.at/CodeSystem-elga-actcode.html</loc>
          <lastmod>2025-03-06</lastmod>
          <changefreq>weekly</changefreq>
          <priority>1.0</priority>
      </url>
      
      <url>
          <loc>https://termgit.elga.gv.at/CodeSystem-ems-klinischemanifestation.html</loc>
          <lastmod>2025-03-06</lastmod>
          <changefreq>weekly</changefreq>
          <priority>1.0</priority>
      </url>
      
      <url>
          <loc>https://termgit.elga.gv.at/ValueSet-elga-medikationmengenartalternativ.html</loc>
          <lastmod>2025-03-06</lastmod>
          <changefreq>weekly</changefreq>
          <priority>1.0</priority>
      </url>
      
      <url>
          <loc>https://termgit.elga.gv.at/CodeSystem-ems-reiseland.html</loc>
          <lastmod>2025-03-06</lastmod>
          <changefreq>weekly</changefreq>
          <priority>1.0</priority>
      </url>
      
      <url>
          <loc>https://termgit.elga.gv.at/ValueSet-appc-prozeduren.html</loc>
          <lastmod>2025-03-06</lastmod>
          <changefreq>weekly</changefreq>
          <priority>1.0</priority>
      </url>
      
      <url>
          <loc>https://termgit.elga.gv.at/CodeSystem-leistungskatalog-gesamt.html</loc>
          <lastmod>2025-03-06</lastmod>
          <changefreq>weekly</changefreq>
          <priority>1.0</priority>
      </url>
      
      <url>
          <loc>https://termgit.elga.gv.at/CodeSystem-zuppl-medikationdarreichungsform-4-elga-medikationdarreichungs.html</loc>
          <lastmod>2025-03-06</lastmod>
          <changefreq>weekly</changefreq>
          <priority>1.0</priority>
      </url>
      
      <url>
          <loc>https://termgit.elga.gv.at/ValueSet-elga-antibiogramm.html</loc>
          <lastmod>2025-03-06</lastmod>
          <changefreq>weekly</changefreq>
          <priority>1.0</priority>
      </url>
      
      <url>
          <loc>https://termgit.elga.gv.at/CodeSystem-ems-quartiercode.html</loc>
          <lastmod>2025-03-06</lastmod>
          <changefreq>weekly</changefreq>
          <priority>1.0</priority>
      </url>
      
      <url>
          <loc>https://termgit.elga.gv.at/ValueSet-elga-proficiencylevelcode.html</loc>
          <lastmod>2025-03-06</lastmod>
          <changefreq>weekly</changefreq>
          <priority>1.0</priority>
      </url>
      
      <url>
          <loc>https://termgit.elga.gv.at/ValueSet-elga-personalrelationship.html</loc>
          <lastmod>2025-03-06</lastmod>
          <changefreq>weekly</changefreq>
          <priority>1.0</priority>
      </url>
      
      <url>
          <loc>https://termgit.elga.gv.at/ValueSet-v3-TargetAwareness.html</loc>
          <lastmod>2025-03-06</lastmod>
          <changefreq>weekly</changefreq>
          <priority>1.0</priority>
      </url>
      
      <url>
          <loc>https://termgit.elga.gv.at/CodeSystem-ems-testmethodetypingipd.html</loc>
          <lastmod>2025-03-06</lastmod>
          <changefreq>weekly</changefreq>
          <priority>1.0</priority>
      </url>
      
      <url>
          <loc>https://termgit.elga.gv.at/CodeSystem-mdc-medicaldevicecommunications.html</loc>
          <lastmod>2025-03-06</lastmod>
          <changefreq>weekly</changefreq>
          <priority>1.0</priority>
      </url>
      
      <url>
          <loc>https://termgit.elga.gv.at/ValueSet-elga-healthcarefacilitytypecode.html</loc>
          <lastmod>2025-03-06</lastmod>
          <changefreq>weekly</changefreq>
          <priority>1.0</priority>
      </url>
      
      <url>
          <loc>https://termgit.elga.gv.at/ValueSet-ehdsi-unit.html</loc>
          <lastmod>2025-03-06</lastmod>
          <changefreq>weekly</changefreq>
          <priority>1.0</priority>
      </url>
      
      <url>
          <loc>https://termgit.elga.gv.at/CodeSystem-zuppl-eimpf-ergaenzung-4-eimpf-impfschema.html</loc>
          <lastmod>2025-03-06</lastmod>
          <changefreq>weekly</changefreq>
          <priority>1.0</priority>
      </url>
      
      <url>
          <loc>https://termgit.elga.gv.at/CodeSystem-ems-artmalaria.html</loc>
          <lastmod>2025-03-06</lastmod>
          <changefreq>weekly</changefreq>
          <priority>1.0</priority>
      </url>
      
      <url>
          <loc>https://termgit.elga.gv.at/ValueSet-zeiteinheiten.html</loc>
          <lastmod>2025-03-06</lastmod>
          <changefreq>weekly</changefreq>
          <priority>1.0</priority>
      </url>
      
      <url>
          <loc>https://termgit.elga.gv.at/CodeSystem-hl7-address-use.html</loc>
          <lastmod>2025-03-06</lastmod>
          <changefreq>weekly</changefreq>
          <priority>1.0</priority>
      </url>
      
      <url>
          <loc>https://termgit.elga.gv.at/CodeSystem-ems-krankheitsmerkmale.html</loc>
          <lastmod>2025-03-06</lastmod>
          <changefreq>weekly</changefreq>
          <priority>1.0</priority>
      </url>
      
      <url>
          <loc>https://termgit.elga.gv.at/ValueSet-elga-auditroleid.html</loc>
          <lastmod>2025-03-06</lastmod>
          <changefreq>weekly</changefreq>
          <priority>1.0</priority>
      </url>
      
      <url>
          <loc>https://termgit.elga.gv.at/CodeSystem-ems-ergaenzungmeldepflichtigekrankheiten.html</loc>
          <lastmod>2025-03-06</lastmod>
          <changefreq>weekly</changefreq>
          <priority>1.0</priority>
      </url>
      
      <url>
          <loc>https://termgit.elga.gv.at/ValueSet-elga-radiopharmaceuticals.html</loc>
          <lastmod>2025-03-06</lastmod>
          <changefreq>weekly</changefreq>
          <priority>1.0</priority>
      </url>
      
      <url>
          <loc>https://termgit.elga.gv.at/CodeSystem-ems-listeschulen.html</loc>
          <lastmod>2025-03-06</lastmod>
          <changefreq>weekly</changefreq>
          <priority>1.0</priority>
      </url>
      
      <url>
          <loc>https://termgit.elga.gv.at/architecture_de.html</loc>
          <lastmod>2025-03-06</lastmod>
          <changefreq>weekly</changefreq>
          <priority>1.0</priority>
      </url>
      
      <url>
          <loc>https://termgit.elga.gv.at/file_formats_en.html</loc>
          <lastmod>2025-03-06</lastmod>
          <changefreq>weekly</changefreq>
          <priority>1.0</priority>
      </url>
      
      <url>
          <loc>https://termgit.elga.gv.at/ValueSet-elga-medikationfrequenz.html</loc>
          <lastmod>2025-03-06</lastmod>
          <changefreq>weekly</changefreq>
          <priority>1.0</priority>
      </url>
      
      <url>
          <loc>https://termgit.elga.gv.at/CodeSystem-atc-deutsch-wido.html</loc>
          <lastmod>2025-03-06</lastmod>
          <changefreq>weekly</changefreq>
          <priority>1.0</priority>
      </url>
      
      <url>
          <loc>https://termgit.elga.gv.at/ValueSet-v3-RouteOfAdministration.html</loc>
          <lastmod>2025-03-06</lastmod>
          <changefreq>weekly</changefreq>
          <priority>1.0</priority>
      </url>
      
      <url>
          <loc>https://termgit.elga.gv.at/CodeSystem-hl7-language-identification.html</loc>
          <lastmod>2025-03-06</lastmod>
          <changefreq>weekly</changefreq>
          <priority>1.0</priority>
      </url>
      
      <url>
          <loc>https://termgit.elga.gv.at/ValueSet-elga-addressuse.html</loc>
          <lastmod>2025-03-06</lastmod>
          <changefreq>weekly</changefreq>
          <priority>1.0</priority>
      </url>
      
      <url>
          <loc>https://termgit.elga.gv.at/CodeSystem-ems-serogruppe.html</loc>
          <lastmod>2025-03-06</lastmod>
          <changefreq>weekly</changefreq>
          <priority>1.0</priority>
      </url>
      
      <url>
          <loc>https://termgit.elga.gv.at/CodeSystem-hl7-languageabilitymode.html</loc>
          <lastmod>2025-03-06</lastmod>
          <changefreq>weekly</changefreq>
          <priority>1.0</priority>
      </url>
      
      <url>
          <loc>https://termgit.elga.gv.at/ValueSet-elga-rollen.html</loc>
          <lastmod>2025-03-06</lastmod>
          <changefreq>weekly</changefreq>
          <priority>1.0</priority>
      </url>
      
      <url>
          <loc>https://termgit.elga.gv.at/ValueSet-elga-lebensmittelallergene.html</loc>
          <lastmod>2025-03-06</lastmod>
          <changefreq>weekly</changefreq>
          <priority>1.0</priority>
      </url>
      
      <url>
          <loc>https://termgit.elga.gv.at/ValueSet-elga-humanlanguage.html</loc>
          <lastmod>2025-03-06</lastmod>
          <changefreq>weekly</changefreq>
          <priority>1.0</priority>
      </url>
      
      <url>
          <loc>https://termgit.elga.gv.at/ValueSet-elga-topographicalmodifierqualifier.html</loc>
          <lastmod>2025-03-06</lastmod>
          <changefreq>weekly</changefreq>
          <priority>1.0</priority>
      </url>
      
      <url>
          <loc>https://termgit.elga.gv.at/CodeSystem-hl7-entity-name-use.html</loc>
          <lastmod>2025-03-06</lastmod>
          <changefreq>weekly</changefreq>
          <priority>1.0</priority>
      </url>
      
      <url>
          <loc>https://termgit.elga.gv.at/ValueSet-elga-dokumentenklassen.html</loc>
          <lastmod>2025-03-06</lastmod>
          <changefreq>weekly</changefreq>
          <priority>1.0</priority>
      </url>
      
      <url>
          <loc>https://termgit.elga.gv.at/ValueSet-elga-entitynameuse.html</loc>
          <lastmod>2025-03-06</lastmod>
          <changefreq>weekly</changefreq>
          <priority>1.0</priority>
      </url>
      
      <url>
          <loc>https://termgit.elga.gv.at/index_en.html</loc>
          <lastmod>2025-03-06</lastmod>
          <changefreq>weekly</changefreq>
          <priority>1.0</priority>
      </url>
      
      <url>
          <loc>https://termgit.elga.gv.at/StructureDefinition-at-core-valueset.profile.json.html</loc>
          <lastmod>2025-03-06</lastmod>
          <changefreq>weekly</changefreq>
          <priority>1.0</priority>
      </url>
      
      <url>
          <loc>https://termgit.elga.gv.at/CodeSystem-elga-auditparticipantobjecttyperole.html</loc>
          <lastmod>2025-03-06</lastmod>
          <changefreq>weekly</changefreq>
          <priority>1.0</priority>
      </url>
      
      <url>
          <loc>https://termgit.elga.gv.at/CodeSystem-hl7-administrative-gender-suppl.html</loc>
          <lastmod>2025-03-06</lastmod>
          <changefreq>weekly</changefreq>
          <priority>1.0</priority>
      </url>
      
      <url>
          <loc>https://termgit.elga.gv.at/ValueSet-elga-medikationpharmazeutischeempfehlungstatus.html</loc>
          <lastmod>2025-03-06</lastmod>
          <changefreq>weekly</changefreq>
          <priority>1.0</priority>
      </url>
      
      <url>
          <loc>https://termgit.elga.gv.at/ValueSet-elga-actencountercode.html</loc>
          <lastmod>2025-03-06</lastmod>
          <changefreq>weekly</changefreq>
          <priority>1.0</priority>
      </url>
      
      <url>
          <loc>https://termgit.elga.gv.at/StructureDefinition-at-core-valueset-examples.html</loc>
          <lastmod>2025-03-06</lastmod>
          <changefreq>weekly</changefreq>
          <priority>1.0</priority>
      </url>
      
      <url>
          <loc>https://termgit.elga.gv.at/CodeSystem-dicom-sopclasses.html</loc>
          <lastmod>2025-03-06</lastmod>
          <changefreq>weekly</changefreq>
          <priority>1.0</priority>
      </url>
      
      <url>
          <loc>https://termgit.elga.gv.at/CodeSystem-ems-tbc-typ.html</loc>
          <lastmod>2025-03-06</lastmod>
          <changefreq>weekly</changefreq>
          <priority>1.0</priority>
      </url>
      
      <url>
          <loc>https://termgit.elga.gv.at/ValueSet-elga-mammogramassessment.html</loc>
          <lastmod>2025-03-06</lastmod>
          <changefreq>weekly</changefreq>
          <priority>1.0</priority>
      </url>
      
      <url>
          <loc>https://termgit.elga.gv.at/ValueSet-eimpf-impfrollen.html</loc>
          <lastmod>2025-03-06</lastmod>
          <changefreq>weekly</changefreq>
          <priority>1.0</priority>
      </url>
      
      <url>
          <loc>https://termgit.elga.gv.at/ValueSet-ehdsi-administrative-gender.html</loc>
          <lastmod>2025-03-06</lastmod>
          <changefreq>weekly</changefreq>
          <priority>1.0</priority>
      </url>
      
      <url>
          <loc>https://termgit.elga.gv.at/CodeSystem-zuppl-elga-specimentype-ergaenzung-4-elga-specimentype.html</loc>
          <lastmod>2025-03-06</lastmod>
          <changefreq>weekly</changefreq>
          <priority>1.0</priority>
      </url>
      
      <url>
          <loc>https://termgit.elga.gv.at/CodeSystem-ems-posneg.html</loc>
          <lastmod>2025-03-06</lastmod>
          <changefreq>weekly</changefreq>
          <priority>1.0</priority>
      </url>
      
      <url>
          <loc>https://termgit.elga.gv.at/ValueSet-rads-coronaryarterydisease.html</loc>
          <lastmod>2025-03-06</lastmod>
          <changefreq>weekly</changefreq>
          <priority>1.0</priority>
      </url>
      
      <url>
          <loc>https://termgit.elga.gv.at/CodeSystem-elga-mammogramassessment.html</loc>
          <lastmod>2025-03-06</lastmod>
          <changefreq>weekly</changefreq>
          <priority>1.0</priority>
      </url>
      
      <url>
          <loc>https://termgit.elga.gv.at/CodeSystem-ems-serotyp-gene-feta.html</loc>
          <lastmod>2025-03-06</lastmod>
          <changefreq>weekly</changefreq>
          <priority>1.0</priority>
      </url>
      
      <url>
          <loc>https://termgit.elga.gv.at/ValueSet-hl7-at-practitionerrole.html</loc>
          <lastmod>2025-03-06</lastmod>
          <changefreq>weekly</changefreq>
          <priority>1.0</priority>
      </url>
      
      <url>
          <loc>https://termgit.elga.gv.at/ValueSet-ehdsi-telecom-address.html</loc>
          <lastmod>2025-03-06</lastmod>
          <changefreq>weekly</changefreq>
          <priority>1.0</priority>
      </url>
      
      <url>
          <loc>https://termgit.elga.gv.at/CodeSystem-elga-gtelvogdarollen.html</loc>
          <lastmod>2025-03-06</lastmod>
          <changefreq>weekly</changefreq>
          <priority>1.0</priority>
      </url>
      
      <url>
          <loc>https://termgit.elga.gv.at/CodeSystem-appc-prozeduren.html</loc>
          <lastmod>2025-03-06</lastmod>
          <changefreq>weekly</changefreq>
          <priority>1.0</priority>
      </url>
      
      <url>
          <loc>https://termgit.elga.gv.at/ValueSet-hl7-at-patientidentifier.html</loc>
          <lastmod>2025-03-06</lastmod>
          <changefreq>weekly</changefreq>
          <priority>1.0</priority>
      </url>
      
      <url>
          <loc>https://termgit.elga.gv.at/StructureDefinition-at-core-ext-valueset-systemoid-definitions.html</loc>
          <lastmod>2025-03-06</lastmod>
          <changefreq>weekly</changefreq>
          <priority>1.0</priority>
      </url>
      
      <url>
          <loc>https://termgit.elga.gv.at/ValueSet-elga-informationrecipienttype.html</loc>
          <lastmod>2025-03-06</lastmod>
          <changefreq>weekly</changefreq>
          <priority>1.0</priority>
      </url>
      
      <url>
          <loc>https://termgit.elga.gv.at/CodeSystem-elga-auditparticipantobjecttype.html</loc>
          <lastmod>2025-03-06</lastmod>
          <changefreq>weekly</changefreq>
          <priority>1.0</priority>
      </url>
      
      <url>
          <loc>https://termgit.elga.gv.at/ValueSet-elga-diagnosesicherheit.html</loc>
          <lastmod>2025-03-06</lastmod>
          <changefreq>weekly</changefreq>
          <priority>1.0</priority>
      </url>
      
      <url>
          <loc>https://termgit.elga.gv.at/CodeSystem-ems-genotyppora-r2.html</loc>
          <lastmod>2025-03-06</lastmod>
          <changefreq>weekly</changefreq>
          <priority>1.0</priority>
      </url>
      
      <url>
          <loc>https://termgit.elga.gv.at/ValueSet-elga-allergietyp.html</loc>
          <lastmod>2025-03-06</lastmod>
          <changefreq>weekly</changefreq>
          <priority>1.0</priority>
      </url>
      
      <url>
          <loc>https://termgit.elga.gv.at/StructureDefinition-at-core-ext-valueset-systemoid.profile.ttl.html</loc>
          <lastmod>2025-03-06</lastmod>
          <changefreq>weekly</changefreq>
          <priority>1.0</priority>
      </url>
      
      <url>
          <loc>https://termgit.elga.gv.at/CodeSystem-hl7-consent-status.html</loc>
          <lastmod>2025-03-06</lastmod>
          <changefreq>weekly</changefreq>
          <priority>1.0</priority>
      </url>
      
      <url>
          <loc>https://termgit.elga.gv.at/CodeSystem-dgc-ratnamemanufacturer.html</loc>
          <lastmod>2025-03-06</lastmod>
          <changefreq>weekly</changefreq>
          <priority>1.0</priority>
      </url>
      
      <url>
          <loc>https://termgit.elga.gv.at/CodeSystem-elga-gda-aggregatrollen.html</loc>
          <lastmod>2025-03-06</lastmod>
          <changefreq>weekly</changefreq>
          <priority>1.0</priority>
      </url>
      
      <url>
          <loc>https://termgit.elga.gv.at/CodeSystem-exnds-concepts.html</loc>
          <lastmod>2025-03-06</lastmod>
          <changefreq>weekly</changefreq>
          <priority>1.0</priority>
      </url>
      
      <url>
          <loc>https://termgit.elga.gv.at/CodeSystem-elga-urlschemeergaenzung.html</loc>
          <lastmod>2025-03-06</lastmod>
          <changefreq>weekly</changefreq>
          <priority>1.0</priority>
      </url>
      
      <url>
          <loc>https://termgit.elga.gv.at/CodeSystem-elga-auditsourcetype.html</loc>
          <lastmod>2025-03-06</lastmod>
          <changefreq>weekly</changefreq>
          <priority>1.0</priority>
      </url>
      
      <url>
          <loc>https://termgit.elga.gv.at/CodeSystem-elga-kontakttypen.html</loc>
          <lastmod>2025-03-06</lastmod>
          <changefreq>weekly</changefreq>
          <priority>1.0</priority>
      </url>
      
      <url>
          <loc>https://termgit.elga.gv.at/ValueSet-elga-actcode-patinfo.html</loc>
          <lastmod>2025-03-06</lastmod>
          <changefreq>weekly</changefreq>
          <priority>1.0</priority>
      </url>
      
      <url>
          <loc>https://termgit.elga.gv.at/file_formats_de.html</loc>
          <lastmod>2025-03-06</lastmod>
          <changefreq>weekly</changefreq>
          <priority>1.0</priority>
      </url>
      
      <url>
          <loc>https://termgit.elga.gv.at/CodeSystem-ems-gewinnung.html</loc>
          <lastmod>2025-03-06</lastmod>
          <changefreq>weekly</changefreq>
          <priority>1.0</priority>
      </url>
      
      <url>
          <loc>https://termgit.elga.gv.at/ValueSet-elga-absentorunknownproblems.html</loc>
          <lastmod>2025-03-06</lastmod>
          <changefreq>weekly</changefreq>
          <priority>1.0</priority>
      </url>
      
      <url>
          <loc>https://termgit.elga.gv.at/CodeSystem-ems-aviditaet.html</loc>
          <lastmod>2025-03-06</lastmod>
          <changefreq>weekly</changefreq>
          <priority>1.0</priority>
      </url>
      
      <url>
          <loc>https://termgit.elga.gv.at/CodeSystem-ems-monoclonalsub.html</loc>
          <lastmod>2025-03-06</lastmod>
          <changefreq>weekly</changefreq>
          <priority>1.0</priority>
      </url>
      
      <url>
          <loc>https://termgit.elga.gv.at/ValueSet-dicom-sopclasses.html</loc>
          <lastmod>2025-03-06</lastmod>
          <changefreq>weekly</changefreq>
          <priority>1.0</priority>
      </url>
      
      <url>
          <loc>https://termgit.elga.gv.at/ConceptMap-elga-lebensmittelallergene-mapping.html</loc>
          <lastmod>2025-03-06</lastmod>
          <changefreq>weekly</changefreq>
          <priority>1.0</priority>
      </url>
      
      <url>
          <loc>https://termgit.elga.gv.at/ValueSet-ems-anti-hcv-immunoassay.html</loc>
          <lastmod>2025-03-06</lastmod>
          <changefreq>weekly</changefreq>
          <priority>1.0</priority>
      </url>
      
      <url>
          <loc>https://termgit.elga.gv.at/technical_documentation_en.html</loc>
          <lastmod>2025-03-06</lastmod>
          <changefreq>weekly</changefreq>
          <priority>1.0</priority>
      </url>
      
      <url>
          <loc>https://termgit.elga.gv.at/CodeSystem-ems-testmethodemic-ipd.html</loc>
          <lastmod>2025-03-06</lastmod>
          <changefreq>weekly</changefreq>
          <priority>1.0</priority>
      </url>
      
      <url>
          <loc>https://termgit.elga.gv.at/codesystems.html</loc>
          <lastmod>2025-03-06</lastmod>
          <changefreq>weekly</changefreq>
          <priority>1.0</priority>
      </url>
      
      <url>
          <loc>https://termgit.elga.gv.at/CodeSystem-appc-modalitaet.html</loc>
          <lastmod>2025-03-06</lastmod>
          <changefreq>weekly</changefreq>
          <priority>1.0</priority>
      </url>
      
      <url>
          <loc>https://termgit.elga.gv.at/CodeSystem-ems-serotyp.html</loc>
          <lastmod>2025-03-06</lastmod>
          <changefreq>weekly</changefreq>
          <priority>1.0</priority>
      </url>
      
      <url>
          <loc>https://termgit.elga.gv.at/CodeSystem-hl7-at-formatcodes.html</loc>
          <lastmod>2025-03-06</lastmod>
          <changefreq>weekly</changefreq>
          <priority>1.0</priority>
      </url>
      
      <url>
          <loc>https://termgit.elga.gv.at/conceptmaps.html</loc>
          <lastmod>2025-03-06</lastmod>
          <changefreq>weekly</changefreq>
          <priority>1.0</priority>
      </url>
      
      <url>
          <loc>https://termgit.elga.gv.at/CodeSystem-appc-lateralitaet.html</loc>
          <lastmod>2025-03-06</lastmod>
          <changefreq>weekly</changefreq>
          <priority>1.0</priority>
      </url>
      
      <url>
          <loc>https://termgit.elga.gv.at/CodeSystem-ems-antigeno.html</loc>
          <lastmod>2025-03-06</lastmod>
          <changefreq>weekly</changefreq>
          <priority>1.0</priority>
      </url>
      
      <url>
          <loc>https://termgit.elga.gv.at/CodeSystem-leistungskatalog-stationaer.html</loc>
          <lastmod>2025-03-06</lastmod>
          <changefreq>weekly</changefreq>
          <priority>1.0</priority>
      </url>
      
      <url>
          <loc>https://termgit.elga.gv.at/CodeSystem-oeaek-fachrichtung.html</loc>
          <lastmod>2025-03-06</lastmod>
          <changefreq>weekly</changefreq>
          <priority>1.0</priority>
      </url>
      
      <url>
          <loc>https://termgit.elga.gv.at/CodeSystem-ems-janein.html</loc>
          <lastmod>2025-03-06</lastmod>
          <changefreq>weekly</changefreq>
          <priority>1.0</priority>
      </url>
      
      <url>
          <loc>https://termgit.elga.gv.at/CodeSystem-hl7-at-administrativegender-ergaenzung.html</loc>
          <lastmod>2025-03-06</lastmod>
          <changefreq>weekly</changefreq>
          <priority>1.0</priority>
      </url>
      
      <url>
          <loc>https://termgit.elga.gv.at/ValueSet-hl7-at-administrativegender-fhir-extension.html</loc>
          <lastmod>2025-03-06</lastmod>
          <changefreq>weekly</changefreq>
          <priority>1.0</priority>
      </url>
      
      <url>
          <loc>https://termgit.elga.gv.at/ValueSet-elga-kulturerregernachweis.html</loc>
          <lastmod>2025-03-06</lastmod>
          <changefreq>weekly</changefreq>
          <priority>1.0</priority>
      </url>
      
      <url>
          <loc>https://termgit.elga.gv.at/ValueSet-ems-materialmethode.html</loc>
          <lastmod>2025-03-06</lastmod>
          <changefreq>weekly</changefreq>
          <priority>1.0</priority>
      </url>
      
      <url>
          <loc>https://termgit.elga.gv.at/StructureDefinition-at-core-ext-valueset-systemoid-testing.html</loc>
          <lastmod>2025-03-06</lastmod>
          <changefreq>weekly</changefreq>
          <priority>1.0</priority>
      </url>
      
      <url>
          <loc>https://termgit.elga.gv.at/ValueSet-elga-absentorunknowndevices.html</loc>
          <lastmod>2025-03-06</lastmod>
          <changefreq>weekly</changefreq>
          <priority>1.0</priority>
      </url>
      
      <url>
          <loc>https://termgit.elga.gv.at/CodeSystem-elga-formatcodezusatz.html</loc>
          <lastmod>2025-03-06</lastmod>
          <changefreq>weekly</changefreq>
          <priority>1.0</priority>
      </url>
      
      <url>
          <loc>https://termgit.elga.gv.at/CodeSystem-ems-methoden.html</loc>
          <lastmod>2025-03-06</lastmod>
          <changefreq>weekly</changefreq>
          <priority>1.0</priority>
      </url>
      
      <url>
          <loc>https://termgit.elga.gv.at/ValueSet-ems-hcv-core-ag-assay.html</loc>
          <lastmod>2025-03-06</lastmod>
          <changefreq>weekly</changefreq>
          <priority>1.0</priority>
      </url>
      
      <url>
          <loc>https://termgit.elga.gv.at/CodeSystem-zuppl-eimpf-impfstoffe-4-dgc-medicinalproduct.html</loc>
          <lastmod>2025-03-06</lastmod>
          <changefreq>weekly</changefreq>
          <priority>1.0</priority>
      </url>
      
      <url>
          <loc>https://termgit.elga.gv.at/CodeSystem-icpc2.html</loc>
          <lastmod>2025-03-06</lastmod>
          <changefreq>weekly</changefreq>
          <priority>1.0</priority>
      </url>
      
      <url>
          <loc>https://termgit.elga.gv.at/CodeSystem-elga-auditeventtype.html</loc>
          <lastmod>2025-03-06</lastmod>
          <changefreq>weekly</changefreq>
          <priority>1.0</priority>
      </url>
      
      <url>
          <loc>https://termgit.elga.gv.at/ValueSet-elga-auditsourcetype.html</loc>
          <lastmod>2025-03-06</lastmod>
          <changefreq>weekly</changefreq>
          <priority>1.0</priority>
      </url>
      
      <url>
          <loc>https://termgit.elga.gv.at/StructureDefinition-at-core-ext-valueset-systemoid.profile.xml.html</loc>
          <lastmod>2025-03-06</lastmod>
          <changefreq>weekly</changefreq>
          <priority>1.0</priority>
      </url>
      
      <url>
          <loc>https://termgit.elga.gv.at/ValueSet-elga-pregnanciessummary.html</loc>
          <lastmod>2025-03-06</lastmod>
          <changefreq>weekly</changefreq>
          <priority>1.0</priority>
      </url>
      
      <url>
          <loc>https://termgit.elga.gv.at/ValueSet-rads-prostateimaging.html</loc>
          <lastmod>2025-03-06</lastmod>
          <changefreq>weekly</changefreq>
          <priority>1.0</priority>
      </url>
      
      <url>
          <loc>https://termgit.elga.gv.at/CodeSystem-hl7-signatorys-relationship-to-subject.html</loc>
          <lastmod>2025-03-06</lastmod>
          <changefreq>weekly</changefreq>
          <priority>1.0</priority>
      </url>
      
      <url>
          <loc>https://termgit.elga.gv.at/ValueSet-ehdsi-country.html</loc>
          <lastmod>2025-03-06</lastmod>
          <changefreq>weekly</changefreq>
          <priority>1.0</priority>
      </url>
      
      <url>
          <loc>https://termgit.elga.gv.at/CodeSystem-ems-durchgefuehrt.html</loc>
          <lastmod>2025-03-06</lastmod>
          <changefreq>weekly</changefreq>
          <priority>1.0</priority>
      </url>
      
      <url>
          <loc>https://termgit.elga.gv.at/CodeSystem-elga-medikationmengenartalternativ.html</loc>
          <lastmod>2025-03-06</lastmod>
          <changefreq>weekly</changefreq>
          <priority>1.0</priority>
      </url>
      
      <url>
          <loc>https://termgit.elga.gv.at/CodeSystem-eimpf-zuordnungsmatrix.html</loc>
          <lastmod>2025-03-06</lastmod>
          <changefreq>weekly</changefreq>
          <priority>1.0</priority>
      </url>
      
      <url>
          <loc>https://termgit.elga.gv.at/CodeSystem-zuppl-snomed-ct-auszug-4-eimpf-specialcasevaccinatio.html</loc>
          <lastmod>2025-03-06</lastmod>
          <changefreq>weekly</changefreq>
          <priority>1.0</priority>
      </url>
      
      <url>
          <loc>https://termgit.elga.gv.at/valuesets.html</loc>
          <lastmod>2025-03-06</lastmod>
          <changefreq>weekly</changefreq>
          <priority>1.0</priority>
      </url>
      
      <url>
          <loc>https://termgit.elga.gv.at/CodeSystem-hl7-consent-type.html</loc>
          <lastmod>2025-03-06</lastmod>
          <changefreq>weekly</changefreq>
          <priority>1.0</priority>
      </url>
      
      <url>
          <loc>https://termgit.elga.gv.at/CodeSystem-gda-org.html</loc>
          <lastmod>2025-03-06</lastmod>
          <changefreq>weekly</changefreq>
          <priority>1.0</priority>
      </url>
      
      <url>
          <loc>https://termgit.elga.gv.at/CodeSystem-zuppl-eimpf-impfstoffe-4-eimpf-impfstoffe.html</loc>
          <lastmod>2025-03-06</lastmod>
          <changefreq>weekly</changefreq>
          <priority>1.0</priority>
      </url>
      
      <url>
          <loc>https://termgit.elga.gv.at/ValueSet-elga-serviceeventsentlassbr.html</loc>
          <lastmod>2025-03-06</lastmod>
          <changefreq>weekly</changefreq>
          <priority>1.0</priority>
      </url>
      
      <url>
          <loc>https://termgit.elga.gv.at/ValueSet-elga-medikationartanwendung.html</loc>
          <lastmod>2025-03-06</lastmod>
          <changefreq>weekly</changefreq>
          <priority>1.0</priority>
      </url>
      
      <url>
          <loc>https://termgit.elga.gv.at/ValueSet-elga-entlassungsmanagementa.html</loc>
          <lastmod>2025-03-06</lastmod>
          <changefreq>weekly</changefreq>
          <priority>1.0</priority>
      </url>
      
      <url>
          <loc>https://termgit.elga.gv.at/CodeSystem-hl7-confidentiality-code.html</loc>
          <lastmod>2025-03-06</lastmod>
          <changefreq>weekly</changefreq>
          <priority>1.0</priority>
      </url>
      
      <url>
          <loc>https://termgit.elga.gv.at/CodeSystem-hl7-null-flavor.html</loc>
          <lastmod>2025-03-06</lastmod>
          <changefreq>weekly</changefreq>
          <priority>1.0</priority>
      </url>
      
      <url>
          <loc>https://termgit.elga.gv.at/ValueSet-elga-serviceeventperformer.html</loc>
          <lastmod>2025-03-06</lastmod>
          <changefreq>weekly</changefreq>
          <priority>1.0</priority>
      </url>
      
      <url>
          <loc>https://termgit.elga.gv.at/ValueSet-ems-meldepflichtige-krankheiten.html</loc>
          <lastmod>2025-03-06</lastmod>
          <changefreq>weekly</changefreq>
          <priority>1.0</priority>
      </url>
      
      <url>
          <loc>https://termgit.elga.gv.at/CodeSystem-ems-betreuung.html</loc>
          <lastmod>2025-03-06</lastmod>
          <changefreq>weekly</changefreq>
          <priority>1.0</priority>
      </url>
      
      <url>
          <loc>https://termgit.elga.gv.at/CodeSystem-sciphox-seitenlokalisation.html</loc>
          <lastmod>2025-03-06</lastmod>
          <changefreq>weekly</changefreq>
          <priority>1.0</priority>
      </url>
      
      <url>
          <loc>https://termgit.elga.gv.at/ValueSet-elga-medikationabgabeart.html</loc>
          <lastmod>2025-03-06</lastmod>
          <changefreq>weekly</changefreq>
          <priority>1.0</priority>
      </url>
      
      <url>
          <loc>https://termgit.elga.gv.at/ValueSet-v3-ParticipationType.html</loc>
          <lastmod>2025-03-06</lastmod>
          <changefreq>weekly</changefreq>
          <priority>1.0</priority>
      </url>
      
      <url>
          <loc>https://termgit.elga.gv.at/CodeSystem-ems-tbc-resistenzergaenzung.html</loc>
          <lastmod>2025-03-06</lastmod>
          <changefreq>weekly</changefreq>
          <priority>1.0</priority>
      </url>
      
      <url>
          <loc>https://termgit.elga.gv.at/ValueSet-elga-realmcode.html</loc>
          <lastmod>2025-03-06</lastmod>
          <changefreq>weekly</changefreq>
          <priority>1.0</priority>
      </url>
      
      <url>
          <loc>https://termgit.elga.gv.at/CodeSystem-oeaek-spezialisierung.html</loc>
          <lastmod>2025-03-06</lastmod>
          <changefreq>weekly</changefreq>
          <priority>1.0</priority>
      </url>
      
      <url>
          <loc>https://termgit.elga.gv.at/CodeSystem-medikationrezeptart.html</loc>
          <lastmod>2025-03-06</lastmod>
          <changefreq>weekly</changefreq>
          <priority>1.0</priority>
      </url>
      
      <url>
          <loc>https://termgit.elga.gv.at/CodeSystem-sciphox-diagnosenzusatz.html</loc>
          <lastmod>2025-03-06</lastmod>
          <changefreq>weekly</changefreq>
          <priority>1.0</priority>
      </url>
      
      <url>
          <loc>https://termgit.elga.gv.at/CodeSystem-oeaek-spezialdiplom.html</loc>
          <lastmod>2025-03-06</lastmod>
          <changefreq>weekly</changefreq>
          <priority>1.0</priority>
      </url>
      
      <url>
          <loc>https://termgit.elga.gv.at/CodeSystem-iso-639-2.html</loc>
          <lastmod>2025-03-06</lastmod>
          <changefreq>weekly</changefreq>
          <priority>1.0</priority>
      </url>
      
      <url>
          <loc>https://termgit.elga.gv.at/CodeSystem-zuppl-elga-auditsourcetype-4-elga-auditsourcetype.html</loc>
          <lastmod>2025-03-06</lastmod>
          <changefreq>weekly</changefreq>
          <priority>1.0</priority>
      </url>
      
      <url>
          <loc>https://termgit.elga.gv.at/ValueSet-elga-maritalstatus.html</loc>
          <lastmod>2025-03-06</lastmod>
          <changefreq>weekly</changefreq>
          <priority>1.0</priority>
      </url>
      
      <url>
          <loc>https://termgit.elga.gv.at/CodeSystem-hl7-consent-mode.html</loc>
          <lastmod>2025-03-06</lastmod>
          <changefreq>weekly</changefreq>
          <priority>1.0</priority>
      </url>
      
      <url>
          <loc>https://termgit.elga.gv.at/CodeSystem-dgc-antibody-test.html</loc>
          <lastmod>2025-03-06</lastmod>
          <changefreq>weekly</changefreq>
          <priority>1.0</priority>
      </url>
      
      <url>
          <loc>https://termgit.elga.gv.at/StructureDefinition-at-core-valueset-testing.html</loc>
          <lastmod>2025-03-06</lastmod>
          <changefreq>weekly</changefreq>
          <priority>1.0</priority>
      </url>
      
      <url>
          <loc>https://termgit.elga.gv.at/CodeSystem-eimpf-historischeimpfstoffe.html</loc>
          <lastmod>2025-03-06</lastmod>
          <changefreq>weekly</changefreq>
          <priority>1.0</priority>
      </url>
      
      <url>
          <loc>https://termgit.elga.gv.at/ConceptMap-elga-lebensmittelallergene-mapping.json.html</loc>
          <lastmod>2025-03-06</lastmod>
          <changefreq>weekly</changefreq>
          <priority>1.0</priority>
      </url>
      
      <url>
          <loc>https://termgit.elga.gv.at/CodeSystem-ems-wurdekrankheitimportiert.html</loc>
          <lastmod>2025-03-06</lastmod>
          <changefreq>weekly</changefreq>
          <priority>1.0</priority>
      </url>
      
      <url>
          <loc>https://termgit.elga.gv.at/CodeSystem-hl7-administrative-gender.html</loc>
          <lastmod>2025-03-06</lastmod>
          <changefreq>weekly</changefreq>
          <priority>1.0</priority>
      </url>
      
      <url>
          <loc>https://termgit.elga.gv.at/CodeSystem-ems-multilocsequ.html</loc>
          <lastmod>2025-03-06</lastmod>
          <changefreq>weekly</changefreq>
          <priority>1.0</priority>
      </url>
      
      <url>
          <loc>https://termgit.elga.gv.at/CodeSystem-hl7-konformitaet.html</loc>
          <lastmod>2025-03-06</lastmod>
          <changefreq>weekly</changefreq>
          <priority>1.0</priority>
      </url>
      
      <url>
          <loc>https://termgit.elga.gv.at/CodeSystem-elga-specimentype-ergaenzung.html</loc>
          <lastmod>2025-03-06</lastmod>
          <changefreq>weekly</changefreq>
          <priority>1.0</priority>
      </url>
      
      <url>
          <loc>https://termgit.elga.gv.at/CodeSystem-hl7-participation-type.html</loc>
          <lastmod>2025-03-06</lastmod>
          <changefreq>weekly</changefreq>
          <priority>1.0</priority>
      </url>
      
      <url>
          <loc>https://termgit.elga.gv.at/CodeSystem-leistungskatalog-ambulant.html</loc>
          <lastmod>2025-03-06</lastmod>
          <changefreq>weekly</changefreq>
          <priority>1.0</priority>
      </url>
      
      <url>
          <loc>https://termgit.elga.gv.at/CodeSystem-lkf-diagnose-typ.html</loc>
          <lastmod>2025-03-06</lastmod>
          <changefreq>weekly</changefreq>
          <priority>1.0</priority>
      </url>
      
      <url>
          <loc>https://termgit.elga.gv.at/CodeSystem-elga-entlassungsmanagementart.html</loc>
          <lastmod>2025-03-06</lastmod>
          <changefreq>weekly</changefreq>
          <priority>1.0</priority>
      </url>
      
      <url>
          <loc>https://termgit.elga.gv.at/CodeSystem-medikationartanwendung.html</loc>
          <lastmod>2025-03-06</lastmod>
          <changefreq>weekly</changefreq>
          <priority>1.0</priority>
      </url>
      
      <url>
          <loc>https://termgit.elga.gv.at/StructureDefinition-at-core-valueset-mappings.html</loc>
          <lastmod>2025-03-06</lastmod>
          <changefreq>weekly</changefreq>
          <priority>1.0</priority>
      </url>
      
      <url>
          <loc>https://termgit.elga.gv.at/ValueSet-elga-dosisparameter.html</loc>
          <lastmod>2025-03-06</lastmod>
          <changefreq>weekly</changefreq>
          <priority>1.0</priority>
      </url>
      
      <url>
          <loc>https://termgit.elga.gv.at/CodeSystem-iana-mime-type.html</loc>
          <lastmod>2025-03-06</lastmod>
          <changefreq>weekly</changefreq>
          <priority>1.0</priority>
      </url>
      
      <url>
          <loc>https://termgit.elga.gv.at/CodeSystem-zuppl-loinc-4-elga-dokumentenklassen.html</loc>
          <lastmod>2025-03-06</lastmod>
          <changefreq>weekly</changefreq>
          <priority>1.0</priority>
      </url>
      
      <url>
          <loc>https://termgit.elga.gv.at/ValueSet-elga-medikationrezeptpflichtstatus.html</loc>
          <lastmod>2025-03-06</lastmod>
          <changefreq>weekly</changefreq>
          <priority>1.0</priority>
      </url>
      
      <url>
          <loc>https://termgit.elga.gv.at/CodeSystem-hl7-observation-interpretation.html</loc>
          <lastmod>2025-03-06</lastmod>
          <changefreq>weekly</changefreq>
          <priority>1.0</priority>
      </url>
      
      <url>
          <loc>https://termgit.elga.gv.at/CodeSystem-elga-allergietyp.html</loc>
          <lastmod>2025-03-06</lastmod>
          <changefreq>weekly</changefreq>
          <priority>1.0</priority>
      </url>
      
      <url>
          <loc>https://termgit.elga.gv.at/CodeSystem-ems-verotoxin-1-subtyp.html</loc>
          <lastmod>2025-03-06</lastmod>
          <changefreq>weekly</changefreq>
          <priority>1.0</priority>
      </url>
      
      <url>
          <loc>https://termgit.elga.gv.at/CodeSystem-zuppl-hl7-specimen-type-4-elga-specimentype.html</loc>
          <lastmod>2025-03-06</lastmod>
          <changefreq>weekly</changefreq>
          <priority>1.0</priority>
      </url>
      
      <url>
          <loc>https://termgit.elga.gv.at/technical_documentation_de.html</loc>
          <lastmod>2025-03-06</lastmod>
          <changefreq>weekly</changefreq>
          <priority>1.0</priority>
      </url>
      
      <url>
          <loc>https://termgit.elga.gv.at/CodeSystem-zuppl-dcm-4-elga-auditeventtype.html</loc>
          <lastmod>2025-03-06</lastmod>
          <changefreq>weekly</changefreq>
          <priority>1.0</priority>
      </url>
      
      <url>
          <loc>https://termgit.elga.gv.at/CodeSystem-oeaek-berechtigungen.html</loc>
          <lastmod>2025-03-06</lastmod>
          <changefreq>weekly</changefreq>
          <priority>1.0</priority>
      </url>
      
      <url>
          <loc>https://termgit.elga.gv.at/ValueSet-elga-conditionverificationstatus.html</loc>
          <lastmod>2025-03-06</lastmod>
          <changefreq>weekly</changefreq>
          <priority>1.0</priority>
      </url>
      
      <url>
          <loc>https://termgit.elga.gv.at/CodeSystem-ems-ribotype.html</loc>
          <lastmod>2025-03-06</lastmod>
          <changefreq>weekly</changefreq>
          <priority>1.0</priority>
      </url>
      
      <url>
          <loc>https://termgit.elga.gv.at/CodeSystem-lkf-diagnose-art.html</loc>
          <lastmod>2025-03-06</lastmod>
          <changefreq>weekly</changefreq>
          <priority>1.0</priority>
      </url>
      
      <url>
          <loc>https://termgit.elga.gv.at/CodeSystem-hl7-at-religionaustria.html</loc>
          <lastmod>2025-03-06</lastmod>
          <changefreq>weekly</changefreq>
          <priority>1.0</priority>
      </url>
      
      <url>
          <loc>https://termgit.elga.gv.at/CodeSystem-elga-serviceeventsentlassbrief.html</loc>
          <lastmod>2025-03-06</lastmod>
          <changefreq>weekly</changefreq>
          <priority>1.0</priority>
      </url>
      
      <url>
          <loc>https://termgit.elga.gv.at/CodeSystem-elga-ergaenzungsliste.html</loc>
          <lastmod>2025-03-06</lastmod>
          <changefreq>weekly</changefreq>
          <priority>1.0</priority>
      </url>
      
      <url>
          <loc>https://termgit.elga.gv.at/CodeSystem-hl7-role-code.html</loc>
          <lastmod>2025-03-06</lastmod>
          <changefreq>weekly</changefreq>
          <priority>1.0</priority>
      </url>
      
      <url>
          <loc>https://termgit.elga.gv.at/ValueSet-elga-observationinterpretation.html</loc>
          <lastmod>2025-03-06</lastmod>
          <changefreq>weekly</changefreq>
          <priority>1.0</priority>
      </url>
      
      <url>
          <loc>https://termgit.elga.gv.at/ValueSet-ehdsi-healthcare-professional-role.html</loc>
          <lastmod>2025-03-06</lastmod>
          <changefreq>weekly</changefreq>
          <priority>1.0</priority>
      </url>
      
      <url>
          <loc>https://termgit.elga.gv.at/ValueSet-elga-languagecode.html</loc>
          <lastmod>2025-03-06</lastmod>
          <changefreq>weekly</changefreq>
          <priority>1.0</priority>
      </url>
      
      <url>
          <loc>https://termgit.elga.gv.at/ValueSet-elga-authorspeciality.html</loc>
          <lastmod>2025-03-06</lastmod>
          <changefreq>weekly</changefreq>
          <priority>1.0</priority>
      </url>
      
      <url>
          <loc>https://termgit.elga.gv.at/ValueSet-ems-reiseland.html</loc>
          <lastmod>2025-03-06</lastmod>
          <changefreq>weekly</changefreq>
          <priority>1.0</priority>
      </url>
      
      <url>
          <loc>https://termgit.elga.gv.at/ValueSet-elga-significantpathogens.html</loc>
          <lastmod>2025-03-06</lastmod>
          <changefreq>weekly</changefreq>
          <priority>1.0</priority>
      </url>
      
      <url>
          <loc>https://termgit.elga.gv.at/CodeSystem-ihe-pharmaceutical-advice-status-list.html</loc>
          <lastmod>2025-03-06</lastmod>
          <changefreq>weekly</changefreq>
          <priority>1.0</priority>
      </url>
      
      <url>
          <loc>https://termgit.elga.gv.at/StructureDefinition-at-core-valueset.html</loc>
          <lastmod>2025-03-06</lastmod>
          <changefreq>weekly</changefreq>
          <priority>1.0</priority>
      </url>
      
      <url>
          <loc>https://termgit.elga.gv.at/CodeSystem-elga-pflegestufen.html</loc>
          <lastmod>2025-03-06</lastmod>
          <changefreq>weekly</changefreq>
          <priority>1.0</priority>
      </url>
      
      <url>
          <loc>https://termgit.elga.gv.at/CodeSystem-hl7-administrative-sex.html</loc>
          <lastmod>2025-03-06</lastmod>
          <changefreq>weekly</changefreq>
          <priority>1.0</priority>
      </url>
      
      <url>
          <loc>https://termgit.elga.gv.at/CodeSystem-hl7-specimen-type.html</loc>
          <lastmod>2025-03-06</lastmod>
          <changefreq>weekly</changefreq>
          <priority>1.0</priority>
      </url>
      
      <url>
          <loc>https://termgit.elga.gv.at/ValueSet-ehdsi-language.html</loc>
          <lastmod>2025-03-06</lastmod>
          <changefreq>weekly</changefreq>
          <priority>1.0</priority>
      </url>
      
      <url>
          <loc>https://termgit.elga.gv.at/CodeSystem-zuppl-elga-auditeventtype-4-elga-auditeventtype.html</loc>
          <lastmod>2025-03-06</lastmod>
          <changefreq>weekly</changefreq>
          <priority>1.0</priority>
      </url>
      
      <url>
          <loc>https://termgit.elga.gv.at/CodeSystem-oeaek-additivfach.html</loc>
          <lastmod>2025-03-06</lastmod>
          <changefreq>weekly</changefreq>
          <priority>1.0</priority>
      </url>
      
      <url>
          <loc>https://termgit.elga.gv.at/ValueSet-elga-actcode-abginfo.html</loc>
          <lastmod>2025-03-06</lastmod>
          <changefreq>weekly</changefreq>
          <priority>1.0</priority>
      </url>
      
      <url>
          <loc>https://termgit.elga.gv.at/setup_de.html</loc>
          <lastmod>2025-03-06</lastmod>
          <changefreq>weekly</changefreq>
          <priority>1.0</priority>
      </url>
      
      <url>
          <loc>https://termgit.elga.gv.at/StructureDefinition-at-core-ext-valueset-systemoid.html</loc>
          <lastmod>2025-03-06</lastmod>
          <changefreq>weekly</changefreq>
          <priority>1.0</priority>
      </url>
      
      <url>
          <loc>https://termgit.elga.gv.at/CodeSystem-rast-klassen.html</loc>
          <lastmod>2025-03-06</lastmod>
          <changefreq>weekly</changefreq>
          <priority>1.0</priority>
      </url>
      
      <url>
          <loc>https://termgit.elga.gv.at/ValueSet-elga-medientyp.html</loc>
          <lastmod>2025-03-06</lastmod>
          <changefreq>weekly</changefreq>
          <priority>1.0</priority>
      </url>
      
      <url>
          <loc>https://termgit.elga.gv.at/ValueSet-ehdsi-quantity-unit.html</loc>
          <lastmod>2025-03-06</lastmod>
          <changefreq>weekly</changefreq>
          <priority>1.0</priority>
      </url>
      
      <url>
          <loc>https://termgit.elga.gv.at/ValueSet-ehdsi-route-of-administration.html</loc>
          <lastmod>2025-03-06</lastmod>
          <changefreq>weekly</changefreq>
          <priority>1.0</priority>
      </url>
      
      <url>
          <loc>https://termgit.elga.gv.at/CodeSystem-ems-wowurdekrankheiterworben.html</loc>
          <lastmod>2025-03-06</lastmod>
          <changefreq>weekly</changefreq>
          <priority>1.0</priority>
      </url>
      
      <url>
          <loc>https://termgit.elga.gv.at/ConceptMap-elga-lebensmittelallergene-mapping.ttl.html</loc>
          <lastmod>2025-03-06</lastmod>
          <changefreq>weekly</changefreq>
          <priority>1.0</priority>
      </url>
      
      <url>
          <loc>https://termgit.elga.gv.at/CodeSystem-ems-parameter.html</loc>
          <lastmod>2025-03-06</lastmod>
          <changefreq>weekly</changefreq>
          <priority>1.0</priority>
      </url>
      
      <url>
          <loc>https://termgit.elga.gv.at/ValueSet-lkf-diagnose-statauf.html</loc>
          <lastmod>2025-03-06</lastmod>
          <changefreq>weekly</changefreq>
          <priority>1.0</priority>
      </url>
      
      <url>
          <loc>https://termgit.elga.gv.at/ValueSet-elga-formatcodezusatz.html</loc>
          <lastmod>2025-03-06</lastmod>
          <changefreq>weekly</changefreq>
          <priority>1.0</priority>
      </url>
      
      <url>
          <loc>https://termgit.elga.gv.at/CodeSystem-ucum.html</loc>
          <lastmod>2025-03-06</lastmod>
          <changefreq>weekly</changefreq>
          <priority>1.0</priority>
      </url>
      
      <url>
          <loc>https://termgit.elga.gv.at/CodeSystem-iso-3166-alpha-2-code.html</loc>
          <lastmod>2025-03-06</lastmod>
          <changefreq>weekly</changefreq>
          <priority>1.0</priority>
      </url>
      
      <url>
          <loc>https://termgit.elga.gv.at/use_cases_en.html</loc>
          <lastmod>2025-03-06</lastmod>
          <changefreq>weekly</changefreq>
          <priority>1.0</priority>
      </url>
      
      <url>
          <loc>https://termgit.elga.gv.at/CodeSystem-elga-patienten-identifizierungsmethoden.html</loc>
          <lastmod>2025-03-06</lastmod>
          <changefreq>weekly</changefreq>
          <priority>1.0</priority>
      </url>
      
      <url>
          <loc>https://termgit.elga.gv.at/ValueSet-elga-auditparticipantobjecttype.html</loc>
          <lastmod>2025-03-06</lastmod>
          <changefreq>weekly</changefreq>
          <priority>1.0</priority>
      </url>
      
      <url>
          <loc>https://termgit.elga.gv.at/ConceptMap-elga-lebensmittelallergene-mapping.xml.html</loc>
          <lastmod>2025-03-06</lastmod>
          <changefreq>weekly</changefreq>
          <priority>1.0</priority>
      </url>
      
      <url>
          <loc>https://termgit.elga.gv.at/ValueSet-lkf-diagnose-art.html</loc>
          <lastmod>2025-03-06</lastmod>
          <changefreq>weekly</changefreq>
          <priority>1.0</priority>
      </url>
      
      <url>
          <loc>https://termgit.elga.gv.at/CodeSystem-ems-tbc-resultat.html</loc>
          <lastmod>2025-03-06</lastmod>
          <changefreq>weekly</changefreq>
          <priority>1.0</priority>
      </url>
      
      <url>
          <loc>https://termgit.elga.gv.at/StructureDefinition-at-core-ext-valueset-systemoid-mappings.html</loc>
          <lastmod>2025-03-06</lastmod>
          <changefreq>weekly</changefreq>
          <priority>1.0</priority>
      </url>
      
      <url>
          <loc>https://termgit.elga.gv.at/ValueSet-ehdsi-timing-event.html</loc>
          <lastmod>2025-03-06</lastmod>
          <changefreq>weekly</changefreq>
          <priority>1.0</priority>
      </url>
      
      <url>
          <loc>https://termgit.elga.gv.at/CodeSystem-ems-artquartier.html</loc>
          <lastmod>2025-03-06</lastmod>
          <changefreq>weekly</changefreq>
          <priority>1.0</priority>
      </url>
      
      <url>
          <loc>https://termgit.elga.gv.at/CodeSystem-austrian-designation-use.html</loc>
          <lastmod>2025-03-06</lastmod>
          <changefreq>weekly</changefreq>
          <priority>1.0</priority>
      </url>
      
      <url>
          <loc>https://termgit.elga.gv.at/ValueSet-elga-absentorunknownmedication.html</loc>
          <lastmod>2025-03-06</lastmod>
          <changefreq>weekly</changefreq>
          <priority>1.0</priority>
      </url>
      
      <url>
          <loc>https://termgit.elga.gv.at/ValueSet-ehdsi-actsubstanceadministrationcode.html</loc>
          <lastmod>2025-03-06</lastmod>
          <changefreq>weekly</changefreq>
          <priority>1.0</priority>
      </url>
      
      <url>
          <loc>https://termgit.elga.gv.at/support_en.html</loc>
          <lastmod>2025-03-06</lastmod>
          <changefreq>weekly</changefreq>
          <priority>1.0</priority>
      </url>
      
      <url>
          <loc>https://termgit.elga.gv.at/StructureDefinition-at-core-valueset.profile.ttl.html</loc>
          <lastmod>2025-03-06</lastmod>
          <changefreq>weekly</changefreq>
          <priority>1.0</priority>
      </url>
      
      <url>
          <loc>https://termgit.elga.gv.at/CodeSystem-zuppl-elga-formatcode-4-elga-formatcode.html</loc>
          <lastmod>2025-03-06</lastmod>
          <changefreq>weekly</changefreq>
          <priority>1.0</priority>
      </url>
      
      <url>
          <loc>https://termgit.elga.gv.at/use_cases_de.html</loc>
          <lastmod>2025-03-06</lastmod>
          <changefreq>weekly</changefreq>
          <priority>1.0</priority>
      </url>
      
      <url>
          <loc>https://termgit.elga.gv.at/ValueSet-elga-medikationrezeptart.html</loc>
          <lastmod>2025-03-06</lastmod>
          <changefreq>weekly</changefreq>
          <priority>1.0</priority>
      </url>
      
      <url>
          <loc>https://termgit.elga.gv.at/CodeSystem-appc-anatomie.html</loc>
          <lastmod>2025-03-06</lastmod>
          <changefreq>weekly</changefreq>
          <priority>1.0</priority>
      </url>
      
      <url>
          <loc>https://termgit.elga.gv.at/CodeSystem-elga-auditeventid.html</loc>
          <lastmod>2025-03-06</lastmod>
          <changefreq>weekly</changefreq>
          <priority>1.0</priority>
      </url>
      
      <url>
          <loc>https://termgit.elga.gv.at/architecture_en.html</loc>
          <lastmod>2025-03-06</lastmod>
          <changefreq>weekly</changefreq>
          <priority>1.0</priority>
      </url>
      
      <url>
          <loc>https://termgit.elga.gv.at/ConceptMap-snomed-orphanet-mapping.html</loc>
          <lastmod>2025-03-06</lastmod>
          <changefreq>weekly</changefreq>
          <priority>1.0</priority>
      </url>
      
      <url>
          <loc>https://termgit.elga.gv.at/CodeSystem-ems-antigenh.html</loc>
          <lastmod>2025-03-06</lastmod>
          <changefreq>weekly</changefreq>
          <priority>1.0</priority>
      </url>
      
      <url>
          <loc>https://termgit.elga.gv.at/ConceptMap-snomed-orphanet-mapping.xml.html</loc>
          <lastmod>2025-03-06</lastmod>
          <changefreq>weekly</changefreq>
          <priority>1.0</priority>
      </url>
      
      <url>
          <loc>https://termgit.elga.gv.at/ValueSet-elga-entitynamepartqualifier.html</loc>
          <lastmod>2025-03-06</lastmod>
          <changefreq>weekly</changefreq>
          <priority>1.0</priority>
      </url>
      
      <url>
          <loc>https://termgit.elga.gv.at/CodeSystem-icd-10-bmg-2020.html</loc>
          <lastmod>2025-03-06</lastmod>
          <changefreq>weekly</changefreq>
          <priority>1.0</priority>
      </url>
      
      <url>
          <loc>https://termgit.elga.gv.at/ValueSet-hl7-at-organizationtype.html</loc>
          <lastmod>2025-03-06</lastmod>
          <changefreq>weekly</changefreq>
          <priority>1.0</priority>
      </url>
      
      <url>
          <loc>https://termgit.elga.gv.at/ValueSet-elga-roleclass.html</loc>
          <lastmod>2025-03-06</lastmod>
          <changefreq>weekly</changefreq>
          <priority>1.0</priority>
      </url>
      
      <url>
          <loc>https://termgit.elga.gv.at/StructureDefinition-at-core-valueset-definitions.html</loc>
          <lastmod>2025-03-06</lastmod>
          <changefreq>weekly</changefreq>
          <priority>1.0</priority>
      </url>
      
      <url>
          <loc>https://termgit.elga.gv.at/CodeSystem-zuppl-snomed-ct-auszug-4-elga-mikroorganismen.html</loc>
          <lastmod>2025-03-06</lastmod>
          <changefreq>weekly</changefreq>
          <priority>1.0</priority>
      </url>
      
      <url>
          <loc>https://termgit.elga.gv.at/CodeSystem-geschlechtercodes-iso-iec-5218.html</loc>
          <lastmod>2025-03-06</lastmod>
          <changefreq>weekly</changefreq>
          <priority>1.0</priority>
      </url>
      
      <url>
          <loc>https://termgit.elga.gv.at/CodeSystem-zuppl-dgc-ratnamemanufacturer-4-dgc-ratnamemanufacturer.html</loc>
          <lastmod>2025-03-06</lastmod>
          <changefreq>weekly</changefreq>
          <priority>1.0</priority>
      </url>
      
      <url>
          <loc>https://termgit.elga.gv.at/CodeSystem-ems-verotoxin-2-subtyp.html</loc>
          <lastmod>2025-03-06</lastmod>
          <changefreq>weekly</changefreq>
          <priority>1.0</priority>
      </url>
      
      <url>
          <loc>https://termgit.elga.gv.at/ValueSet-eimpf-mengenart.html</loc>
          <lastmod>2025-03-06</lastmod>
          <changefreq>weekly</changefreq>
          <priority>1.0</priority>
      </url>
      
      <url>
          <loc>https://termgit.elga.gv.at/ValueSet-elga-medicaldevices.html</loc>
          <lastmod>2025-03-06</lastmod>
          <changefreq>weekly</changefreq>
          <priority>1.0</priority>
      </url>
      
      <url>
          <loc>https://termgit.elga.gv.at/ValueSet-elga-practicesetting.html</loc>
          <lastmod>2025-03-06</lastmod>
          <changefreq>weekly</changefreq>
          <priority>1.0</priority>
      </url>
      
      <url>
          <loc>https://termgit.elga.gv.at/support_de.html</loc>
          <lastmod>2025-03-06</lastmod>
          <changefreq>weekly</changefreq>
          <priority>1.0</priority>
      </url>
      
      <url>
          <loc>https://termgit.elga.gv.at/index.html</loc>
          <lastmod>2025-03-06</lastmod>
          <changefreq>weekly</changefreq>
          <priority>1.0</priority>
      </url>
      
      <url>
          <loc>https://termgit.elga.gv.at/CodeSystem-ems-phagentyp.html</loc>
          <lastmod>2025-03-06</lastmod>
          <changefreq>weekly</changefreq>
          <priority>1.0</priority>
      </url>
      
      <url>
          <loc>https://termgit.elga.gv.at/CodeSystem-lkf-ergaenzung.html</loc>
          <lastmod>2025-03-06</lastmod>
          <changefreq>weekly</changefreq>
          <priority>1.0</priority>
      </url>
      
      <url>
          <loc>https://termgit.elga.gv.at/ValueSet-ems-anti-hcv-immunoblot-assay.html</loc>
          <lastmod>2025-03-06</lastmod>
          <changefreq>weekly</changefreq>
          <priority>1.0</priority>
      </url>
      
      <url>
          <loc>https://termgit.elga.gv.at/ValueSet-ems-hbv-status.html</loc>
          <lastmod>2025-03-06</lastmod>
          <changefreq>weekly</changefreq>
          <priority>1.0</priority>
      </url>
      
      <url>
          <loc>https://termgit.elga.gv.at/ConceptMap-snomed-orphanet-mapping.ttl.html</loc>
          <lastmod>2025-03-06</lastmod>
          <changefreq>weekly</changefreq>
          <priority>1.0</priority>
      </url>
      
      <url>
          <loc>https://termgit.elga.gv.at/ValueSet-appc-lateralitaet.html</loc>
          <lastmod>2025-03-06</lastmod>
          <changefreq>weekly</changefreq>
          <priority>1.0</priority>
      </url>
      
      <url>
          <loc>https://termgit.elga.gv.at/CodeSystem-ems-ergebnis.html</loc>
          <lastmod>2025-03-06</lastmod>
          <changefreq>weekly</changefreq>
          <priority>1.0</priority>
      </url>
      
      <url>
          <loc>https://termgit.elga.gv.at/ig_analysis.html</loc>
          <lastmod>2025-03-06</lastmod>
          <changefreq>weekly</changefreq>
          <priority>1.0</priority>
      </url>
      
      <url>
          <loc>https://termgit.elga.gv.at/CodeSystem-ems-analysedetails.html</loc>
          <lastmod>2025-03-06</lastmod>
          <changefreq>weekly</changefreq>
          <priority>1.0</priority>
      </url>
      
      <url>
          <loc>https://termgit.elga.gv.at/ValueSet-elga-languageabilitymode.html</loc>
          <lastmod>2025-03-06</lastmod>
          <changefreq>weekly</changefreq>
          <priority>1.0</priority>
      </url>
      
      <url>
          <loc>https://termgit.elga.gv.at/ValueSet-elga-laendercodes.html</loc>
          <lastmod>2025-03-06</lastmod>
          <changefreq>weekly</changefreq>
          <priority>1.0</priority>
      </url>
      
      <url>
          <loc>https://termgit.elga.gv.at/ValueSet-dgc-country.html</loc>
          <lastmod>2025-03-06</lastmod>
          <changefreq>weekly</changefreq>
          <priority>1.0</priority>
      </url>
      
      <url>
          <loc>https://termgit.elga.gv.at/CodeSystem-elga-fachaerzte.html</loc>
          <lastmod>2025-03-06</lastmod>
          <changefreq>weekly</changefreq>
          <priority>1.0</priority>
      </url>
      
      <url>
          <loc>https://termgit.elga.gv.at/CodeSystem-hl7-timing-event.html</loc>
          <lastmod>2025-03-06</lastmod>
          <changefreq>weekly</changefreq>
          <priority>1.0</priority>
      </url>
      
      <url>
          <loc>https://termgit.elga.gv.at/ValueSet-elga-sectionsentlassungpflege.html</loc>
          <lastmod>2025-03-06</lastmod>
          <changefreq>weekly</changefreq>
          <priority>1.0</priority>
      </url>
      
      <url>
          <loc>https://termgit.elga.gv.at/ValueSet-elga-targetsite.html</loc>
          <lastmod>2025-03-06</lastmod>
          <changefreq>weekly</changefreq>
          <priority>1.0</priority>
      </url>
      
      <url>
          <loc>https://termgit.elga.gv.at/CodeSystem-elga-e-health-anwendungen.html</loc>
          <lastmod>2025-03-06</lastmod>
          <changefreq>weekly</changefreq>
          <priority>1.0</priority>
      </url>
      
      <url>
          <loc>https://termgit.elga.gv.at/StructureDefinition-at-core-valueset.profile.history.html</loc>
          <lastmod>2025-03-06</lastmod>
          <changefreq>weekly</changefreq>
          <priority>1.0</priority>
      </url>
      
      <url>
          <loc>https://termgit.elga.gv.at/CodeSystem-hl7-at-maritalstatus-ergaenzung.html</loc>
          <lastmod>2025-03-06</lastmod>
          <changefreq>weekly</changefreq>
          <priority>1.0</priority>
      </url>
      
      <url>
          <loc>https://termgit.elga.gv.at/ValueSet-elga-seitenlokalisation.html</loc>
          <lastmod>2025-03-06</lastmod>
          <changefreq>weekly</changefreq>
          <priority>1.0</priority>
      </url>
      
      <url>
          <loc>https://termgit.elga.gv.at/CodeSystem-hl7-actstatus.html</loc>
          <lastmod>2025-03-06</lastmod>
          <changefreq>weekly</changefreq>
          <priority>1.0</priority>
      </url>
      
      <url>
          <loc>https://termgit.elga.gv.at/CodeSystem-ems-biotyp-biovar.html</loc>
          <lastmod>2025-03-06</lastmod>
          <changefreq>weekly</changefreq>
          <priority>1.0</priority>
      </url>
      
      <url>
          <loc>https://termgit.elga.gv.at/ValueSet-elga-insuredassocentity.html</loc>
          <lastmod>2025-03-06</lastmod>
          <changefreq>weekly</changefreq>
          <priority>1.0</priority>
      </url>
      
      <url>
          <loc>https://termgit.elga.gv.at/StructureDefinition-at-core-ext-valueset-systemoid.profile.history.html</loc>
          <lastmod>2025-03-06</lastmod>
          <changefreq>weekly</changefreq>
          <priority>1.0</priority>
      </url>
      
      <url>
          <loc>https://termgit.elga.gv.at/CodeSystem-ems-genotyppora-r1.html</loc>
          <lastmod>2025-03-06</lastmod>
          <changefreq>weekly</changefreq>
          <priority>1.0</priority>
      </url>
      
      <url>
          <loc>https://termgit.elga.gv.at/ValueSet-elga-expecteddeliverydatemethod.html</loc>
          <lastmod>2025-03-06</lastmod>
          <changefreq>weekly</changefreq>
          <priority>1.0</priority>
      </url>
      
      <url>
          <loc>https://termgit.elga.gv.at/CodeSystem-ems-befundart.html</loc>
          <lastmod>2025-03-06</lastmod>
          <changefreq>weekly</changefreq>
          <priority>1.0</priority>
      </url>
      
      <url>
          <loc>https://termgit.elga.gv.at/CodeSystem-ems-materialmethode.html</loc>
          <lastmod>2025-03-06</lastmod>
          <changefreq>weekly</changefreq>
          <priority>1.0</priority>
      </url>
      
      <url>
          <loc>https://termgit.elga.gv.at/CodeSystem-exnds-metadaten.html</loc>
          <lastmod>2025-03-06</lastmod>
          <changefreq>weekly</changefreq>
          <priority>1.0</priority>
      </url>
      
      <url>
          <loc>https://termgit.elga.gv.at/ValueSet-rads-diagnosticimagingscales.html</loc>
          <lastmod>2025-03-06</lastmod>
          <changefreq>weekly</changefreq>
          <priority>1.0</priority>
      </url>
      
      <url>
          <loc>https://termgit.elga.gv.at/ValueSet-elga-sectionspflegesitber.html</loc>
          <lastmod>2025-03-06</lastmod>
          <changefreq>weekly</changefreq>
          <priority>1.0</priority>
      </url>
      
      <url>
          <loc>https://termgit.elga.gv.at/CodeSystem-isco.html</loc>
          <lastmod>2025-03-06</lastmod>
          <changefreq>weekly</changefreq>
          <priority>1.0</priority>
      </url>
      
      <url>
          <loc>https://termgit.elga.gv.at/CodeSystem-ems-yersinapathogen.html</loc>
          <lastmod>2025-03-06</lastmod>
          <changefreq>weekly</changefreq>
          <priority>1.0</priority>
      </url>
      
      <url>
          <loc>https://termgit.elga.gv.at/CodeSystem-medikationactiveingredient.html</loc>
          <lastmod>2025-03-06</lastmod>
          <changefreq>weekly</changefreq>
          <priority>1.0</priority>
      </url>
      
      <url>
          <loc>https://termgit.elga.gv.at/ValueSet-orphanet-rare-diseases.html</loc>
          <lastmod>2025-03-06</lastmod>
          <changefreq>weekly</changefreq>
          <priority>1.0</priority>
      </url>
      
      <url>
          <loc>https://termgit.elga.gv.at/CodeSystem-elga-significantpathogens.html</loc>
          <lastmod>2025-03-06</lastmod>
          <changefreq>weekly</changefreq>
          <priority>1.0</priority>
      </url>
      
      <url>
          <loc>https://termgit.elga.gv.at/ValueSet-ems-krankheitsmerkmale.html</loc>
          <lastmod>2025-03-06</lastmod>
          <changefreq>weekly</changefreq>
          <priority>1.0</priority>
      </url>
      
      <url>
          <loc>https://termgit.elga.gv.at/ValueSet-austrian-designation-use.html</loc>
          <lastmod>2025-03-06</lastmod>
          <changefreq>weekly</changefreq>
          <priority>1.0</priority>
      </url>
      
      <url>
          <loc>https://termgit.elga.gv.at/ValueSet-elga-procedureapproachsite.html</loc>
          <lastmod>2025-03-06</lastmod>
          <changefreq>weekly</changefreq>
          <priority>1.0</priority>
      </url>
      
      <url>
          <loc>https://termgit.elga.gv.at/setup_en.html</loc>
          <lastmod>2025-03-06</lastmod>
          <changefreq>weekly</changefreq>
          <priority>1.0</priority>
      </url>
      
      <url>
          <loc>https://termgit.elga.gv.at/CodeSystem-zuppl-eimpf-impfstoffe-4-dgc-vaccinemarketingauthori.html</loc>
          <lastmod>2025-03-06</lastmod>
          <changefreq>weekly</changefreq>
          <priority>1.0</priority>
      </url>
      
      <url>
          <loc>https://termgit.elga.gv.at/toc.html</loc>
          <lastmod>2025-03-06</lastmod>
          <changefreq>weekly</changefreq>
          <priority>1.0</priority>
      </url>
      
      <url>
          <loc>https://termgit.elga.gv.at/ValueSet-elga-religiousaffiliation.html</loc>
          <lastmod>2025-03-06</lastmod>
          <changefreq>weekly</changefreq>
          <priority>1.0</priority>
      </url>
      
      <url>
          <loc>https://termgit.elga.gv.at/CodeSystem-ips-conditionverificationstatus.html</loc>
          <lastmod>2025-03-06</lastmod>
          <changefreq>weekly</changefreq>
          <priority>1.0</priority>
      </url>
      
      <url>
          <loc>https://termgit.elga.gv.at/CodeSystem-hl7-role-class.html</loc>
          <lastmod>2025-03-06</lastmod>
          <changefreq>weekly</changefreq>
          <priority>1.0</priority>
      </url>
      
      <url>
          <loc>https://termgit.elga.gv.at/ValueSet-elga-absentorunknownallergies.html</loc>
          <lastmod>2025-03-06</lastmod>
          <changefreq>weekly</changefreq>
          <priority>1.0</priority>
      </url>
      
      <url>
          <loc>https://termgit.elga.gv.at/CodeSystem-elga-lebensmittelallergene.html</loc>
          <lastmod>2025-03-06</lastmod>
          <changefreq>weekly</changefreq>
          <priority>1.0</priority>
      </url>
      
      <url>
          <loc>https://termgit.elga.gv.at/ValueSet-hl7-at-actconsenttype.html</loc>
          <lastmod>2025-03-06</lastmod>
          <changefreq>weekly</changefreq>
          <priority>1.0</priority>
      </url>
      
      <url>
          <loc>https://termgit.elga.gv.at/ValueSet-dgc-ratnamemanufacturer.html</loc>
          <lastmod>2025-03-06</lastmod>
          <changefreq>weekly</changefreq>
          <priority>1.0</priority>
      </url>
      
      <url>
          <loc>https://termgit.elga.gv.at/CodeSystem-ems-genogruppe.html</loc>
          <lastmod>2025-03-06</lastmod>
          <changefreq>weekly</changefreq>
          <priority>1.0</priority>
      </url>
      
      <url>
          <loc>https://termgit.elga.gv.at/CodeSystem-gda-attribute.html</loc>
          <lastmod>2025-03-06</lastmod>
          <changefreq>weekly</changefreq>
          <priority>1.0</priority>
      </url>
      
      <url>
          <loc>https://termgit.elga.gv.at/CodeSystem-hl7-participation-function.html</loc>
          <lastmod>2025-03-06</lastmod>
          <changefreq>weekly</changefreq>
          <priority>1.0</priority>
      </url>
      
      <url>
          <loc>https://termgit.elga.gv.at/quickstart_en.html</loc>
          <lastmod>2025-03-06</lastmod>
          <changefreq>weekly</changefreq>
          <priority>1.0</priority>
      </url>
      
      <url>
          <loc>https://termgit.elga.gv.at/ValueSet-elga-medikationmengenart.html</loc>
          <lastmod>2025-03-06</lastmod>
          <changefreq>weekly</changefreq>
          <priority>1.0</priority>
      </url>
      
      <url>
          <loc>https://termgit.elga.gv.at/CodeSystem-exnds-formatcodes.html</loc>
          <lastmod>2025-03-06</lastmod>
          <changefreq>weekly</changefreq>
          <priority>1.0</priority>
      </url>
      
      <url>
          <loc>https://termgit.elga.gv.at/ValueSet-elga-auditparticipantobjecttyperole.html</loc>
          <lastmod>2025-03-06</lastmod>
          <changefreq>weekly</changefreq>
          <priority>1.0</priority>
      </url>
      
      <url>
          <loc>https://termgit.elga.gv.at/CodeSystem-icd-10-bmg-2017.html</loc>
          <lastmod>2025-03-06</lastmod>
          <changefreq>weekly</changefreq>
          <priority>1.0</priority>
      </url>
      
      <url>
          <loc>https://termgit.elga.gv.at/ValueSet-elga-einnahmezeitpunkte.html</loc>
          <lastmod>2025-03-06</lastmod>
          <changefreq>weekly</changefreq>
          <priority>1.0</priority>
      </url>
      
      <url>
          <loc>https://termgit.elga.gv.at/CodeSystem-ems-phagentyp-vtec.html</loc>
          <lastmod>2025-03-06</lastmod>
          <changefreq>weekly</changefreq>
          <priority>1.0</priority>
      </url>
      
      <url>
          <loc>https://termgit.elga.gv.at/ValueSet-ehdsi-package.html</loc>
          <lastmod>2025-03-06</lastmod>
          <changefreq>weekly</changefreq>
          <priority>1.0</priority>
      </url>
      
      <url>
          <loc>https://termgit.elga.gv.at/ConceptMap-snomed-orphanet-mapping.json.html</loc>
          <lastmod>2025-03-06</lastmod>
          <changefreq>weekly</changefreq>
          <priority>1.0</priority>
      </url>
      
      <url>
          <loc>https://termgit.elga.gv.at/ValueSet-elga-sectionsentlassungaerztl.html</loc>
          <lastmod>2025-03-06</lastmod>
          <changefreq>weekly</changefreq>
          <priority>1.0</priority>
      </url>
      
      <url>
          <loc>https://termgit.elga.gv.at/CodeSystem-hl7-act-code.html</loc>
          <lastmod>2025-03-06</lastmod>
          <changefreq>weekly</changefreq>
          <priority>1.0</priority>
      </url>
      
      <url>
          <loc>https://termgit.elga.gv.at/CodeSystem-medikationpackaging.html</loc>
          <lastmod>2025-03-06</lastmod>
          <changefreq>weekly</changefreq>
          <priority>1.0</priority>
      </url>
      
      <url>
          <loc>https://termgit.elga.gv.at/CodeSystem-ems-orth20probe.html</loc>
          <lastmod>2025-03-06</lastmod>
          <changefreq>weekly</changefreq>
          <priority>1.0</priority>
      </url>
      
      <url>
          <loc>https://termgit.elga.gv.at/ValueSet-elga-problemstatuscode.html</loc>
          <lastmod>2025-03-06</lastmod>
          <changefreq>weekly</changefreq>
          <priority>1.0</priority>
      </url>
      
      <url>
          <loc>https://termgit.elga.gv.at/CodeSystem-iso-3166-1-alpha-3.html</loc>
          <lastmod>2025-03-06</lastmod>
          <changefreq>weekly</changefreq>
          <priority>1.0</priority>
      </url>
      
      <url>
          <loc>https://termgit.elga.gv.at/CodeSystem-ems-genotyp.html</loc>
          <lastmod>2025-03-06</lastmod>
          <changefreq>weekly</changefreq>
          <priority>1.0</priority>
      </url>
      
      <url>
          <loc>https://termgit.elga.gv.at/ValueSet-elga-laborstruktur.html</loc>
          <lastmod>2025-03-06</lastmod>
          <changefreq>weekly</changefreq>
          <priority>1.0</priority>
      </url>
      
      <url>
          <loc>https://termgit.elga.gv.at/CodeSystem-ems-organ.html</loc>
          <lastmod>2025-03-06</lastmod>
          <changefreq>weekly</changefreq>
          <priority>1.0</priority>
      </url>
      
      <url>
          <loc>https://termgit.elga.gv.at/StructureDefinition-at-core-ext-valueset-systemoid.profile.json.html</loc>
          <lastmod>2025-03-06</lastmod>
          <changefreq>weekly</changefreq>
          <priority>1.0</priority>
      </url>
      
      <url>
          <loc>https://termgit.elga.gv.at/CodeSystem-hl7-entity-name-part-qualifier.html</loc>
          <lastmod>2025-03-06</lastmod>
          <changefreq>weekly</changefreq>
          <priority>1.0</priority>
      </url>
      
      <url>
          <loc>https://termgit.elga.gv.at/CodeSystem-dcm.html</loc>
          <lastmod>2025-03-06</lastmod>
          <changefreq>weekly</changefreq>
          <priority>1.0</priority>
      </url>
      
      <url>
          <loc>https://termgit.elga.gv.at/ValueSet-elga-medikationtherapieart.html</loc>
          <lastmod>2025-03-06</lastmod>
          <changefreq>weekly</changefreq>
          <priority>1.0</priority>
      </url>
      
      <url>
          <loc>https://termgit.elga.gv.at/CodeSystem-hl7-marital-status.html</loc>
          <lastmod>2025-03-06</lastmod>
          <changefreq>weekly</changefreq>
          <priority>1.0</priority>
      </url>
      
  </urlset>