URL,Version,Status,OIDs,Name,Title,Descriptino,Uses,Used,Sources
http://terminology.hl7.org/ValueSet/v3-EntityCode,2.0.0,active,"2.16.840.1.113883.1.11.16040",EntityCode,EntityCode,"A value representing the specific kind of Entity the instance represents.    *Examples:* A medical building, a Doberman Pinscher, a blood collection tube, a tissue biopsy.    *Rationale:* For each Entity, the value for this attribute is drawn from one of several coding systems depending on the Entity classCode, such as living subjects (animal and plant taxonomies), chemical substance (e.g., IUPAC code), organizations, insurance company, government agency, hospital, park, lake, syringe, etc. It is possible that Entity.code may be so fine grained that it represents a single instance. An example is the CDC vaccine manufacturer code, modeled as a concept vocabulary, when in fact each concept refers to a single instance.",,
http://terminology.hl7.org/ValueSet/v3-MaterialEntityClassType,3.0.0,active,"2.16.840.1.113883.1.11.16041",MaterialEntityClassType,MaterialEntityClassType,"Types of Material for EntityClass ""MAT""","ValueSet/v3-EntityCode","THO (V3)"
http://terminology.hl7.org/ValueSet/v3-OrganizationEntityType,3.0.0,active,"2.16.840.1.113883.1.11.19608",OrganizationEntityType,OrganizationEntityType,"Further classifies entities of classCode ORG.","ValueSet/v3-EntityCode","THO (V3)"
http://terminology.hl7.org/ValueSet/v3-ParticipationType,2.0.0,active,"2.16.840.1.113883.1.11.10901",ParticipationType,ParticipationType,"A code specifying the meaning and purpose of every Participation instance. Each of its values implies specific constraints on the Roles undertaking the participation.",,"THO (V3)"
http://terminology.hl7.org/ValueSet/v3-PlaceEntityType,3.0.0,active,"2.16.840.1.113883.1.11.16100",PlaceEntityType,PlaceEntityType,"Types of places for EntityClass ""PLC""","ValueSet/v3-EntityCode","THO (V3)"
http://terminology.hl7.org/ValueSet/v3-ResourceGroupEntityType,3.0.0,active,"2.16.840.1.113883.1.11.19652",ResourceGroupEntityType,ResourceGroupEntityType,"Codes to characterize a Resource Group using categories that typify its membership and/or function    .    *Example:* PractitionerGroup","ValueSet/v3-EntityCode","THO (V3)"
http://terminology.hl7.org/ValueSet/v3-RouteByMethod,3.0.0,active,"2.16.840.1.113883.1.11.16931",RouteByMethod,RouteByMethod,"Route of substance administration classified by administration method.","ValueSet/v3-RouteOfAdministration","THO (V3)"
http://terminology.hl7.org/ValueSet/v3-RouteBySite,3.0.0,active,"2.16.840.1.113883.1.11.17021",RouteBySite,RouteBySite,"Route of substance administration classified by site.","ValueSet/v3-RouteOfAdministration","THO (V3)"
http://terminology.hl7.org/ValueSet/v3-RouteOfAdministration,2.0.0,active,"2.16.840.1.113883.1.11.14581",RouteOfAdministration,RouteOfAdministration,"The path the administered medication takes to get into the body or into contact with the body.",,"THO (V3)"
http://terminology.hl7.org/ValueSet/v3-TargetAwareness,2.0.0,active,"2.16.840.1.113883.1.11.10310",TargetAwareness,TargetAwareness,"A code specifying the extent to which the Entity playing the participating Role (usually as a target Participation) is aware of the associated Act.    *Examples:* For diagnostic observations, is the patient, family member or other participant aware of his terminal illness?    *Discussion:* If the awareness, denial, unconsciousness, etc. is the subject of medical considerations (e.g., part of the problem list), one should use explicit observations in these matters as well, and should not solely rely on this simple attribute in the Participation.",,"THO (V3)"
http://terminology.hl7.org/ValueSet/v3-xAdministeredSubstance,3.0.0,active,"2.16.840.1.113883.1.11.19667",XAdministeredSubstance,x_AdministeredSubstance,"A type of Manufactured Material that is administered to a living subject, either by a healthcare professional or auto-administered, within a healthcare context.","ValueSet/v3-EntityCode","THO (V3)"
https://termgit.elga.gv.at/ValueSet/appc-anatomie,1.2.0+20240820,active,"1.2.40.0.34.10.65",appc-anatomie,APPC_Anatomie,"**Description:** Value Set for all APPC-Codes for 4th Axis 'Anatomy'  **Beschreibung:** Value Set aller Codes der 4. APPC-Achse 'Anatomie'",,"Internal"
https://termgit.elga.gv.at/ValueSet/appc-lateralitaet,1.2.0+20240820,active,"1.2.40.0.34.10.63",appc-lateralitaet,APPC_Lateralitaet,"**Description:** Value Set for all APPC-Codes for 2nd Axis 'Laterality'  **Beschreibung:** Value Set aller Codes der 2. APPC-Achse 'Lateralität'",,"Internal"
https://termgit.elga.gv.at/ValueSet/appc-modalitaet,1.2.0+20240820,active,"1.2.40.0.34.10.62",appc-modalitaet,APPC_Modalitaet,"**Description:** Value Set for all APPC-Codes for 1st Axis 'Modality'  **Beschreibung:** Value Set aller Codes der 1. APPC-Achse 'Modalität'",,"Internal"
https://termgit.elga.gv.at/ValueSet/appc-prozeduren,1.2.0+20240820,active,"1.2.40.0.34.10.64",appc-prozeduren,APPC_Prozeduren,"**Description:** Value Set for all APPC-Codes for 3rd Axis 'Procedures'  **Beschreibung:** Value Set aller Codes der 3. APPC-Achse 'Prozeduren'",,"Internal"
https://termgit.elga.gv.at/ValueSet/austrian-designation-use,2.2.0+20240402,active,"1.2.40.0.34.6.0.10.76",austrian-designation-use,Austrian Designation Use,"Mögliche Designations für den österreichischen eHealth-Bereich",,"Internal"
https://termgit.elga.gv.at/ValueSet/dgc-country,1.0.0+20230131,retired,"1.2.40.0.34.6.0.10.63",dgc-country,DGC_Country,"",,"Internal"
https://termgit.elga.gv.at/ValueSet/dgc-ratnamemanufacturer,2.4.0+20230523,retired,"1.2.40.0.34.6.0.10.65",dgc-ratnamemanufacturer,DGC_RATNameManufacturer,"In der Liste sind ausschließlich RAT enthalten.",,"Internal"
https://termgit.elga.gv.at/ValueSet/dgc-typeoftest,1.0.0+20230131,retired,"1.2.40.0.34.6.0.10.54",dgc-typeoftest,DGC_TypeofTest,"To be used in certificate 2",,"LOINC"
https://termgit.elga.gv.at/ValueSet/dicom-sopclasses,2.1.0+20240325,active,"1.2.40.0.34.10.158",dicom-sopclasses,DICOM_SOPClasses,"**Description:** Value Set for DICOM Standard SOP Classes  **Beschreibung:** Value Set für DICOM Standard SOP Classes",,"Internal"
https://termgit.elga.gv.at/ValueSet/ehdsi-activeingredient,1.2.0+20241023,active,"1.3.6.1.4.1.12559.11.10.1.3.1.42.24",ehdsi-activeingredient,eHDSI_ActiveIngredient,"**Description:** The Value Set is used as a mandatory code for the Active Ingredient of medications in the Medications Summary as well as the prescription Sections. Also used to code allergy agents in the Allergies and Other Adverse Reactions Section of the patient Summary.  This version of the Valueset is based on the MVC 7.2.0.",,"Internal"
https://termgit.elga.gv.at/ValueSet/ehdsi-actsubstanceadministrationcode,1.2.0+20240820,active,"2.16.840.1.113883.1.11.19708",ehdsi-actsubstanceadministrationcode,eHDSI_ActSubstanceAdministrationCode,"**Description:** Describes the type of substance administration being performed.",,"THO (V3)"
https://termgit.elga.gv.at/ValueSet/ehdsi-administrative-gender,1.2.0+20240820,active,"1.3.6.1.4.1.12559.11.10.1.3.1.42.34",ehdsi-administrative-gender,eHDSI-Administrative-Gender,"**Description:** The gender of a person used for adminstrative purposes (as opposed to clinical gender)",,"THO (V3)"
https://termgit.elga.gv.at/ValueSet/ehdsi-confidentiality,1.1.0+20240325,active,"1.3.6.1.4.1.12559.11.10.1.3.1.42.31",ehdsi-confidentiality,EHDSI_Confidentiality,"",,"THO (V3)"
https://termgit.elga.gv.at/ValueSet/ehdsi-country,1.1.0+20240325,active,"1.3.6.1.4.1.12559.11.10.1.3.1.42.4",ehdsi-country,eHDSI-Country,"**Description:** The Value Set is used to identify the nationality of all persons and organizations.",,"Internal"
https://termgit.elga.gv.at/ValueSet/ehdsi-doseform,1.3.0+20241023,active,"1.3.6.1.4.1.12559.11.10.1.3.1.42.2",ehdsi-doseform,eHDSI-DoseForm,"**Description:** The data is from the EDQM Standard Terms database (http://standardterms.edqm.eu), and that it is reproduced with the permission of the European Directorate for the Quality of Medicines & HealthCare, Council of Europe (EDQM).  This Version of the Valueset is based on the MVC 7.2.0.",,"Internal"
https://termgit.elga.gv.at/ValueSet/ehdsi-healthcare-professional-role,2.1.0+20240325,active,"1.3.6.1.4.1.12559.11.10.1.3.1.42.1",ehdsi-healthcare-professional-role,eHDSI-HealthcareProfessionalRole,"",,"Internal"
https://termgit.elga.gv.at/ValueSet/ehdsi-language,1.0.0+20230505,active,"1.3.6.1.4.1.12559.11.10.1.3.1.42.6",ehdsi-language,EHDSI_Language,"**Description:** The Value Set is used to identify the language the document will be written with, as well as the patient's preferred language.",,"Internal"
https://termgit.elga.gv.at/ValueSet/ehdsi-package,1.2.0+20241023,active,"1.3.6.1.4.1.12559.11.10.1.3.1.42.3",ehdsi-package,eHDSI-Package,"**Description:** The data is from the EDQM Standard Terms database (http://standardterms.edqm.eu), and that it is reproduced with the permission of the European Directorate for the Quality of Medicines & HealthCare, Council of Europe (EDQM).  This version of the Valueset is based on the MVC 7.2.0.",,"Internal"
https://termgit.elga.gv.at/ValueSet/ehdsi-quantity-unit,1.1.0+20240325,active,"1.3.6.1.4.1.12559.11.10.1.3.1.42.56",ehdsi-quantity-unit,eHDSI-Quantity-Unit,"**Description:** The Value Set is used to describe the discrete countible entity in which a pharmaceutical product or manufactured item is presented.  The data is from the EDQM Standard Terms database (http://standardterms.edqm.eu), and that it is reproduced with the permission of the European Directorate for the Quality of Medicines & HealthCare, Council of Europe (EDQM).",,"Internal"
https://termgit.elga.gv.at/ValueSet/ehdsi-route-of-administration,1.2.0+20241023,active,"1.3.6.1.4.1.12559.11.10.1.3.1.42.12",ehdsi-route-of-administration,eHDSI-Route-of-Administration,"**Description:** The data is from the EDQM Standard Terms database (http://standardterms.edqm.eu), and that it is reproduced with the permission of the European Directorate for the Quality of Medicines & HealthCare, Council of Europe (EDQM).  This version of the Valueset is based on the MVC 7.2.0.",,"Internal"
https://termgit.elga.gv.at/ValueSet/ehdsi-telecom-address,1.1.0+20240325,active,"1.3.6.1.4.1.12559.11.10.1.3.1.42.40",ehdsi-telecom-address,eHDSI-Telecom-Address,"**Description:** The Value Set is used (optionally) to code the usage of a phone number, email and all telecommunications. Can be used for all phone numbers mentioned in the three CDA-documents.",,"THO (V3)"
https://termgit.elga.gv.at/ValueSet/ehdsi-timing-event,1.1.0+20240325,active,"1.3.6.1.4.1.12559.11.10.1.3.1.42.41",ehdsi-timing-event,eHDSI-Timing-Event,"",,"THO (V3),hl7.fhir.r4b.core"
https://termgit.elga.gv.at/ValueSet/ehdsi-unit,2.0.0+20240903,active,"1.3.6.1.4.1.12559.11.10.1.3.1.42.16",ehdsi-unit,eHDSI-Unit,"",,"UCUM"
https://termgit.elga.gv.at/ValueSet/eimpf-historischeimpfstoffe,2.2.0+20240325,active,"1.2.40.0.34.6.0.10.10",eimpf-historischeimpfstoffe,eImpf_HistorischeImpfstoffe,"Liste der historischen Impfstoffe",,"Internal"
https://termgit.elga.gv.at/ValueSet/eimpf-impfrollen,1.1.0+20240325,active,"1.2.40.0.34.6.0.10.11",eimpf-impfrollen,eImpf_Impfrollen,"**Description:** Professional groups from the Health Telematics Regulation that carry out vaccinations.  **Beschreibung:** Berufsgruppen aus Gesundheitstelematikverordnung, die Impfungen durchführen.",,"Internal"
https://termgit.elga.gv.at/ValueSet/eimpf-medikationartanwendung,1.2.0+20250130,active,"1.2.40.0.34.6.0.10.96",eimpf-medikationartanwendung,eImpf_MedikationArtAnwendung,"**Beschreibung:** Value-Set für die optionale Angabe im e-Impfpass, auf welche Art ein Impfstoff angewendet wurde (""routeCode""). Enthält durch SNOMED International urheberrechtlich geschützte Information. Jede Verwendung von SNOMED CT in Österreich erfordert eine aufrechte Affiliate Lizenz oder eine Sublizenz. Die entsprechende Lizenz ist kostenlos, vorausgesetzt die Verwendung findet nur in Österreich statt und erfüllt die Bedingungen des Affiliate License Agreements. Affiliate Lizenzen können über das [Mitglieder-Lizenzierungs- und Distributions-Service](https://mlds.ihtsdotools.org/#/landing/AT?lang=de) (MLDS) beantragt werden.  **Description:** Value set for the optional entry of the route of administration of a vaccine in the ""e-Impfpass"". Contains information protected by copyright of SNOMED International. Any use of SNOMED CT in Austria requires a valid affiliate license or sublicense. The corresponding license is free of charge, provided that the use only takes place in Austria and fulfills the conditions of the Affiliate License Agreement. Affiliate licenses can be requested directly via the [Member Licensing and Distribution Service](https://mlds.ihtsdotools.org/#/landing/AT?lang=de) (MLDS).",,"SCT,Internal"
https://termgit.elga.gv.at/ValueSet/eimpf-mengenart,2.0.0+20240903,active,"1.2.40.0.34.6.0.10.74",eimpf-mengenart,eImpf_Mengenart,"**Description:** ELGA ValueSet for units of measure in e-Impfpass  **Beschreibung:** ELGA ValueSet für Mengenarten im e-Impfpass",,"UCUM"
https://termgit.elga.gv.at/ValueSet/elga-absentorunknownallergies,3.0.0+20231122,active,"1.2.40.0.34.10.178",elga-absentorunknownallergies,ELGA_AbsentOrUnknownAllergies,"**Description:** Absent Allergy Or Intolerance   **Beschreibung:** Keine Allergie oder Intoleranz",,"hl7.fhir.uv.ips"
https://termgit.elga.gv.at/ValueSet/elga-absentorunknowndevices,2.0.0+20231117,active,"1.2.40.0.34.10.192",elga-absentorunknowndevices,ELGA_AbsentOrUnknownDevices,"Absent Or Unknown Medical Devices",,"hl7.fhir.uv.ips"
https://termgit.elga.gv.at/ValueSet/elga-absentorunknownmedication,2.0.0+20231117,active,"1.2.40.0.34.10.191",elga-absentorunknownmedication,ELGA_AbsentOrUnknownMedication,"Keine Medikation",,"hl7.fhir.uv.ips"
https://termgit.elga.gv.at/ValueSet/elga-absentorunknownproblems,2.0.0+20231117,active,"1.2.40.0.34.10.179",elga-absentorunknownproblems,ELGA_AbsentOrUnknownProblems,"Keine Probleme",,"hl7.fhir.uv.ips"
https://termgit.elga.gv.at/ValueSet/elga-absentorunknownprocedures,1.1.0+20231117,active,"1.2.40.0.34.10.193",elga-absentorunknownprocedures,ELGA_AbsentOrUnknownProcedures,"Keine Eingriffe oder Therapien",,"hl7.fhir.uv.ips"
https://termgit.elga.gv.at/ValueSet/elga-actcode-abginfo,1.1.0+20240325,active,"1.2.40.0.34.10.160",elga-actcode-abginfo,ELGA_ActCode_AbgInfo,"",,"Internal"
https://termgit.elga.gv.at/ValueSet/elga-actcode-patinfo,1.1.0+20240325,active,"1.2.40.0.34.10.161",elga-actcode-patinfo,ELGA_ActCode_PatInfo,"",,"Internal"
https://termgit.elga.gv.at/ValueSet/elga-actencountercode,1.3.0+20240820,active,"1.2.40.0.34.10.5",elga-actencountercode,ELGA_ActEncounterCode,"**Description:** Coding of patient encounter (patient stay)  **Beschreibung:** Codierung des Patientenkontakts (Aufenthalt)",,"THO (V3)"
https://termgit.elga.gv.at/ValueSet/elga-addressuse,1.3.0+20240820,active,"1.2.40.0.34.10.16",elga-addressuse,ELGA_AddressUse,"**Description:** Describes the meaning and use of addresses. Naming within 'ELGA Referenz-Stylesheet' XLS as indicated in the german translation  **Beschreibung:** Beschreibt die Bedeutung und Verwendung einer Adresse. Benennung im ELGA Referenz-Stylesheet XLS wie in deutscher Übersetzung angegeben",,"THO (V3)"
https://termgit.elga.gv.at/ValueSet/elga-administrativegender,2.2.0+20240820,active,"1.2.40.0.34.10.4",elga-administrativegender,ELGA_AdministrativeGender,"**Description:** The gender of a person used for adminstrative purposes (as opposed to clinical gender).  **Beschreibung:** Das Geschlecht einer Person zur administrativen Nutzung (entspricht nicht notwendigerweise dem biologischen oder medizinischen Geschlecht).",,"THO (V3),Internal"
https://termgit.elga.gv.at/ValueSet/elga-allergietyp,2.1.0+20240325,active,"1.2.40.0.34.10.206",elga-allergietyp,ELGA_AllergieTyp,"**Description:** Allergy Or Intolerance  **Beschreibung:** Art der beobachteten Intoleranz oder Allergie",,"Internal"
https://termgit.elga.gv.at/ValueSet/elga-antibiogramm,1.1.0+20240325,active,"1.2.40.0.34.6.0.10.53",elga-antibiogramm,ELGA_Antibiogramm,"**Description:** Antibiotics  **Beschreibung:** Antibiotika, entspricht allen LOINC Einträgen mit 'property:susc class:abxbact method:null'",,"LOINC,Other"
https://termgit.elga.gv.at/ValueSet/elga-auditeventid,1.2.0+20240820,active,"1.2.40.0.34.10.150",elga-auditeventid,ELGA_AuditEventID,"Valueset der ELGA spezifischen Audit Event IDs. Verwendung in IHE konformen und ELGA BeS definierten Audit Events.",,"Internal"
https://termgit.elga.gv.at/ValueSet/elga-auditeventtype,1.5.0+20241216,active,"1.2.40.0.34.10.151",elga-auditeventtype,ELGA_AuditEventType,"Codeliste der ELGA spezifischen Audit Event Type Codes (Transaktionen). Verwendung in IHE konformen und ELGA BeS definierten Audit Events.",,"Internal"
https://termgit.elga.gv.at/ValueSet/elga-auditparticipantobjectidtype,1.2.0+20240820,active,"1.2.40.0.34.10.156",elga-auditparticipantobjectidtype,ELGA_AuditParticipantObjectIdType,"Liste der ELGA spezifischen Audit Participant Object ID Type Codes. Der Object ID Type Code beschreibt die Art eines Objekts, welches referenziert wird. ",,"Internal"
https://termgit.elga.gv.at/ValueSet/elga-auditparticipantobjecttype,1.2.0+20240820,active,"1.2.40.0.34.10.154",elga-auditparticipantobjecttype,ELGA_AuditParticipantObjectType,"Codeliste der ELGA spezifischen Audit Participant Object Type Codes. Der Audit Participant Object Type beschreibt die Art eines Objekts, welches im Audit Event referenziert ist.",,"Internal"
https://termgit.elga.gv.at/ValueSet/elga-auditparticipantobjecttyperole,1.2.0+20240820,active,"1.2.40.0.34.10.155",elga-auditparticipantobjecttyperole,ELGA_AuditParticipantObjectTypeRole,"Liste der ELGA spezifischen Audit Participant Object Type Code Roles. Die Audit Participant Object Type Role definiert die Verwendung eines Objekts, welches im Audit Event referenziert ist.",,"Internal"
https://termgit.elga.gv.at/ValueSet/elga-auditroleid,2.3.0+20241212,retired,"1.2.40.0.34.10.153",elga-auditroleid,ELGA_AuditRoleID,"einheitliche Liste sowohl für ELGA definierte als auch für IHE definierte Role IDs ",,"Internal"
https://termgit.elga.gv.at/ValueSet/elga-auditsourcetype,1.3.0+20250113,active,"1.2.40.0.34.10.152",elga-auditsourcetype,ELGA_AuditSourceType,"Liste der ELGA spezifischen Audit Source Type Codes. Der Audit Source Type Code beschreibt die Art des Systems, welches den Audit Event erstellt hat.",,"Internal"
https://termgit.elga.gv.at/ValueSet/elga-authorspeciality,1.4.0+20240820,active,"1.2.40.0.34.10.6",elga-authorspeciality,ELGA_AuthorSpeciality,"**Description:** Medical speciality of the documents author. Usage in CDA: AssignedAuthor.code.  Usage in XDS-Metadata: authorSpeciality  **Beschreibung:** Medizinische Fachrichtung der Person, welche ein Dokument verfasst. Verwendung in CDA: AssignedAuthor.code.  Verwendung in XDS-Metadaten: authorSpeciality     Wird über eine Verordnung zum GTelG veröffentlicht",,"Internal"
https://termgit.elga.gv.at/ValueSet/elga-conditionstatuscode,2.1.0+20240325,active,"1.2.40.0.34.10.198",elga-conditionstatuscode,ELGA_ConditionStatusCode,"**Description:** Condition or Problem Status Code  **Beschreibung:** Value Set für den Status Code eines Problems",,"Internal"
https://termgit.elga.gv.at/ValueSet/elga-conditionverificationstatus,2.1.0+20240325,active,"1.2.40.0.34.10.184",elga-conditionverificationstatus,ELGA_ConditionVerificationStatus,"**Description:** Clinical Status of Allergies Or Intolerances   **Beschreibung:** Klinischer Status von Allergien und Intoleranzen",,"Internal"
https://termgit.elga.gv.at/ValueSet/elga-confidentiality,1.3.0+20240820,active,"1.2.40.0.34.10.7",elga-confidentiality,ELGA_Confidentiality,"**Description:** This Value Set is used to declare confidentiality for the entire CDA-Document. Due to the fact that all medical documents are confidential and the access rules within ELGA are controlled by the ''Access Control''- set of regulations, all documents are assigned ConfidentialityCode N (normal). This is a limited subset of the original codelist.  **Beschreibung:** Das Value Set wird verwendet, um die Vertraulichkeit für das gesamte CDA-Dokument anzugeben. Da alle medizinischen Dokumente vertraulich sind und die Zugriffsregeln in ELGA außerhalb des Dokuments durch das Berechtigungsregelwerk gesteuert werden, bekommen alle Dokumente den ConfidentialityCode N (normal).     Eingeschränktes Subset der originalen Codeliste.",,"THO (V3)"
https://termgit.elga.gv.at/ValueSet/elga-diagnosesicherheit,1.1.0+20240325,active,"1.2.40.0.34.10.168",elga-diagnosesicherheit,ELGA_Diagnosesicherheit,"",,"Internal"
https://termgit.elga.gv.at/ValueSet/elga-dokumentenklassen,3.5.0+20250128,active,"1.2.40.0.34.10.39",elga-dokumentenklassen,ELGA_Dokumentenklassen,"**Description:** This is a set of document classes and LOINC-Codes valid in ELGA for CDA and XDS Metadata. The upper hierarchy level contains the root-document classes for ELGA documents (also assigend to  XDSMetadata.ClassCode). The lower hierarchy level contains specialities of the root-document classes, which could be transferred to the registry,  using XDSMetadata.TypeCode. For the field ClinicalDocument.Code (CDA), it is preferred to use the most specialised code applicable (leaf elements, lower level). The documents title is displayed via the Stylesheet (see 'Hinweise')  **Beschreibung:** Liste der für ELGA gültigen Dokumentklassen und ihrer LOINC-Codes für CDA und die XDS-Metadaten. Die obere Hierarchieebene umfasst die Hauptdokumentenklassen für ELGA Dokumente, diese ist auch in den XDSMetadaten.ClassCode zu übertragen.  Die untere Hierarchieebene enthält die Spezialisierungen der Hauptdokumentenklassen, sie können in den XDSMetadaten.TypeCode an die Registry übermittelt werden. Im Element ClinicalDocument.Code (CDA) werden bevorzugt die spezialisierten Codes der Blattebene (untere Ebene, Dokumententyp) verwendet.      Der Titel eines Dokumentes wird im Dokument über das Stylesheet angezeigt (siehe Hinweise)",,"LOINC"
https://termgit.elga.gv.at/ValueSet/elga-dosisparameter,1.2.0+20240411,active,"1.2.40.0.34.10.166",elga-dosisparameter,ELGA_Dosisparameter,"Codes für Dosisparameter zur Ermittlung der Patientendosis",,"Internal"
https://termgit.elga.gv.at/ValueSet/elga-einnahmezeitpunkte,1.3.0+20240820,active,"1.2.40.0.34.10.59",elga-einnahmezeitpunkte,ELGA_Einnahmezeitpunkte,"**Description:** Timing Events for drug administration  **Beschreibung:** Einnahmezeitpunkte für Medikamente",,"THO (V3)"
https://termgit.elga.gv.at/ValueSet/elga-entitynamepartqualifier,2.3.0+20240820,active,"1.2.40.0.34.6.0.10.8",elga-entitynamepartqualifier,ELGA_EntityNamePartQualifier,"**Description:** Description of prefixes and suffixes, which can be appended to a name.  **Beschreibung:** Beschreibt die Präfixe und Suffixe, die zu einem Namen hinzugefügt werden können.",,"THO (V3)"
https://termgit.elga.gv.at/ValueSet/elga-entitynameuse,1.3.0+20240820,active,"1.2.40.0.34.10.27",elga-entitynameuse,ELGA_EntityNameUse,"**Description:** A code describing the names type (legal name, artist pseudonym)  **Beschreibung:** Ein Code, der den Typus eines Namens beschreibt (rechtsgültiger Name, Künstlername)",,"THO (V3)"
https://termgit.elga.gv.at/ValueSet/elga-entlassungsmanagementa,1.2.0+20240820,active,"1.2.40.0.34.10.53",elga-entlassungsmanagementa,ELGA_EntlassungsmanagementA,"**Description:** Describes the variety in a discharge management disposition (describes the kind of discharge date)  **Beschreibung:** Beschreibt die Möglichkeiten in einer Entlassungsmanagement-Disposition (Beschreibt die Art des Entlassungsdatums)",,"Internal"
https://termgit.elga.gv.at/ValueSet/elga-expecteddeliverydatemethod,1.2.0+20240325,active,"1.2.40.0.34.10.202",elga-expecteddeliverydatemethod,ELGA_ExpectedDeliveryDateMethod,"Berechnungsmethode Geburtstermin",,"LOINC"
https://termgit.elga.gv.at/ValueSet/elga-formatcodezusatz,1.2.0+20240820,active,"1.2.40.0.34.10.60",elga-formatcodezusatz,ELGA_FormatCodeZusatz,"**Description:** Defintion of valid additions for the FormatCode by declaration in Context of XDS document metadata  **Beschreibung:** Definition der gültigen Zusätze für den FormatCode bei Angabe im Rahmen der XDS Dokument Metadaten",,"Internal"
https://termgit.elga.gv.at/ValueSet/elga-healthcarefacilitytypecode,1.2.0+20240820,active,"1.2.40.0.34.10.72",elga-healthcarefacilitytypecode,ELGA_HealthcareFacilityTypeCode,"**Description:** Coding of organizational units of healthcare providers  **Beschreibung:** Codierung von Organisationseinheiten der GDA. Verwendung in XDS-Metadaten zur Klassifizierung des GDA.",,"Internal"
https://termgit.elga.gv.at/ValueSet/elga-humanactsite,1.3.0+20240820,active,"1.2.40.0.34.10.52",elga-humanactsite,ELGA_HumanActSite,"**Description:** An anatomical location on a human which can be the focus of an act.  **Beschreibung:** Eine anatomische Lokalisation an einem Menschen, auf die ein Act Bezug nehmen kann.",,"THO (V3)"
https://termgit.elga.gv.at/ValueSet/elga-humanlanguage,1.2.0+20240820,active,"1.2.40.0.34.10.173",elga-humanlanguage,ELGA_HumanLanguage,"**Description:** language tag for use in cases where it is desired to indicate the language used in an information object, how to register values for use in this language tag, and a construct for matching such language tags  **Beschreibung:** Identifizierung von Sprachen nach IETF 3066",,"Internal"
https://termgit.elga.gv.at/ValueSet/elga-informationrecipienttype,1.3.0+20240820,active,"1.2.40.0.34.10.29",elga-informationrecipienttype,ELGA_InformationRecipientType,"**Description:** Describes the kinds of information recipients  **Beschreibung:** Beschreibt die Arten von Informationsempfängern ",,"THO (V3)"
https://termgit.elga.gv.at/ValueSet/elga-insuredassocentity,1.3.0+20240820,active,"1.2.40.0.34.10.9",elga-insuredassocentity,ELGA_InsuredAssocEntity,"**Description:** Codes for a further detailed description of the insurance relationship. Excerpt of the 'CoverageRoleType' of the Rolecode-Codelist. Currently the ELGA_InsuredAssocEntity value set only uses two codes from the parent code system.  **Beschreibung:** Codes zur näheren Beschreibung des Versicherungsverhältnisses. Auszug aus dem Bereich 'CoverageRoleType' der Codeliste RoleCode. Derzeit werden nur zwei Codes aus der Liste verwendet.",,"THO (V3)"
https://termgit.elga.gv.at/ValueSet/elga-kulturerregernachweis,1.2.0+20240820,active,"1.2.40.0.34.10.171",elga-kulturerregernachweis,ELGA_KulturErregernachweis,"**Description:** Value Set microorganisms for antibiograms  **Beschreibung:** Value Set für Mikroorganismen für die Erstellung von Antibiogrammen",,"LOINC"
https://termgit.elga.gv.at/ValueSet/elga-laborstruktur,1.3.0+20240820,active,"1.2.40.0.34.10.47",elga-laborstruktur,ELGA_Laborstruktur,"**Description:** Structure of an Austrian laboratory report. Three hierarchical levels: 'Allgemeiner Befund', 'Bereiche' and 'Gruppen'  **Beschreibung:** Struktur eines österreichischen Laborbefundes. Drei Hierarchiebenenen: 'Allgemeiner Befund', 'Bereiche' und 'Gruppen'",,"Other"
https://termgit.elga.gv.at/ValueSet/elga-laendercodes,1.1.0+20240325,active,"1.2.40.0.34.10.172",elga-laendercodes,ELGA_Laendercodes,"**Description:** Value Set for ISO 3166-1 alpha 3 used in ELGA  **Beschreibung:** Value Set für ISO 3166-1 alpha 3 zur Verwendung in ELGA",,"Internal"
https://termgit.elga.gv.at/ValueSet/elga-languageabilitymode,1.3.0+20240820,active,"1.2.40.0.34.10.175",elga-languageabilitymode,ELGA_LanguageAbilityMode,"**Description:** List of codes representing the method of expression of the language  **Beschreibung:** Codes zur Angabe der Sprachfähigkeit von Patienten (Methode zum Ausdruck von Spache)",,"THO (V3)"
https://termgit.elga.gv.at/ValueSet/elga-languagecode,2.2.0+20240820,active,"1.2.40.0.34.10.10",elga-languagecode,ELGA_LanguageCode,"**Description:** ELGA_LanguageCode is used to describe the language of the documents (CDA-Element: ClinicalDocument.languageCode). Description available under: http://www.ietf.org/rfc/rfc3066.txt  **Beschreibung:** Wird zur Beschreibung der Sprache des Dokuments verwendet  (Element ClinicalDocument.languageCode). Beschreibung unter http://www.ietf.org/rfc/rfc3066.txt",,"Internal"
https://termgit.elga.gv.at/ValueSet/elga-lebensmittelallergene,2.1.0+20240325,active,"1.2.40.0.34.6.0.10.75",elga-lebensmittelallergene,ELGA Lebensmittelallergene,"Liste von Stoffen oder Erzeignissen, die Allergien oder Unverträglichkeiten auslösen (Quelle: EU-Verordnung)","ConceptMap/elga-lebensmittelallergene-mapping","Internal"
https://termgit.elga.gv.at/ValueSet/elga-mammogramassessment,1.2.0+20240820,active,"1.2.40.0.34.10.55",elga-mammogramassessment,ELGA_MammogramAssessment,"**Description:** Definition of the values for a mammogram according DICOM Coding Scheme 'BI' from 'Digital Imaging and Communications in Medicine (DICOM) Part 16: Content Mapping Resource'  **Beschreibung:** Definition der Werte für ein Mammogramm entsprechend DICOM Coding Scheme 'BI' aus 'Digital Imaging and Communications in Medicine (DICOM) Part 16: Content Mapping Resource'",,"Internal"
https://termgit.elga.gv.at/ValueSet/elga-maritalstatus,1.4.0+20240820,active,"1.2.40.0.34.10.11",elga-maritalstatus,ELGA_MaritalStatus,"**Description:** This Value set is used to state the martial status.  **Beschreibung:** Das Value Set wird verwendet, um den Familienstand anzugeben.",,"THO (V3),Internal"
https://termgit.elga.gv.at/ValueSet/elga-medicaldevices,1.0.0+20200728,active,"1.2.40.0.34.10.190",elga-medicaldevices,ELGA_MedicalDevices,"**Description:** List of all possible medical devices codes in Austria.  **Beschreibung:** Liste aller möglichen Medizingeräte Codes in Österreich.",,"SCT"
https://termgit.elga.gv.at/ValueSet/elga-medientyp,1.2.0+20240820,active,"1.2.40.0.34.10.42",elga-medientyp,ELGA_Medientyp,"**Description:** List of valid media types, used for multimedia data types within an ELGA-CDA. See http://www.loc.gov/z3950/agency/defns/oids.html   **Beschreibung:** Liste der gültigen MedienTypen zur Verwendung in CDA Multimedia-Datentypen. Vgl. http://www.loc.gov/z3950/agency/defns/oids.html",,"Internal"
https://termgit.elga.gv.at/ValueSet/elga-medikationabgabeart,1.2.0+20240325,active,"1.2.40.0.34.10.159",elga-medikationabgabeart,ELGA_MedikationAbgabeArt,"ELGA Value Set für die Medikations-Abgabeart",,"THO (V3)"
https://termgit.elga.gv.at/ValueSet/elga-medikationartanwendung,1.2.0+20240325,active,"1.2.40.0.34.10.66",elga-medikationartanwendung,ELGA_MedikationArtAnwendung,"**Description:** ELGA Medikation Art der Anwendung. Liability and terms of use you can find on this website https://www.basg.gv.at/fuer-unternehmen/online-service/nutzungshinweise#termgit  **Beschreibung:** ELGA Medikation Art der Anwendung. Haftung und Nutzungsbestimmungen finden Sie unter folgender Webseite https://www.basg.gv.at/fuer-unternehmen/online-service/nutzungshinweise#termgit",,"Internal"
https://termgit.elga.gv.at/ValueSet/elga-medikationfrequenz,2.0.0+20240903,active,"1.2.40.0.34.10.69",elga-medikationfrequenz,ELGA_MedikationFrequenz,"**Description:** ELGA ValueSet for frequency  **Beschreibung:** ELGA ValueSet für Frequenz",,"UCUM"
https://termgit.elga.gv.at/ValueSet/elga-medikationmengenart,2.1.0+20241204,active,"1.2.40.0.34.10.32",elga-medikationmengenart,ELGA_MedikationMengenart,"**Description:** ELGA ValueSet for units of measure in e-Medikation  **Beschreibung:** ELGA ValueSet für Mengenarten in der e-Medikation. HAFTUNG UND NUTZUNGSBESTIMMUNGEN     Die AGES stellt mit großer Sorgfalt Informationen zu Arzneispezialitäten der  ELGA-Maßnahme 'e-Medikation'  (Paragraph 16a GTelG 2012 idgF) und eImpfass zur Verfügung.     Trotz größtmöglicher Sorgfalt können Fehler dennoch nicht gänzlich ausgeschlossen werden.      Sollten beispielsweise Widersprüche hinsichtlich der der Arzneispezialität beiliegenden Fach- bzw. Gebrauchsinformation      und den Informationen auf den Inhalten des Terminologieservers bestehen, gilt der Inhalt der jeweiligen Fach- bzw. Gebrauchsinformation.      Bei Unterschieden zu Informationen des Warenverzeichnisses des Apothekerverlages gilt die Information des Warenverzeichnisses.     Teile der bereitgestellten Daten stammen aus Katalogen des Apothekerverlages, der EMA (European Medicines Agency),      bzw. des EDQM (European Directorate of the Quality of Medicines).      Die Weiterwendung dieser Daten unterliegen dem jeweiligen Copyright und Nutzungsbestimmungen dieser Anbieter.     Die AGES übernimmt keine Haftung für eventuelle unmittelbare oder mittelbare Schäden, die durch die direkte      oder indirekte Nutzung der angebotenen Inhalte entstehen.      Sollten die angebotenen Daten und Inhalte heruntergeladen und weiterverwendet werden, so dürfen diese inhaltlich nicht verändert werden      und die Weiterverwendung erfolgt auf eigenes Risiko.     Die AGES leistet keine Gewähr und übernimmt auch keine Haftung für eine gewisse Datenqualität extern bereitgestellter Inhalte,      für die Beschaffenheit der erstellten Datensätze und/oder Codesysteme, sowie für die Verwertbarkeit      und/oder Nutzung der zur Verfügung gestellten Daten, sofern ihr dessen Mangelhaftigkeit trotz Einhaltung aller Sorgfaltspflichten      und der Anwendung technischer Standards nicht erkennbar waren, respektive sein konnten.",,"UCUM"
https://termgit.elga.gv.at/ValueSet/elga-medikationmengenartalternativ,1.2.0+20240325,retired,"1.2.40.0.34.10.67",elga-medikationmengenartalternativ,ELGA_MedikationMengenartAlternativ,"ELGA ValueSet für alternative Mengenarten (zählbar)",,"Internal"
https://termgit.elga.gv.at/ValueSet/elga-medikationpharmazeutischeempfehlungstatus,1.1.0+20240325,active,"1.2.40.0.34.10.71",elga-medikationpharmazeutischeempfehlungstatus,ELGA_MedikationPharmazeutischeEmpfehlungStatus,"**Description:** ELGA ValueSet for Pharmaceutical Advice status  **Beschreibung:** ELGA ValueSet für Pharmazeutische Empfehlung Status",,"Internal"
https://termgit.elga.gv.at/ValueSet/elga-medikationrezeptart,1.1.0+20240325,active,"1.2.40.0.34.10.68",elga-medikationrezeptart,ELGA_MedikationRezeptart,"**Description:** ELGA ValueSet for Prescription type  **Beschreibung:** ELGA ValueSet für RezeptArt",,"Internal"
https://termgit.elga.gv.at/ValueSet/elga-medikationrezeptpflichtstatus,1.2.0+20240325,active,"1.2.40.0.34.10.74",elga-medikationrezeptpflichtstatus,ELGA_MedikationRezeptpflichtstatus,"**Description:** ELGA Medikation Rezeptpflichtstatus. Liability and terms of use you can find on this website https://www.basg.gv.at/fuer-unternehmen/online-service/nutzungshinweise#termgit  **Beschreibung:** ELGA Medikation Rezeptpflichtstatus. Haftung und Nutzungsbestimmungen finden Sie unter folgender Webseite https://www.basg.gv.at/fuer-unternehmen/online-service/nutzungshinweise#termgit",,"Internal"
https://termgit.elga.gv.at/ValueSet/elga-medikationtherapieart,1.1.0+20240325,active,"1.2.40.0.34.10.30",elga-medikationtherapieart,ELGA_MedikationTherapieArt,"**Description:** ELGA Valueset for type of therapy  **Beschreibung:** ELGA Valueset für Therapieart",,"Internal"
https://termgit.elga.gv.at/ValueSet/elga-nullflavor,1.3.0+20240820,active,"1.2.40.0.34.10.2",elga-nullflavor,ELGA_NullFlavor,"**Description:** Set of valid codes to use for describing elements, which carry no value (Only allowed for non-mandatory elements)  **Beschreibung:** Das Value Set wird verwendet, um Elemente zu beschreiben, die keinen Wert tragen (nur erlaubt für Non-Mandatory-Elemente)",,"THO (V3)"
https://termgit.elga.gv.at/ValueSet/elga-observationinterpretation,1.3.0+20240820,active,"1.2.40.0.34.10.13",elga-observationinterpretation,ELGA_ObservationInterpretation,"**Description:** Classification of a result from a measurement (e.g. laboratory parameter) or observation  **Beschreibung:** Klassifiziert das Ergebnis einer Messung (zB eines Laborwertes) oder einer Beobachtung",,"THO (V3),Internal"
https://termgit.elga.gv.at/ValueSet/elga-participationfunctioncode,1.3.0+20240820,active,"1.2.40.0.34.10.15",elga-participationfunctioncode,ELGA_ParticipationFunctionCode,"**Description:** Set of valid type codes for participants (admitting physician, primary care physician...)  **Beschreibung:** Erlaubte TypeCodes für Participants (Einweiser, Hausarzt). ",,"THO (V3)"
https://termgit.elga.gv.at/ValueSet/elga-personalrelationship,1.3.0+20240820,active,"1.2.40.0.34.10.17",elga-personalrelationship,ELGA_PersonalRelationship,"**Description:** Set of valid codes, describing the personal relationship between a person and another.  **Beschreibung:** Das ValueSet dient zur Beschreibung der persönlichen Beziehung zwischen einer Person und anderen Personen.",,"THO (V3)"
https://termgit.elga.gv.at/ValueSet/elga-practicesetting,1.1.0+20240325,active,"1.2.40.0.34.10.75",elga-practicesetting,ELGA_PracticeSetting,"**Description:** Describes the assignment of a document to a medical area. These codes are used within XDS Metadata attribute ''practiceSettingCode''.      Terminologies are inherited from ''Österreichische Strukturplan Gesundheit'' as far as possilbe. Opposite to this piece of work, some concepts are newly introduced. Where differentiation was reasonable, concepts were conducted in more detail. More concepts will be added if necessary, especially for physiotherapy, ergotherapy a.s.f.. A CDA implementation guide may specify the use of this codes.  **Beschreibung:** Beschreibt die fachlliche Zuordnung eines Dokumentes in ELGA. Verwendung in XDS Metadaten im Attribut ''practiceSettingCode''.      Die Benennungen sind soweit möglich aus der Nomenklatur des Österreichischen Strukturplan Gesundheit (ÖSG) übernommen. Gegenüber diesem Codewerk sind einige Konzepte neu hinzugefügt worden. Wo Unterscheidungen sinnvoll waren, wurden Konzepte auch genauer ausgeführt. Weitere Konzepte werden hinzugefügt, wenn Bedarf durch weitere CDA-Dokumentenklassen gegeben sein wird, zB für nicht-ärztliche Gesundheitsberufe wie Physiotherapie, Ergotherapie etc.     Ein CDA-Implementierungsleitfaden kann die Verwendung der möglichen PracticeSettingCodes vorschreiben.     Ein Mapping zu den LKF Funktionscodes ist angegeben, wenn möglich.",,"Internal"
https://termgit.elga.gv.at/ValueSet/elga-pregnanciessummary,1.2.0+20240325,active,"1.2.40.0.34.10.203",elga-pregnanciessummary,ELGA_PregnanciesSummary,"Schwangerschaften",,"LOINC"
https://termgit.elga.gv.at/ValueSet/elga-pregnancystatus,1.2.0+20240325,active,"1.2.40.0.34.6.0.10.52",elga-pregnancystatus,ELGA_PregnancyStatus,"",,"LOINC"
https://termgit.elga.gv.at/ValueSet/elga-problemstatuscode,1.2.0+20240325,active,"1.2.40.0.34.10.167",elga-problemstatuscode,ELGA_ProblemStatusCode,"",,"THO (V3)"
https://termgit.elga.gv.at/ValueSet/elga-procedureapproachsite,1.0.0+20170906,active,"1.2.40.0.34.10.197",elga-procedureapproachsite,ELGA_ProcedureApproachSite,"**Description:** List of all possible procedure approach site codes in Austria.  **Beschreibung:** Liste aller möglichen Codes von Zugangsseiten für Prozeduren in Österreich.",,"SCT"
https://termgit.elga.gv.at/ValueSet/elga-proficiencylevelcode,1.3.0+20240820,active,"1.2.40.0.34.10.174",elga-proficiencylevelcode,ELGA_ProficiencyLevelCode,"**Description:** List of codes representing the level of proficiency in a language.  **Beschreibung:** Codes zur Angabe der Sprachfähigkeit von Patienten (Sprachkenntnisse)",,"THO (V3)"
https://termgit.elga.gv.at/ValueSet/elga-radiopharmaceuticals,0.2.0+20240820,draft,"1.2.40.0.34.6.0.10.95",elga-radiopharmaceuticals,ELGA_Radiopharmaceuticals,"**Description:** Draft value set for the normative ballot for the diagnostic imaging report (version 3.0.0).  **Beschreibung:** Value-Set-Entwurf für den normativen Ballot zum Befund bildgebende Diagnostik (Version 3.0.0).",,"SCT"
https://termgit.elga.gv.at/ValueSet/elga-realmcode,1.1.0+20240325,active,"1.2.40.0.34.10.3",elga-realmcode,ELGA_RealmCode,"**Description:** Coding of the documents realm. In ELGA documents must use the code 'AT'  **Beschreibung:** Beschreibt den Hoheitsbereich des Dokuments. In ELGA fixiert mit AT.",,"Internal"
https://termgit.elga.gv.at/ValueSet/elga-religiousaffiliation,1.2.0+20240820,active,"1.2.40.0.34.10.18",elga-religiousaffiliation,ELGA_ReligiousAffiliation,"**Description:** Set of Religious Affiliation to be used in ELGA. It is preferred to use entries of the first level hierachy (1-L)  **Beschreibung:** Religionen und Glaubensgemeinschaften in Österreich. Vorzugsweise sind Einträge der 1.Hierarchieebene (1-L) zu verwenden",,"Internal"
https://termgit.elga.gv.at/ValueSet/elga-roleclass,1.3.0+20240820,active,"1.2.40.0.34.10.19",elga-roleclass,ELGA_RoleClass,"**Description:** Represents an association or relationshsip between two entities  **Beschreibung:** Unterscheidung zwischen Notfallkontakt und Angehörigem",,"THO (V3)"
https://termgit.elga.gv.at/ValueSet/elga-rollen,2.4.0+20250226,active,"1.2.40.0.34.10.26",elga-rollen,ELGA_Rollen,"**Description:** Definition of the roles for the ELGA Access Control system using nomenclature defined by the 'Healthcare-Provider Rollen' in Austria  **Beschreibung:** Definition der Rollen für das ELGA-Berechtigungssystem. Verweist auf die Nomenklatur der Healthcare-Provider Rollen in Österreich.",,"Internal"
https://termgit.elga.gv.at/ValueSet/elga-sectionsentlassungaerztl,1.2.0+20240325,active,"1.2.40.0.34.10.48",elga-sectionsentlassungaerztl,ELGA_SectionsEntlassungAerztl,"**Description:** Set of codes defining the sections and their labeling (displayed as the title of the section) within the 'Entlassungsbrief Ärztlich' permitted by ELGA  **Beschreibung:** Auflistung der Codes für den 'Entlassungsbrief Ärztlich' erlaubte Sektionen in ELGA und ihre Bezeichnungen (Titelzeile).",,"Internal,LOINC"
https://termgit.elga.gv.at/ValueSet/elga-sectionsentlassungpflege,1.2.0+20240820,active,"1.2.40.0.34.10.49",elga-sectionsentlassungpflege,ELGA_SectionsEntlassungPflege,"**Description:** Set of codes defining the sections and their labeling (displayed as the title of the section) within the 'Entlassungsbrief Pflege' permitted by ELGA  **Beschreibung:** Auflistung der Codes für den 'Entlassungsbrief Pflege' erlaubte Sektionen in ELGA und ihre Bezeichnungen (Titelzeile).",,"Internal,LOINC"
https://termgit.elga.gv.at/ValueSet/elga-sectionspflegesitber,1.2.0+20240820,active,"1.2.40.0.34.10.164",elga-sectionspflegesitber,ELGA_SectionsPflegeSitber,"**Description:** Set of codes defining the sections and their labeling (displayed as the title of the section) within the 'Pflegesituationsbericht' (Nurse Transfer Note) permitted by ELGA  **Beschreibung:** Auflistung der Codes für den 'Pflegesituationsbericht' erlaubte Sektionen in ELGA und ihre Bezeichnungen (Titelzeile).",,"Internal,LOINC"
https://termgit.elga.gv.at/ValueSet/elga-sectionsradiologie,1.1.0+20240325,active,"1.2.40.0.34.10.50",elga-sectionsradiologie,ELGA_SectionsRadiologie,"**Description:** Set of codes defining the sections and their labeling (displayed as the title of the section) within the 'Befund Bildgebende Diagnostik' permitted by ELGA  **Beschreibung:** Auflistung der Codes für den 'Befund Bildgebende Diagnostik' erlaubte Sektionen in ELGA und ihre Bezeichnungen (Titelzeile).",,"Internal,LOINC"
https://termgit.elga.gv.at/ValueSet/elga-seitenlokalisation,1.1.0+20240325,active,"1.2.40.0.34.10.176",elga-seitenlokalisation,ELGA_Seitenlokalisation,"",,"Internal"
https://termgit.elga.gv.at/ValueSet/elga-serviceeventperformer,1.3.0+20240820,active,"1.2.40.0.34.10.43",elga-serviceeventperformer,ELGA_ServiceEventPerformer,"**Description:** Codes to distinguish performer(s) of an event  **Beschreibung:** Value Set zur Unterscheidung des Service Event Performers",,"THO (V3)"
https://termgit.elga.gv.at/ValueSet/elga-serviceeventsentlassbr,1.2.0+20240820,active,"1.2.40.0.34.10.57",elga-serviceeventsentlassbr,ELGA_ServiceEventsEntlassbr,"**Description:** Codes to distinguish discharge service events  **Beschreibung:** Value Set zur Unterscheidung der Service Events im Bereich Entlassung",,"Internal"
https://termgit.elga.gv.at/ValueSet/elga-significantpathogens,1.2.0+20240820,active,"1.2.40.0.34.10.58",elga-significantpathogens,ELGA_SignificantPathogens,"**Description:** Value Set of significant pathogens listed in ''Epidemiologisches Meldesystem Benutzerhandbuch Fachlicher Teil'', 1. edition, October 2008, BMGFJ  **Beschreibung:** Value Set für Erreger meldepflichtiger Infektionskrankheiten laut ''Epidemiologisches Meldesystem Benutzerhandbuch Fachlicher Teil'', 1. Auflage Oktober 2008, des BMGFJ",,"Internal"
https://termgit.elga.gv.at/ValueSet/elga-targetsite,1.0.0+20200708,active,"1.2.40.0.34.10.196",elga-targetsite,ELGA_TargetSite,"**Description:** List of all possible target site codes in Austria.  **Beschreibung:** Liste aller möglichen Codes von Zielseiten in Österreich.",,"SCT"
https://termgit.elga.gv.at/ValueSet/elga-telecomaddressuse,1.3.0+20240820,active,"1.2.40.0.34.10.36",elga-telecomaddressuse,ELGA_TelecomAddressUse,"**Description:** Uses of Addresses  **Beschreibung:** Beschreibt die Verwendungsart einer Adresse",,"THO (V3)"
https://termgit.elga.gv.at/ValueSet/elga-topographicalmodifierqualifier,1.0.0+20200512,active,"1.2.40.0.34.10.212",elga-topographicalmodifierqualifier,ELGA_TopographicalModifierQualifier,"**Description:** List of all possible topographical modifier qualifier codes in Austria.  **Beschreibung:** Liste aller möglichen topographischen Bestimmungskennzeichnungs-Codes in Österreich.",,"SCT"
https://termgit.elga.gv.at/ValueSet/elga-urlscheme,1.3.0+20240820,active,"1.2.40.0.34.10.25",elga-urlscheme,ELGA_URLScheme,"**Description:** Set of codes describing the Universal Resource Locator. This codes are used to distinguish between different types of telecommunication addresses.  **Beschreibung:** Das ValueSet enthält Codes zur Beschreibung von Universal Resource Locators (System zur Beschreibung der Lage der Ressourcen). Dient zur Unterscheidung von Adresstypen.",,"THO (V3),Internal"
https://termgit.elga.gv.at/ValueSet/ems-anti-hcv-immunoassay,1.1.0+20240325,active,"1.2.40.0.34.10.90",ems-anti-hcv-immunoassay,EMS_Anti-HCV-Immunoassay,"Dieses Valueset wird verwendet um das Ergebnis des Anti-HCV Immunoassays zu bewerten. Verwendung im Zuge vom EMS",,"Internal"
https://termgit.elga.gv.at/ValueSet/ems-anti-hcv-immunoblot-assay,1.1.0+20240325,active,"1.2.40.0.34.10.91",ems-anti-hcv-immunoblot-assay,EMS_Anti-HCV-Immunoblot_Assay,"Dieses Valueset wird verwendet um das Ergebnis des Anti-HCV Immunoblot Assays zu bewerten. Verwendung im Zuge vom EMS",,"Internal"
https://termgit.elga.gv.at/ValueSet/ems-hbv-status,1.1.0+20240325,active,"1.2.40.0.34.10.93",ems-hbv-status,EMS_HBV_Status,"Dieses Valueset wird verwendet um den HBV Status zu codieren. Verwendung im Zuge vom EMS",,"Internal"
https://termgit.elga.gv.at/ValueSet/ems-hcv-core-ag-assay,1.1.0+20240325,active,"1.2.40.0.34.10.92",ems-hcv-core-ag-assay,EMS_HCV_core_Ag_Assay,"Dieses Valueset wird verwendet um das Ergebnis HCV core Ag Assays zu codieren. Verwendung im Zuge vom EMS",,"Internal"
https://termgit.elga.gv.at/ValueSet/ems-krankheitsmerkmale,1.1.0+20240325,active,"1.2.40.0.34.6.0.10.18",ems-krankheitsmerkmale,EMS_Krankheitsmerkmale,"**Description:** Concepts for symptoms based on the EMS Requirements  **Beschreibung:** Konzepte Krankheitsmerkmale laut EMS Anforderungen",,"Internal"
https://termgit.elga.gv.at/ValueSet/ems-materialmethode,1.1.0+20240325,active,"1.2.40.0.34.6.0.10.16",ems-materialmethode,EMS_MaterialMethode,"**Description:** Concepts for EMS methods for specimen extractions  **Beschreibung:** Konzepte für Methode der Materialgewinnung",,"Internal"
https://termgit.elga.gv.at/ValueSet/ems-meldepflichtige-krankheiten,1.3.0+20250218,active,"1.2.40.0.34.6.0.10.19",ems-meldepflichtige-krankheiten,EMS_Meldepflichtige_Krankheiten,"Liste der meldepflichtigen Erkrankungen im Rahmen des EMS (elektronischen Meldesystem)",,"Internal,Other"
https://termgit.elga.gv.at/ValueSet/ems-reiseland,1.1.0+20240325,active,"1.2.40.0.34.6.0.10.51",ems-reiseland,EMS_Reiseland,"**Description:** Concepts of Countries (in the context of importet diseases)  **Beschreibung:** Konzepte für Reiseländer",,"Internal"
https://termgit.elga.gv.at/ValueSet/hl7-at-actconsenttype,1.1.0+20240325,active,"1.2.40.0.34.6.0.10.27",hl7-at-actconsenttype,HL7-at_ActConsentType,"",,"THO (V3)"
https://termgit.elga.gv.at/ValueSet/hl7-at-administrativegender-fhir-extension,1.2.0+20240820,active,"1.2.40.0.34.6.0.10.83",hl7-at-administrativegender-fhir-extension,HL7-at_AdministrativeGender-FHIR-Extension,"Österreichische Extension zum internationalen FHIR-Value-Set http://hl7.org/fhir/ValueSet/administrative-gender ",,"Internal"
https://termgit.elga.gv.at/ValueSet/hl7-at-administrativegender-v2,1.2.0+20240820,active,"1.2.40.0.34.6.0.10.81",hl7-at-administrativegender-v2,HL7-at_AdministrativeGender-v2,"Value-Set für das administrative Geschlecht im ELGA-Kontext für HL7 v2 messages",,"THO (V2),Internal"
https://termgit.elga.gv.at/ValueSet/hl7-at-organizationtype,1.0.0+20231120,active,"1.2.40.0.34.6.0.10.86",hl7-at-organizationtype,HL7-at_OrganizationType,"",,"Internal"
https://termgit.elga.gv.at/ValueSet/hl7-at-patientidentifier,1.2.0+20240325,active,"1.2.40.0.34.6.0.10.77",hl7-at-patientidentifier,HL7-at_PatientIdentifier,"**Description:** HL7-defined code system of concepts specifying type of identifier.  **Beschreibung:** Durch HL7 definierte Konzepte für die Spezifizierung von Identifikationsarten",,"THO (V2)"
https://termgit.elga.gv.at/ValueSet/hl7-at-practitionerrole,1.1.0+20231127,active,"1.2.40.0.34.6.0.10.87",hl7-at-practitionerrole,HL7-at_PractitionerRole,"",,"Internal"
https://termgit.elga.gv.at/ValueSet/hl7-at-xds-dokumentenklassen,3.3.0+20241023,active,"1.2.40.0.34.10.86",hl7-at-xds-dokumentenklassen,HL7-at_XDS-Dokumentenklassen,"**Description:** This is a set of document classes and LOINC-Codes valid in AUSTRIA for CDA and XDS Metadata. The upper hierarchy level contains the root-document classes for ELGA documents (also assigend to  XDSMetadata.ClassCode).  The lower hierarchy level contains specialities of the root-document classes, which could be transferred to the registry,  using XDSMetadata.TypeCode. For the field ClinicalDocument.Code (CDA), it is preferred to use the most specialised code applicable (leaf elements, lower level). The documents title is displayed via the Stylesheet (see ''Hinweise'')  **Beschreibung:** Liste der für ÖSTERREICH gültigen Dokumentklassen und ihrer LOINC-Codes für CDA und die XDS-Metadaten. Die obere Hierarchieebene umfasst die Hauptdokumentenklassen für ELGA Dokumente, diese ist auch in den XDSMetadaten.ClassCode zu übertragen. Die untere Hierarchiebene enthält die Spezialisierungen der Hauptdokumentenklassen, sie können in den XDSMetadaten.TypeCode an die Registry übermittelt werden. Im Element ClinicalDocument.Code (CDA) werden bevorzugt die spezialisierten Codes der Blattebene (untere Ebene, Dokumententyp) verwendet.  Der Titel eines Dokumentes wird im Dokument über das Stylesheet angezeigt (siehe Hinweise)",,"LOINC"
https://termgit.elga.gv.at/ValueSet/langid-at,1.1.0+20240325,active,"1.2.40.0.34.10.14",langid-at,langid-at,"Value Set ohne Deprecaded Terms ('Bibliographic')",,"Internal"
https://termgit.elga.gv.at/ValueSet/lkf-diagnose-art,1.1.0+20240325,active,"1.2.40.0.34.6.0.10.67",lkf-diagnose-art,LKF_Diagnose-Art,"",,"Internal"
https://termgit.elga.gv.at/ValueSet/lkf-diagnose-statauf,1.1.0+20240325,active,"1.2.40.0.34.6.0.10.68",lkf-diagnose-statauf,LKF_Diagnose-statAuf,"",,"Internal"
https://termgit.elga.gv.at/ValueSet/lkf-diagnose-typ,1.1.0+20240325,active,"1.2.40.0.34.6.0.10.69",lkf-diagnose-typ,LKF_Diagnose-Typ,"",,"Internal"
https://termgit.elga.gv.at/ValueSet/orphanet-rare-diseases,1.2.0+20240430,retired,"1.2.40.0.34.6.0.10.84",orphanet-rare-diseases,Orphanet_Rare Diseases,"**Description:** Orphanet is a unique resource, gathering and improving knowledge on rare diseases so as to improve the diagnosis, care and treatment of patients with rare diseases.  **Beschreibung:** Orphanet ist eine einzigartige Ressource, die das Ziel verfolgt, das Wissen um seltene Krankheiten zu sammeln und zu erweitern, um so die Diagnose, Versorgung und Behandlung von Patienten mit seltenen Krankheiten zu verbessern.",,"Other"
https://termgit.elga.gv.at/ValueSet/rads-breastimaging,1.1.0+20240820,active,"1.2.40.0.34.6.0.10.90",rads-breastimaging,RADS_BreastImaging,"**Description:** Value set for the diagnostic imaging report (v3), containing concepts for the classification based on BI-RADS® (Breast Imaging Reporting & Data System). Contains information protected by copyright of SNOMED International. Any use of SNOMED CT in Austria requires a valid affiliate license or sublicense. The corresponding license is free of charge, provided that the use only takes place in Austria and fulfills the conditions of the Affiliate License Agreement. Affiliate licenses can be requested directly from the respective NRC via the [Member Licensing and Distribution Service](https://mlds.ihtsdotools.org/#/landing/AT) (MLDS).  **Beschreibung:** Value-Set für den Befund bildgebende Diagnostik (V3) mit Konzepten für die Klassifikation gemäß BI-RADS® (Breast Imaging Reporting & Data System). Enthält durch SNOMED International urheberrechtlich geschützte Information. Jede Verwendung von SNOMED CT in Österreich erfordert eine aufrechte Affiliate Lizenz oder eine Sublizenz. Die entsprechende Lizenz ist kostenlos, vorausgesetzt die Verwendung findet nur in Österreich statt und erfüllt die Bedingungen des Affiliate License Agreements. Affiliate Lizenzen können über das [Mitglieder-Lizenzierungs- und Distributions-Service](https://mlds.ihtsdotools.org/#/landing/AT) (MLDS) direkt beim jeweiligen NRC beantragt werden.",,"SCT"
https://termgit.elga.gv.at/ValueSet/rads-coronaryarterydisease,0.2.0+20240820,draft,"1.2.40.0.34.6.0.10.91",rads-coronaryarterydisease,RADS_CoronaryArteryDisease,"**Description:** Value set for the diagnostic imaging report (v3). The value set will remain in draft status until the codes will be replaced by SNOMED CT codes (presumably with Austrian extension February 2025 release). Users are advised not to use the value set before it enters the active stage. Note: The Reporting and Data Systems (RADS) assessment scales are a registered trademark of the American College of Radiology.  **Beschreibung:** Value-Set für den Befund bildgebende Diagnostik (V3). Das Value-Set verbleibt im Entwurf-Status ""draft"", bis die Codes durch SNOMED-CT-Codes ersetzt werden (voraussichtlich mit dem Austrian-Extension-Release im Februar 2025). Den Benutzer:innen wird empfohlen, das Value-Set nicht zu nutzen, solange es noch nicht aktiviert ist (Status ""active""). Achtung: Die ""Reporting and Data Systems (RADS)""-Skalen sind eine eingetragene Marke des American College of Radiology.",,"THO"
https://termgit.elga.gv.at/ValueSet/rads-diagnosticimagingscales,0.2.0+20240820,draft,"1.2.40.0.34.6.0.10.89",rads-diagnosticimagingscales,RADS_DiagnosticImagingScales,"**Description:** Value set for the diagnostic imaging report (v3). The value set will remain in draft status until the codes will be replaced by SNOMED CT codes (presumably with Austrian extension February 2025 release). Users are advised not to use the value set before it enters the active stage. Note: The Reporting and Data Systems (RADS) assessment scales are a registered trademark of the American College of Radiology.  **Beschreibung:** Value-Set für den Befund bildgebende Diagnostik (V3). Das Value-Set verbleibt im Entwurf-Status ""draft"", bis die Codes durch SNOMED-CT-Codes ersetzt werden (voraussichtlich mit dem Austrian-Extension-Release im Februar 2025). Den Benutzer:innen wird empfohlen, das Value-Set nicht zu nutzen, solange es noch nicht aktiviert ist (Status ""active""). Achtung: Die ""Reporting and Data Systems (RADS)""-Skalen sind eine eingetragene Marke des American College of Radiology.",,"THO"
https://termgit.elga.gv.at/ValueSet/rads-liverimaging,0.2.0+20240820,draft,"1.2.40.0.34.6.0.10.92",rads-liverimaging,RADS_LiverImaging,"**Description:** Value set for the diagnostic imaging report (v3). The value set will remain in draft status until the codes will be replaced by SNOMED CT codes (presumably with Austrian extension February 2025 release). Users are advised not to use the value set before it enters the active stage. Note: The Reporting and Data Systems (RADS) assessment scales are a registered trademark of the American College of Radiology.  **Beschreibung:** Value-Set für den Befund bildgebende Diagnostik (V3). Das Value-Set verbleibt im Entwurf-Status ""draft"", bis die Codes durch SNOMED-CT-Codes ersetzt werden (voraussichtlich mit dem Austrian-Extension-Release im Februar 2025). Den Benutzer:innen wird empfohlen, das Value-Set nicht zu nutzen, solange es noch nicht aktiviert ist (Status ""active""). Achtung: Die ""Reporting and Data Systems (RADS)""-Skalen sind eine eingetragene Marke des American College of Radiology.",,"THO"
https://termgit.elga.gv.at/ValueSet/rads-prostateimaging,0.2.0+20240820,draft,"1.2.40.0.34.6.0.10.93",rads-prostateimaging,RADS_ProstateImaging,"**Description:** Value set for the diagnostic imaging report (v3). The value set will remain in draft status until the codes will be replaced by SNOMED CT codes (presumably with Austrian extension February 2025 release). Users are advised not to use the value set before it enters the active stage. Note: The Reporting and Data Systems (RADS) assessment scales are a registered trademark of the American College of Radiology.  **Beschreibung:** Value-Set für den Befund bildgebende Diagnostik (V3). Das Value-Set verbleibt im Entwurf-Status ""draft"", bis die Codes durch SNOMED-CT-Codes ersetzt werden (voraussichtlich mit dem Austrian-Extension-Release im Februar 2025). Den Benutzer:innen wird empfohlen, das Value-Set nicht zu nutzen, solange es noch nicht aktiviert ist (Status ""active""). Achtung: Die ""Reporting and Data Systems (RADS)""-Skalen sind eine eingetragene Marke des American College of Radiology.",,"THO"
https://termgit.elga.gv.at/ValueSet/rads-thyroidimaging,0.2.0+20240820,draft,"1.2.40.0.34.6.0.10.94",rads-thyroidimaging,RADS_ThyroidImaging,"**Description:** Value set for the diagnostic imaging report (v3). The value set will remain in draft status until the codes will be replaced by SNOMED CT codes (presumably with Austrian extension February 2025 release). Users are advised not to use the value set before it enters the active stage. Note: The Reporting and Data Systems (RADS) assessment scales are a registered trademark of the American College of Radiology.  **Beschreibung:** Value-Set für den Befund bildgebende Diagnostik (V3). Das Value-Set verbleibt im Entwurf-Status ""draft"", bis die Codes durch SNOMED-CT-Codes ersetzt werden (voraussichtlich mit dem Austrian-Extension-Release im Februar 2025). Den Benutzer:innen wird empfohlen, das Value-Set nicht zu nutzen, solange es noch nicht aktiviert ist (Status ""active""). Achtung: Die ""Reporting and Data Systems (RADS)""-Skalen sind eine eingetragene Marke des American College of Radiology.",,"THO"
https://termgit.elga.gv.at/ValueSet/zeiteinheiten,2.0.0+20240903,active,,zeiteinheiten,Zeiteinheiten,"Zeiteinheiten von UCUM",,"UCUM"
